VHDL Files/src/ALU/sim-3-2.vcd
$date
  Sun Oct 15 14:11:10 2023
$end
$version
  GHDL v0
$end
$timescale
  1 fs
$end
$var reg 3 ! num1[2:0] $end
$var reg 3 " num2[2:0] $end
$var reg 4 # control[3:0] $end
$var reg 6 $ result[5:0] $end
$scope module dut $end
$var reg 3 % num1[2:0] $end
$var reg 3 & num2[2:0] $end
$var reg 1 ' s_u $end
$var reg 1 ( add $end
$var reg 1 ) subtract $end
$var reg 1 * multiply $end
$var reg 6 + result[5:0] $end
$var reg 4 , control[3:0] $end
$upscope $end
$enddefinitions $end
#0
b101 !
b110 "
b0000 #
b000000 $
b101 %
b110 &
0'
0(
0)
0*
b000000 +
b0000 ,
#1000000
b0001 #
b011110 $
1*
b011110 +
b0001 ,
#2000000
b0010 #
b111111 $
1)
0*
b111111 +
b0010 ,
#3000000
b0011 #
1*
b0011 ,
#4000000
b0100 #
b001011 $
1(
0)
0*
b001011 +
b0100 ,
#5000000
b0101 #
1*
b0101 ,
#6000000
b0110 #
1)
0*
b0110 ,
#7000000
b0111 #
1*
b0111 ,
#8000000
b1000 #
b000000 $
1'
0(
0)
0*
b000000 +
b1000 ,
#9000000
b1001 #
b000110 $
1*
b000110 +
b1001 ,
#10000000
b1010 #
b111111 $
1)
0*
b111111 +
b1010 ,
#11000000
b1011 #
1*
b1011 ,
#12000000
b1100 #
b111011 $
1(
0)
0*
b111011 +
b1100 ,
#13000000
b1101 #
1*
b1101 ,
#14000000
b1110 #
1)
0*
b1110 ,
#15000000
b1111 #
1*
b1111 ,
