VHDL Files/src/incrementer/eight_bit_incrementer_simulation.vcd
$date
  Sun Sep 24 16:09:46 2023
$end
$version
  GHDL v0
$end
$timescale
  1 fs
$end
$var reg 8 ! test_bits_in[7:0] $end
$var reg 8 " test_bits_out[7:0] $end
$scope module dut $end
$var reg 8 # input[7:0] $end
$var reg 8 $ output[7:0] $end
$var reg 1 % cin_wire $end
$var reg 1 & cout_wire $end
$scope module adder $end
$var reg 1 ' carry_in $end
$var reg 8 ( a[7:0] $end
$var reg 8 ) b[7:0] $end
$var reg 1 * carry_out $end
$var reg 8 + sum[7:0] $end
$var reg 3 , carry_through[2:0] $end
$scope module bits_1_0 $end
$var reg 1 - carry_in $end
$var reg 2 . a[1:0] $end
$var reg 2 / b[1:0] $end
$var reg 1 0 carry_out $end
$var reg 2 1 sum[1:0] $end
$var reg 2 2 g[1:0] $end
$var reg 2 3 p[1:0] $end
$var reg 4 4 c[3:0] $end
$upscope $end
$scope module bits_3_2 $end
$var reg 1 5 carry_in $end
$var reg 2 6 a[1:0] $end
$var reg 2 7 b[1:0] $end
$var reg 1 8 carry_out $end
$var reg 2 9 sum[1:0] $end
$var reg 2 : g[1:0] $end
$var reg 2 ; p[1:0] $end
$var reg 4 < c[3:0] $end
$upscope $end
$scope module bits_5_4 $end
$var reg 1 = carry_in $end
$var reg 2 > a[1:0] $end
$var reg 2 ? b[1:0] $end
$var reg 1 @ carry_out $end
$var reg 2 A sum[1:0] $end
$var reg 2 B g[1:0] $end
$var reg 2 C p[1:0] $end
$var reg 4 D c[3:0] $end
$upscope $end
$scope module bits_7_6 $end
$var reg 1 E carry_in $end
$var reg 2 F a[1:0] $end
$var reg 2 G b[1:0] $end
$var reg 1 H carry_out $end
$var reg 2 I sum[1:0] $end
$var reg 2 J g[1:0] $end
$var reg 2 K p[1:0] $end
$var reg 4 L c[3:0] $end
$upscope $end
$upscope $end
$upscope $end
$enddefinitions $end
#0
b00000000 !
b00000001 "
b00000000 #
b00000001 $
0%
0&
0'
b00000000 (
b00000001 )
0*
b00000001 +
b000 ,
0-
b00 .
b01 /
00
b01 1
b00 2
b01 3
b0000 4
05
b00 6
b00 7
08
b00 9
b00 :
b00 ;
b0000 <
0=
b00 >
b00 ?
0@
b00 A
b00 B
b00 C
b0000 D
0E
b00 F
b00 G
0H
b00 I
b00 J
b00 K
b0000 L
#1000000
b00000001 !
b00000010 "
b00000001 #
b00000010 $
b00000001 (
b00000010 +
b01 .
b10 1
b01 2
b0010 4
#2000000
b00000010 !
b00000011 "
b00000010 #
b00000011 $
b00000010 (
b00000011 +
b10 .
b11 1
b00 2
b11 3
b0000 4
#3000000
b00000011 !
b00000100 "
b00000011 #
b00000100 $
b00000011 (
b00000100 +
b001 ,
b11 .
10
b00 1
b01 2
b1010 4
15
b01 9
#4000000
b00000100 !
b00000101 "
b00000100 #
b00000101 $
b00000100 (
b00000101 +
b000 ,
b00 .
00
b01 1
b00 2
b01 3
b0000 4
05
b01 6
b01 9
b01 ;
b0000 <
#5000000
b00000101 !
b00000110 "
b00000101 #
b00000110 $
b00000101 (
b00000110 +
b01 .
b10 1
b01 2
b0010 4
#6000000
b00000110 !
b00000111 "
b00000110 #
b00000111 $
b00000110 (
b00000111 +
b10 .
b11 1
b00 2
b11 3
b0000 4
#7000000
b00000111 !
b00001000 "
b00000111 #
b00001000 $
b00000111 (
b00001000 +
b001 ,
b11 .
10
b00 1
b01 2
b1010 4
15
b10 9
b0011 <
#8000000
b00001000 !
b00001001 "
b00001000 #
b00001001 $
b00001000 (
b00001001 +
b000 ,
b00 .
00
b01 1
b00 2
b01 3
b0000 4
05
b10 6
b10 9
b10 ;
b0000 <
#9000000
b00001001 !
b00001010 "
b00001001 #
b00001010 $
b00001001 (
b00001010 +
b01 .
b10 1
b01 2
b0010 4
#10000000
b00001010 !
b00001011 "
b00001010 #
b00001011 $
b00001010 (
b00001011 +
b10 .
b11 1
b00 2
b11 3
b0000 4
#11000000
b00001011 !
b00001100 "
b00001011 #
b00001100 $
b00001011 (
b00001100 +
b001 ,
b11 .
10
b00 1
b01 2
b1010 4
15
b11 9
#12000000
b00001100 !
b00001101 "
b00001100 #
b00001101 $
b00001100 (
b00001101 +
b000 ,
b00 .
00
b01 1
b00 2
b01 3
b0000 4
05
b11 6
08
b11 9
b11 ;
b0000 <
0=
b00 A
#13000000
b00001101 !
b00001110 "
b00001101 #
b00001110 $
b00001101 (
b00001110 +
b01 .
b10 1
b01 2
b0010 4
#14000000
b00001110 !
b00001111 "
b00001110 #
b00001111 $
b00001110 (
b00001111 +
b10 .
b11 1
b00 2
b11 3
b0000 4
#15000000
b00001111 !
b00010000 "
b00001111 #
b00010000 $
b00001111 (
b00010000 +
b011 ,
b11 .
10
b00 1
b01 2
b1010 4
15
18
b00 9
b0111 <
1=
b01 A
#16000000
b00010000 !
b00010001 "
b00010000 #
b00010001 $
b00010000 (
b00010001 +
b000 ,
b00 .
00
b01 1
b00 2
b01 3
b0000 4
05
b00 6
08
b00 9
b00 ;
b0000 <
0=
b01 >
b01 A
b01 C
b0000 D
#17000000
b00010001 !
b00010010 "
b00010001 #
b00010010 $
b00010001 (
b00010010 +
b01 .
b10 1
b01 2
b0010 4
#18000000
b00010010 !
b00010011 "
b00010010 #
b00010011 $
b00010010 (
b00010011 +
b10 .
b11 1
b00 2
b11 3
b0000 4
#19000000
b00010011 !
b00010100 "
b00010011 #
b00010100 $
b00010011 (
b00010100 +
b001 ,
b11 .
10
b00 1
b01 2
b1010 4
15
b01 9
#20000000
b00010100 !
b00010101 "
b00010100 #
b00010101 $
b00010100 (
b00010101 +
b000 ,
b00 .
00
b01 1
b00 2
b01 3
b0000 4
05
b01 6
b01 9
b01 ;
b0000 <
#21000000
b00010101 !
b00010110 "
b00010101 #
b00010110 $
b00010101 (
b00010110 +
b01 .
b10 1
b01 2
b0010 4
#22000000
b00010110 !
b00010111 "
b00010110 #
b00010111 $
b00010110 (
b00010111 +
b10 .
b11 1
b00 2
b11 3
b0000 4
#23000000
b00010111 !
b00011000 "
b00010111 #
b00011000 $
b00010111 (
b00011000 +
b001 ,
b11 .
10
b00 1
b01 2
b1010 4
15
b10 9
b0011 <
#24000000
b00011000 !
b00011001 "
b00011000 #
b00011001 $
b00011000 (
b00011001 +
b000 ,
b00 .
00
b01 1
b00 2
b01 3
b0000 4
05
b10 6
b10 9
b10 ;
b0000 <
#25000000
b00011001 !
b00011010 "
b00011001 #
b00011010 $
b00011001 (
b00011010 +
b01 .
b10 1
b01 2
b0010 4
#26000000
b00011010 !
b00011011 "
b00011010 #
b00011011 $
b00011010 (
b00011011 +
b10 .
b11 1
b00 2
b11 3
b0000 4
#27000000
b00011011 !
b00011100 "
b00011011 #
b00011100 $
b00011011 (
b00011100 +
b001 ,
b11 .
10
b00 1
b01 2
b1010 4
15
b11 9
#28000000
b00011100 !
b00011101 "
b00011100 #
b00011101 $
b00011100 (
b00011101 +
b000 ,
b00 .
00
b01 1
b00 2
b01 3
b0000 4
05
b11 6
08
b11 9
b11 ;
b0000 <
0=
b01 A
b0000 D
#29000000
b00011101 !
b00011110 "
b00011101 #
b00011110 $
b00011101 (
b00011110 +
b01 .
b10 1
b01 2
b0010 4
#30000000
b00011110 !
b00011111 "
b00011110 #
b00011111 $
b00011110 (
b00011111 +
b10 .
b11 1
b00 2
b11 3
b0000 4
#31000000
b00011111 !
b00100000 "
b00011111 #
b00100000 $
b00011111 (
b00100000 +
b011 ,
b11 .
10
b00 1
b01 2
b1010 4
15
18
b00 9
b0111 <
1=
b10 A
b0011 D
#32000000
b00100000 !
b00100001 "
b00100000 #
b00100001 $
b00100000 (
b00100001 +
b000 ,
b00 .
00
b01 1
b00 2
b01 3
b0000 4
05
b00 6
08
b00 9
b00 ;
b0000 <
0=
b10 >
b10 A
b10 C
b0000 D
#33000000
b00100001 !
b00100010 "
b00100001 #
b00100010 $
b00100001 (
b00100010 +
b01 .
b10 1
b01 2
b0010 4
#34000000
b00100010 !
b00100011 "
b00100010 #
b00100011 $
b00100010 (
b00100011 +
b10 .
b11 1
b00 2
b11 3
b0000 4
#35000000
b00100011 !
b00100100 "
b00100011 #
b00100100 $
b00100011 (
b00100100 +
b001 ,
b11 .
10
b00 1
b01 2
b1010 4
15
b01 9
#36000000
b00100100 !
b00100101 "
b00100100 #
b00100101 $
b00100100 (
b00100101 +
b000 ,
b00 .
00
b01 1
b00 2
b01 3
b0000 4
05
b01 6
b01 9
b01 ;
b0000 <
#37000000
b00100101 !
b00100110 "
b00100101 #
b00100110 $
b00100101 (
b00100110 +
b01 .
b10 1
b01 2
b0010 4
#38000000
b00100110 !
b00100111 "
b00100110 #
b00100111 $
b00100110 (
b00100111 +
b10 .
b11 1
b00 2
b11 3
b0000 4
#39000000
b00100111 !
b00101000 "
b00100111 #
b00101000 $
b00100111 (
b00101000 +
b001 ,
b11 .
10
b00 1
b01 2
b1010 4
15
b10 9
b0011 <
#40000000
b00101000 !
b00101001 "
b00101000 #
b00101001 $
b00101000 (
b00101001 +
b000 ,
b00 .
00
b01 1
b00 2
b01 3
b0000 4
05
b10 6
b10 9
b10 ;
b0000 <
#41000000
b00101001 !
b00101010 "
b00101001 #
b00101010 $
b00101001 (
b00101010 +
b01 .
b10 1
b01 2
b0010 4
#42000000
b00101010 !
b00101011 "
b00101010 #
b00101011 $
b00101010 (
b00101011 +
b10 .
b11 1
b00 2
b11 3
b0000 4
#43000000
b00101011 !
b00101100 "
b00101011 #
b00101100 $
b00101011 (
b00101100 +
b001 ,
b11 .
10
b00 1
b01 2
b1010 4
15
b11 9
#44000000
b00101100 !
b00101101 "
b00101100 #
b00101101 $
b00101100 (
b00101101 +
b000 ,
b00 .
00
b01 1
b00 2
b01 3
b0000 4
05
b11 6
08
b11 9
b11 ;
b0000 <
0=
b10 A
#45000000
b00101101 !
b00101110 "
b00101101 #
b00101110 $
b00101101 (
b00101110 +
b01 .
b10 1
b01 2
b0010 4
#46000000
b00101110 !
b00101111 "
b00101110 #
b00101111 $
b00101110 (
b00101111 +
b10 .
b11 1
b00 2
b11 3
b0000 4
#47000000
b00101111 !
b00110000 "
b00101111 #
b00110000 $
b00101111 (
b00110000 +
b011 ,
b11 .
10
b00 1
b01 2
b1010 4
15
18
b00 9
b0111 <
1=
b11 A
#48000000
b00110000 !
b00110001 "
b00110000 #
b00110001 $
b00110000 (
b00110001 +
b000 ,
b00 .
00
b01 1
b00 2
b01 3
b0000 4
05
b00 6
08
b00 9
b00 ;
b0000 <
0=
b11 >
0@
b11 A
b11 C
b0000 D
0E
b00 I
#49000000
b00110001 !
b00110010 "
b00110001 #
b00110010 $
b00110001 (
b00110010 +
b01 .
b10 1
b01 2
b0010 4
#50000000
b00110010 !
b00110011 "
b00110010 #
b00110011 $
b00110010 (
b00110011 +
b10 .
b11 1
b00 2
b11 3
b0000 4
#51000000
b00110011 !
b00110100 "
b00110011 #
b00110100 $
b00110011 (
b00110100 +
b001 ,
b11 .
10
b00 1
b01 2
b1010 4
15
b01 9
#52000000
b00110100 !
b00110101 "
b00110100 #
b00110101 $
b00110100 (
b00110101 +
b000 ,
b00 .
00
b01 1
b00 2
b01 3
b0000 4
05
b01 6
b01 9
b01 ;
b0000 <
#53000000
b00110101 !
b00110110 "
b00110101 #
b00110110 $
b00110101 (
b00110110 +
b01 .
b10 1
b01 2
b0010 4
#54000000
b00110110 !
b00110111 "
b00110110 #
b00110111 $
b00110110 (
b00110111 +
b10 .
b11 1
b00 2
b11 3
b0000 4
#55000000
b00110111 !
b00111000 "
b00110111 #
b00111000 $
b00110111 (
b00111000 +
b001 ,
b11 .
10
b00 1
b01 2
b1010 4
15
b10 9
b0011 <
#56000000
b00111000 !
b00111001 "
b00111000 #
b00111001 $
b00111000 (
b00111001 +
b000 ,
b00 .
00
b01 1
b00 2
b01 3
b0000 4
05
b10 6
b10 9
b10 ;
b0000 <
#57000000
b00111001 !
b00111010 "
b00111001 #
b00111010 $
b00111001 (
b00111010 +
b01 .
b10 1
b01 2
b0010 4
#58000000
b00111010 !
b00111011 "
b00111010 #
b00111011 $
b00111010 (
b00111011 +
b10 .
b11 1
b00 2
b11 3
b0000 4
#59000000
b00111011 !
b00111100 "
b00111011 #
b00111100 $
b00111011 (
b00111100 +
b001 ,
b11 .
10
b00 1
b01 2
b1010 4
15
b11 9
#60000000
b00111100 !
b00111101 "
b00111100 #
b00111101 $
b00111100 (
b00111101 +
b000 ,
b00 .
00
b01 1
b00 2
b01 3
b0000 4
05
b11 6
08
b11 9
b11 ;
b0000 <
0=
0@
b11 A
b0000 D
0E
b00 I
#61000000
b00111101 !
b00111110 "
b00111101 #
b00111110 $
b00111101 (
b00111110 +
b01 .
b10 1
b01 2
b0010 4
#62000000
b00111110 !
b00111111 "
b00111110 #
b00111111 $
b00111110 (
b00111111 +
b10 .
b11 1
b00 2
b11 3
b0000 4
#63000000
b00111111 !
b01000000 "
b00111111 #
b01000000 $
b00111111 (
b01000000 +
b111 ,
b11 .
10
b00 1
b01 2
b1010 4
15
18
b00 9
b0111 <
1=
1@
b00 A
b0111 D
1E
b01 I
#64000000
b01000000 !
b01000001 "
b01000000 #
b01000001 $
b01000000 (
b01000001 +
b000 ,
b00 .
00
b01 1
b00 2
b01 3
b0000 4
05
b00 6
08
b00 9
b00 ;
b0000 <
0=
b00 >
0@
b00 A
b00 C
b0000 D
0E
b01 F
b01 I
b01 K
b0000 L
#65000000
b01000001 !
b01000010 "
b01000001 #
b01000010 $
b01000001 (
b01000010 +
b01 .
b10 1
b01 2
b0010 4
#66000000
b01000010 !
b01000011 "
b01000010 #
b01000011 $
b01000010 (
b01000011 +
b10 .
b11 1
b00 2
b11 3
b0000 4
#67000000
b01000011 !
b01000100 "
b01000011 #
b01000100 $
b01000011 (
b01000100 +
b001 ,
b11 .
10
b00 1
b01 2
b1010 4
15
b01 9
#68000000
b01000100 !
b01000101 "
b01000100 #
b01000101 $
b01000100 (
b01000101 +
b000 ,
b00 .
00
b01 1
b00 2
b01 3
b0000 4
05
b01 6
b01 9
b01 ;
b0000 <
#69000000
b01000101 !
b01000110 "
b01000101 #
b01000110 $
b01000101 (
b01000110 +
b01 .
b10 1
b01 2
b0010 4
#70000000
b01000110 !
b01000111 "
b01000110 #
b01000111 $
b01000110 (
b01000111 +
b10 .
b11 1
b00 2
b11 3
b0000 4
#71000000
b01000111 !
b01001000 "
b01000111 #
b01001000 $
b01000111 (
b01001000 +
b001 ,
b11 .
10
b00 1
b01 2
b1010 4
15
b10 9
b0011 <
#72000000
b01001000 !
b01001001 "
b01001000 #
b01001001 $
b01001000 (
b01001001 +
b000 ,
b00 .
00
b01 1
b00 2
b01 3
b0000 4
05
b10 6
b10 9
b10 ;
b0000 <
#73000000
b01001001 !
b01001010 "
b01001001 #
b01001010 $
b01001001 (
b01001010 +
b01 .
b10 1
b01 2
b0010 4
#74000000
b01001010 !
b01001011 "
b01001010 #
b01001011 $
b01001010 (
b01001011 +
b10 .
b11 1
b00 2
b11 3
b0000 4
#75000000
b01001011 !
b01001100 "
b01001011 #
b01001100 $
b01001011 (
b01001100 +
b001 ,
b11 .
10
b00 1
b01 2
b1010 4
15
b11 9
#76000000
b01001100 !
b01001101 "
b01001100 #
b01001101 $
b01001100 (
b01001101 +
b000 ,
b00 .
00
b01 1
b00 2
b01 3
b0000 4
05
b11 6
08
b11 9
b11 ;
b0000 <
0=
b00 A
#77000000
b01001101 !
b01001110 "
b01001101 #
b01001110 $
b01001101 (
b01001110 +
b01 .
b10 1
b01 2
b0010 4
#78000000
b01001110 !
b01001111 "
b01001110 #
b01001111 $
b01001110 (
b01001111 +
b10 .
b11 1
b00 2
b11 3
b0000 4
#79000000
b01001111 !
b01010000 "
b01001111 #
b01010000 $
b01001111 (
b01010000 +
b011 ,
b11 .
10
b00 1
b01 2
b1010 4
15
18
b00 9
b0111 <
1=
b01 A
#80000000
b01010000 !
b01010001 "
b01010000 #
b01010001 $
b01010000 (
b01010001 +
b000 ,
b00 .
00
b01 1
b00 2
b01 3
b0000 4
05
b00 6
08
b00 9
b00 ;
b0000 <
0=
b01 >
b01 A
b01 C
b0000 D
#81000000
b01010001 !
b01010010 "
b01010001 #
b01010010 $
b01010001 (
b01010010 +
b01 .
b10 1
b01 2
b0010 4
#82000000
b01010010 !
b01010011 "
b01010010 #
b01010011 $
b01010010 (
b01010011 +
b10 .
b11 1
b00 2
b11 3
b0000 4
#83000000
b01010011 !
b01010100 "
b01010011 #
b01010100 $
b01010011 (
b01010100 +
b001 ,
b11 .
10
b00 1
b01 2
b1010 4
15
b01 9
#84000000
b01010100 !
b01010101 "
b01010100 #
b01010101 $
b01010100 (
b01010101 +
b000 ,
b00 .
00
b01 1
b00 2
b01 3
b0000 4
05
b01 6
b01 9
b01 ;
b0000 <
#85000000
b01010101 !
b01010110 "
b01010101 #
b01010110 $
b01010101 (
b01010110 +
b01 .
b10 1
b01 2
b0010 4
#86000000
b01010110 !
b01010111 "
b01010110 #
b01010111 $
b01010110 (
b01010111 +
b10 .
b11 1
b00 2
b11 3
b0000 4
#87000000
b01010111 !
b01011000 "
b01010111 #
b01011000 $
b01010111 (
b01011000 +
b001 ,
b11 .
10
b00 1
b01 2
b1010 4
15
b10 9
b0011 <
#88000000
b01011000 !
b01011001 "
b01011000 #
b01011001 $
b01011000 (
b01011001 +
b000 ,
b00 .
00
b01 1
b00 2
b01 3
b0000 4
05
b10 6
b10 9
b10 ;
b0000 <
#89000000
b01011001 !
b01011010 "
b01011001 #
b01011010 $
b01011001 (
b01011010 +
b01 .
b10 1
b01 2
b0010 4
#90000000
b01011010 !
b01011011 "
b01011010 #
b01011011 $
b01011010 (
b01011011 +
b10 .
b11 1
b00 2
b11 3
b0000 4
#91000000
b01011011 !
b01011100 "
b01011011 #
b01011100 $
b01011011 (
b01011100 +
b001 ,
b11 .
10
b00 1
b01 2
b1010 4
15
b11 9
#92000000
b01011100 !
b01011101 "
b01011100 #
b01011101 $
b01011100 (
b01011101 +
b000 ,
b00 .
00
b01 1
b00 2
b01 3
b0000 4
05
b11 6
08
b11 9
b11 ;
b0000 <
0=
b01 A
b0000 D
#93000000
b01011101 !
b01011110 "
b01011101 #
b01011110 $
b01011101 (
b01011110 +
b01 .
b10 1
b01 2
b0010 4
#94000000
b01011110 !
b01011111 "
b01011110 #
b01011111 $
b01011110 (
b01011111 +
b10 .
b11 1
b00 2
b11 3
b0000 4
#95000000
b01011111 !
b01100000 "
b01011111 #
b01100000 $
b01011111 (
b01100000 +
b011 ,
b11 .
10
b00 1
b01 2
b1010 4
15
18
b00 9
b0111 <
1=
b10 A
b0011 D
#96000000
b01100000 !
b01100001 "
b01100000 #
b01100001 $
b01100000 (
b01100001 +
b000 ,
b00 .
00
b01 1
b00 2
b01 3
b0000 4
05
b00 6
08
b00 9
b00 ;
b0000 <
0=
b10 >
b10 A
b10 C
b0000 D
#97000000
b01100001 !
b01100010 "
b01100001 #
b01100010 $
b01100001 (
b01100010 +
b01 .
b10 1
b01 2
b0010 4
#98000000
b01100010 !
b01100011 "
b01100010 #
b01100011 $
b01100010 (
b01100011 +
b10 .
b11 1
b00 2
b11 3
b0000 4
#99000000
b01100011 !
b01100100 "
b01100011 #
b01100100 $
b01100011 (
b01100100 +
b001 ,
b11 .
10
b00 1
b01 2
b1010 4
15
b01 9
#100000000
b01100100 !
b01100101 "
b01100100 #
b01100101 $
b01100100 (
b01100101 +
b000 ,
b00 .
00
b01 1
b00 2
b01 3
b0000 4
05
b01 6
b01 9
b01 ;
b0000 <
#101000000
b01100101 !
b01100110 "
b01100101 #
b01100110 $
b01100101 (
b01100110 +
b01 .
b10 1
b01 2
b0010 4
#102000000
b01100110 !
b01100111 "
b01100110 #
b01100111 $
b01100110 (
b01100111 +
b10 .
b11 1
b00 2
b11 3
b0000 4
#103000000
b01100111 !
b01101000 "
b01100111 #
b01101000 $
b01100111 (
b01101000 +
b001 ,
b11 .
10
b00 1
b01 2
b1010 4
15
b10 9
b0011 <
#104000000
b01101000 !
b01101001 "
b01101000 #
b01101001 $
b01101000 (
b01101001 +
b000 ,
b00 .
00
b01 1
b00 2
b01 3
b0000 4
05
b10 6
b10 9
b10 ;
b0000 <
#105000000
b01101001 !
b01101010 "
b01101001 #
b01101010 $
b01101001 (
b01101010 +
b01 .
b10 1
b01 2
b0010 4
#106000000
b01101010 !
b01101011 "
b01101010 #
b01101011 $
b01101010 (
b01101011 +
b10 .
b11 1
b00 2
b11 3
b0000 4
#107000000
b01101011 !
b01101100 "
b01101011 #
b01101100 $
b01101011 (
b01101100 +
b001 ,
b11 .
10
b00 1
b01 2
b1010 4
15
b11 9
#108000000
b01101100 !
b01101101 "
b01101100 #
b01101101 $
b01101100 (
b01101101 +
b000 ,
b00 .
00
b01 1
b00 2
b01 3
b0000 4
05
b11 6
08
b11 9
b11 ;
b0000 <
0=
b10 A
#109000000
b01101101 !
b01101110 "
b01101101 #
b01101110 $
b01101101 (
b01101110 +
b01 .
b10 1
b01 2
b0010 4
#110000000
b01101110 !
b01101111 "
b01101110 #
b01101111 $
b01101110 (
b01101111 +
b10 .
b11 1
b00 2
b11 3
b0000 4
#111000000
b01101111 !
b01110000 "
b01101111 #
b01110000 $
b01101111 (
b01110000 +
b011 ,
b11 .
10
b00 1
b01 2
b1010 4
15
18
b00 9
b0111 <
1=
b11 A
#112000000
b01110000 !
b01110001 "
b01110000 #
b01110001 $
b01110000 (
b01110001 +
b000 ,
b00 .
00
b01 1
b00 2
b01 3
b0000 4
05
b00 6
08
b00 9
b00 ;
b0000 <
0=
b11 >
0@
b11 A
b11 C
b0000 D
0E
b01 I
b0000 L
#113000000
b01110001 !
b01110010 "
b01110001 #
b01110010 $
b01110001 (
b01110010 +
b01 .
b10 1
b01 2
b0010 4
#114000000
b01110010 !
b01110011 "
b01110010 #
b01110011 $
b01110010 (
b01110011 +
b10 .
b11 1
b00 2
b11 3
b0000 4
#115000000
b01110011 !
b01110100 "
b01110011 #
b01110100 $
b01110011 (
b01110100 +
b001 ,
b11 .
10
b00 1
b01 2
b1010 4
15
b01 9
#116000000
b01110100 !
b01110101 "
b01110100 #
b01110101 $
b01110100 (
b01110101 +
b000 ,
b00 .
00
b01 1
b00 2
b01 3
b0000 4
05
b01 6
b01 9
b01 ;
b0000 <
#117000000
b01110101 !
b01110110 "
b01110101 #
b01110110 $
b01110101 (
b01110110 +
b01 .
b10 1
b01 2
b0010 4
#118000000
b01110110 !
b01110111 "
b01110110 #
b01110111 $
b01110110 (
b01110111 +
b10 .
b11 1
b00 2
b11 3
b0000 4
#119000000
b01110111 !
b01111000 "
b01110111 #
b01111000 $
b01110111 (
b01111000 +
b001 ,
b11 .
10
b00 1
b01 2
b1010 4
15
b10 9
b0011 <
#120000000
b01111000 !
b01111001 "
b01111000 #
b01111001 $
b01111000 (
b01111001 +
b000 ,
b00 .
00
b01 1
b00 2
b01 3
b0000 4
05
b10 6
b10 9
b10 ;
b0000 <
#121000000
b01111001 !
b01111010 "
b01111001 #
b01111010 $
b01111001 (
b01111010 +
b01 .
b10 1
b01 2
b0010 4
#122000000
b01111010 !
b01111011 "
b01111010 #
b01111011 $
b01111010 (
b01111011 +
b10 .
b11 1
b00 2
b11 3
b0000 4
#123000000
b01111011 !
b01111100 "
b01111011 #
b01111100 $
b01111011 (
b01111100 +
b001 ,
b11 .
10
b00 1
b01 2
b1010 4
15
b11 9
#124000000
b01111100 !
b01111101 "
b01111100 #
b01111101 $
b01111100 (
b01111101 +
b000 ,
b00 .
00
b01 1
b00 2
b01 3
b0000 4
05
b11 6
08
b11 9
b11 ;
b0000 <
0=
0@
b11 A
b0000 D
0E
b01 I
b0000 L
#125000000
b01111101 !
b01111110 "
b01111101 #
b01111110 $
b01111101 (
b01111110 +
b01 .
b10 1
b01 2
b0010 4
#126000000
b01111110 !
b01111111 "
b01111110 #
b01111111 $
b01111110 (
b01111111 +
b10 .
b11 1
b00 2
b11 3
b0000 4
#127000000
b01111111 !
b10000000 "
b01111111 #
b10000000 $
b01111111 (
b10000000 +
b111 ,
b11 .
10
b00 1
b01 2
b1010 4
15
18
b00 9
b0111 <
1=
1@
b00 A
b0111 D
1E
b10 I
b0011 L
#128000000
b10000000 !
b10000001 "
b10000000 #
b10000001 $
b10000000 (
b10000001 +
b000 ,
b00 .
00
b01 1
b00 2
b01 3
b0000 4
05
b00 6
08
b00 9
b00 ;
b0000 <
0=
b00 >
0@
b00 A
b00 C
b0000 D
0E
b10 F
b10 I
b10 K
b0000 L
#129000000
b10000001 !
b10000010 "
b10000001 #
b10000010 $
b10000001 (
b10000010 +
b01 .
b10 1
b01 2
b0010 4
#130000000
b10000010 !
b10000011 "
b10000010 #
b10000011 $
b10000010 (
b10000011 +
b10 .
b11 1
b00 2
b11 3
b0000 4
#131000000
b10000011 !
b10000100 "
b10000011 #
b10000100 $
b10000011 (
b10000100 +
b001 ,
b11 .
10
b00 1
b01 2
b1010 4
15
b01 9
#132000000
b10000100 !
b10000101 "
b10000100 #
b10000101 $
b10000100 (
b10000101 +
b000 ,
b00 .
00
b01 1
b00 2
b01 3
b0000 4
05
b01 6
b01 9
b01 ;
b0000 <
#133000000
b10000101 !
b10000110 "
b10000101 #
b10000110 $
b10000101 (
b10000110 +
b01 .
b10 1
b01 2
b0010 4
#134000000
b10000110 !
b10000111 "
b10000110 #
b10000111 $
b10000110 (
b10000111 +
b10 .
b11 1
b00 2
b11 3
b0000 4
#135000000
b10000111 !
b10001000 "
b10000111 #
b10001000 $
b10000111 (
b10001000 +
b001 ,
b11 .
10
b00 1
b01 2
b1010 4
15
b10 9
b0011 <
#136000000
b10001000 !
b10001001 "
b10001000 #
b10001001 $
b10001000 (
b10001001 +
b000 ,
b00 .
00
b01 1
b00 2
b01 3
b0000 4
05
b10 6
b10 9
b10 ;
b0000 <
#137000000
b10001001 !
b10001010 "
b10001001 #
b10001010 $
b10001001 (
b10001010 +
b01 .
b10 1
b01 2
b0010 4
#138000000
b10001010 !
b10001011 "
b10001010 #
b10001011 $
b10001010 (
b10001011 +
b10 .
b11 1
b00 2
b11 3
b0000 4
#139000000
b10001011 !
b10001100 "
b10001011 #
b10001100 $
b10001011 (
b10001100 +
b001 ,
b11 .
10
b00 1
b01 2
b1010 4
15
b11 9
#140000000
b10001100 !
b10001101 "
b10001100 #
b10001101 $
b10001100 (
b10001101 +
b000 ,
b00 .
00
b01 1
b00 2
b01 3
b0000 4
05
b11 6
08
b11 9
b11 ;
b0000 <
0=
b00 A
#141000000
b10001101 !
b10001110 "
b10001101 #
b10001110 $
b10001101 (
b10001110 +
b01 .
b10 1
b01 2
b0010 4
#142000000
b10001110 !
b10001111 "
b10001110 #
b10001111 $
b10001110 (
b10001111 +
b10 .
b11 1
b00 2
b11 3
b0000 4
#143000000
b10001111 !
b10010000 "
b10001111 #
b10010000 $
b10001111 (
b10010000 +
b011 ,
b11 .
10
b00 1
b01 2
b1010 4
15
18
b00 9
b0111 <
1=
b01 A
#144000000
b10010000 !
b10010001 "
b10010000 #
b10010001 $
b10010000 (
b10010001 +
b000 ,
b00 .
00
b01 1
b00 2
b01 3
b0000 4
05
b00 6
08
b00 9
b00 ;
b0000 <
0=
b01 >
b01 A
b01 C
b0000 D
#145000000
b10010001 !
b10010010 "
b10010001 #
b10010010 $
b10010001 (
b10010010 +
b01 .
b10 1
b01 2
b0010 4
#146000000
b10010010 !
b10010011 "
b10010010 #
b10010011 $
b10010010 (
b10010011 +
b10 .
b11 1
b00 2
b11 3
b0000 4
#147000000
b10010011 !
b10010100 "
b10010011 #
b10010100 $
b10010011 (
b10010100 +
b001 ,
b11 .
10
b00 1
b01 2
b1010 4
15
b01 9
#148000000
b10010100 !
b10010101 "
b10010100 #
b10010101 $
b10010100 (
b10010101 +
b000 ,
b00 .
00
b01 1
b00 2
b01 3
b0000 4
05
b01 6
b01 9
b01 ;
b0000 <
#149000000
b10010101 !
b10010110 "
b10010101 #
b10010110 $
b10010101 (
b10010110 +
b01 .
b10 1
b01 2
b0010 4
#150000000
b10010110 !
b10010111 "
b10010110 #
b10010111 $
b10010110 (
b10010111 +
b10 .
b11 1
b00 2
b11 3
b0000 4
#151000000
b10010111 !
b10011000 "
b10010111 #
b10011000 $
b10010111 (
b10011000 +
b001 ,
b11 .
10
b00 1
b01 2
b1010 4
15
b10 9
b0011 <
#152000000
b10011000 !
b10011001 "
b10011000 #
b10011001 $
b10011000 (
b10011001 +
b000 ,
b00 .
00
b01 1
b00 2
b01 3
b0000 4
05
b10 6
b10 9
b10 ;
b0000 <
#153000000
b10011001 !
b10011010 "
b10011001 #
b10011010 $
b10011001 (
b10011010 +
b01 .
b10 1
b01 2
b0010 4
#154000000
b10011010 !
b10011011 "
b10011010 #
b10011011 $
b10011010 (
b10011011 +
b10 .
b11 1
b00 2
b11 3
b0000 4
#155000000
b10011011 !
b10011100 "
b10011011 #
b10011100 $
b10011011 (
b10011100 +
b001 ,
b11 .
10
b00 1
b01 2
b1010 4
15
b11 9
#156000000
b10011100 !
b10011101 "
b10011100 #
b10011101 $
b10011100 (
b10011101 +
b000 ,
b00 .
00
b01 1
b00 2
b01 3
b0000 4
05
b11 6
08
b11 9
b11 ;
b0000 <
0=
b01 A
b0000 D
#157000000
b10011101 !
b10011110 "
b10011101 #
b10011110 $
b10011101 (
b10011110 +
b01 .
b10 1
b01 2
b0010 4
#158000000
b10011110 !
b10011111 "
b10011110 #
b10011111 $
b10011110 (
b10011111 +
b10 .
b11 1
b00 2
b11 3
b0000 4
#159000000
b10011111 !
b10100000 "
b10011111 #
b10100000 $
b10011111 (
b10100000 +
b011 ,
b11 .
10
b00 1
b01 2
b1010 4
15
18
b00 9
b0111 <
1=
b10 A
b0011 D
