VHDL Files/src/incrementer/eight_bit_incrementer.vcd
$date
  Sun Sep 24 16:00:01 2023
$end
$version
  GHDL v0
$end
$timescale
  1 fs
$end
$var reg 8 ! test_bits_in[7:0] $end
$var reg 8 " test_bits_out[7:0] $end
$scope module dut $end
$var reg 8 # input[7:0] $end
$var reg 8 $ output[7:0] $end
$var reg 1 % cin_wire $end
$var reg 1 & cout_wire $end
$scope module adder $end
$var reg 1 ' carry_in $end
$var reg 8 ( a[7:0] $end
$var reg 8 ) b[7:0] $end
$var reg 1 * carry_out $end
$var reg 8 + sum[7:0] $end
$var reg 1 , carry_through $end
$scope module first_four_bits $end
$var reg 1 - carry_in $end
$var reg 4 . a[3:0] $end
$var reg 4 / b[3:0] $end
$var reg 1 0 carry_out $end
$var reg 4 1 sum[3:0] $end
$var reg 1 2 carry_through $end
$scope module first_two_bits $end
$var reg 1 3 carry_in $end
$var reg 2 4 a[1:0] $end
$var reg 2 5 b[1:0] $end
$var reg 1 6 carry_out $end
$var reg 2 7 sum[1:0] $end
$var reg 1 8 carry_through $end
$scope module lsb $end
$var reg 1 9 carry_in $end
$var reg 1 : i1 $end
$var reg 1 ; i0 $end
$var reg 1 < carry_out $end
$var reg 1 = sum $end
$var reg 1 > p0 $end
$var reg 1 ? p1 $end
$var reg 1 @ p2 $end
$scope module half_adder_xin_yin $end
$var reg 1 A i1 $end
$var reg 1 B i0 $end
$var reg 1 C sum $end
$var reg 1 D carry $end
$upscope $end
$scope module half_adder_cin_sout $end
$var reg 1 E i1 $end
$var reg 1 F i0 $end
$var reg 1 G sum $end
$var reg 1 H carry $end
$upscope $end
$upscope $end
$scope module msb $end
$var reg 1 I carry_in $end
$var reg 1 J i1 $end
$var reg 1 K i0 $end
$var reg 1 L carry_out $end
$var reg 1 M sum $end
$var reg 1 N p0 $end
$var reg 1 O p1 $end
$var reg 1 P p2 $end
$scope module half_adder_xin_yin $end
$var reg 1 Q i1 $end
$var reg 1 R i0 $end
$var reg 1 S sum $end
$var reg 1 T carry $end
$upscope $end
$scope module half_adder_cin_sout $end
$var reg 1 U i1 $end
$var reg 1 V i0 $end
$var reg 1 W sum $end
$var reg 1 X carry $end
$upscope $end
$upscope $end
$upscope $end
$scope module last_two_bits $end
$var reg 1 Y carry_in $end
$var reg 2 Z a[1:0] $end
$var reg 2 [ b[1:0] $end
$var reg 1 \ carry_out $end
$var reg 2 ] sum[1:0] $end
$var reg 1 ^ carry_through $end
$scope module lsb $end
$var reg 1 _ carry_in $end
$var reg 1 ` i1 $end
$var reg 1 a i0 $end
$var reg 1 b carry_out $end
$var reg 1 c sum $end
$var reg 1 d p0 $end
$var reg 1 e p1 $end
$var reg 1 f p2 $end
$scope module half_adder_xin_yin $end
$var reg 1 g i1 $end
$var reg 1 h i0 $end
$var reg 1 i sum $end
$var reg 1 j carry $end
$upscope $end
$scope module half_adder_cin_sout $end
$var reg 1 k i1 $end
$var reg 1 l i0 $end
$var reg 1 m sum $end
$var reg 1 n carry $end
$upscope $end
$upscope $end
$scope module msb $end
$var reg 1 o carry_in $end
$var reg 1 p i1 $end
$var reg 1 q i0 $end
$var reg 1 r carry_out $end
$var reg 1 s sum $end
$var reg 1 t p0 $end
$var reg 1 u p1 $end
$var reg 1 v p2 $end
$scope module half_adder_xin_yin $end
$var reg 1 w i1 $end
$var reg 1 x i0 $end
$var reg 1 y sum $end
$var reg 1 z carry $end
$upscope $end
$scope module half_adder_cin_sout $end
$var reg 1 { i1 $end
$var reg 1 | i0 $end
$var reg 1 } sum $end
$var reg 1 !" carry $end
$upscope $end
$upscope $end
$upscope $end
$upscope $end
$scope module last_four_bits $end
$var reg 1 "" carry_in $end
$var reg 4 #" a[3:0] $end
$var reg 4 $" b[3:0] $end
$var reg 1 %" carry_out $end
$var reg 4 &" sum[3:0] $end
$var reg 1 '" carry_through $end
$scope module first_two_bits $end
$var reg 1 (" carry_in $end
$var reg 2 )" a[1:0] $end
$var reg 2 *" b[1:0] $end
$var reg 1 +" carry_out $end
$var reg 2 ," sum[1:0] $end
$var reg 1 -" carry_through $end
$scope module lsb $end
$var reg 1 ." carry_in $end
$var reg 1 /" i1 $end
$var reg 1 0" i0 $end
$var reg 1 1" carry_out $end
$var reg 1 2" sum $end
$var reg 1 3" p0 $end
$var reg 1 4" p1 $end
$var reg 1 5" p2 $end
$scope module half_adder_xin_yin $end
$var reg 1 6" i1 $end
$var reg 1 7" i0 $end
$var reg 1 8" sum $end
$var reg 1 9" carry $end
$upscope $end
$scope module half_adder_cin_sout $end
$var reg 1 :" i1 $end
$var reg 1 ;" i0 $end
$var reg 1 <" sum $end
$var reg 1 =" carry $end
$upscope $end
$upscope $end
$scope module msb $end
$var reg 1 >" carry_in $end
$var reg 1 ?" i1 $end
$var reg 1 @" i0 $end
$var reg 1 A" carry_out $end
$var reg 1 B" sum $end
$var reg 1 C" p0 $end
$var reg 1 D" p1 $end
$var reg 1 E" p2 $end
$scope module half_adder_xin_yin $end
$var reg 1 F" i1 $end
$var reg 1 G" i0 $end
$var reg 1 H" sum $end
$var reg 1 I" carry $end
$upscope $end
$scope module half_adder_cin_sout $end
$var reg 1 J" i1 $end
$var reg 1 K" i0 $end
$var reg 1 L" sum $end
$var reg 1 M" carry $end
$upscope $end
$upscope $end
$upscope $end
$scope module last_two_bits $end
$var reg 1 N" carry_in $end
$var reg 2 O" a[1:0] $end
$var reg 2 P" b[1:0] $end
$var reg 1 Q" carry_out $end
$var reg 2 R" sum[1:0] $end
$var reg 1 S" carry_through $end
$scope module lsb $end
$var reg 1 T" carry_in $end
$var reg 1 U" i1 $end
$var reg 1 V" i0 $end
$var reg 1 W" carry_out $end
$var reg 1 X" sum $end
$var reg 1 Y" p0 $end
$var reg 1 Z" p1 $end
$var reg 1 [" p2 $end
$scope module half_adder_xin_yin $end
$var reg 1 \" i1 $end
$var reg 1 ]" i0 $end
$var reg 1 ^" sum $end
$var reg 1 _" carry $end
$upscope $end
$scope module half_adder_cin_sout $end
$var reg 1 `" i1 $end
$var reg 1 a" i0 $end
$var reg 1 b" sum $end
$var reg 1 c" carry $end
$upscope $end
$upscope $end
$scope module msb $end
$var reg 1 d" carry_in $end
$var reg 1 e" i1 $end
$var reg 1 f" i0 $end
$var reg 1 g" carry_out $end
$var reg 1 h" sum $end
$var reg 1 i" p0 $end
$var reg 1 j" p1 $end
$var reg 1 k" p2 $end
$scope module half_adder_xin_yin $end
$var reg 1 l" i1 $end
$var reg 1 m" i0 $end
$var reg 1 n" sum $end
$var reg 1 o" carry $end
$upscope $end
$scope module half_adder_cin_sout $end
$var reg 1 p" i1 $end
$var reg 1 q" i0 $end
$var reg 1 r" sum $end
$var reg 1 s" carry $end
$upscope $end
$upscope $end
$upscope $end
$upscope $end
$upscope $end
$upscope $end
$enddefinitions $end
#0
b00000000 !
b00000001 "
b00000000 #
b00000001 $
0%
0&
0'
b00000000 (
b00000001 )
0*
b00000001 +
0,
0-
b0000 .
b0001 /
00
b0001 1
02
03
b00 4
b01 5
06
b01 7
08
09
0:
1;
0<
1=
1>
0?
0@
0A
1B
1C
0D
0E
1F
1G
0H
0I
0J
0K
0L
0M
0N
0O
0P
0Q
0R
0S
0T
0U
0V
0W
0X
0Y
b00 Z
b00 [
0\
b00 ]
0^
0_
0`
0a
0b
0c
0d
0e
0f
0g
0h
0i
0j
0k
0l
0m
0n
0o
0p
0q
0r
0s
0t
0u
0v
0w
0x
0y
0z
0{
0|
0}
0!"
0""
b0000 #"
b0000 $"
0%"
b0000 &"
0'"
0("
b00 )"
b00 *"
0+"
b00 ,"
0-"
0."
0/"
00"
01"
02"
03"
04"
05"
06"
07"
08"
09"
0:"
0;"
0<"
0="
0>"
0?"
0@"
0A"
0B"
0C"
0D"
0E"
0F"
0G"
0H"
0I"
0J"
0K"
0L"
0M"
0N"
b00 O"
b00 P"
0Q"
b00 R"
0S"
0T"
0U"
0V"
0W"
0X"
0Y"
0Z"
0["
0\"
0]"
0^"
0_"
0`"
0a"
0b"
0c"
0d"
0e"
0f"
0g"
0h"
0i"
0j"
0k"
0l"
0m"
0n"
0o"
0p"
0q"
0r"
0s"
#1000000
b00000001 !
b00000010 "
b00000001 #
b00000010 $
b00000001 (
b00000010 +
b0001 .
b0010 1
b01 4
b10 7
18
1:
1<
0=
0>
1?
1A
0C
1D
0F
0G
1I
1M
1U
1W
#2000000
b00000010 !
b00000011 "
b00000010 #
b00000011 $
b00000010 (
b00000011 +
b0010 .
b0011 1
02
b10 4
06
b11 7
08
0:
0<
1=
1>
0?
0A
1C
0D
1F
1G
0I
1J
0L
1M
1N
0P
1Q
1S
0U
1V
1W
0X
0Y
b00 ]
0_
0c
0k
0m
#3000000
b00000011 !
b00000100 "
b00000011 #
b00000100 $
b00000011 (
b00000100 +
b0011 .
b0100 1
12
b11 4
16
b00 7
18
1:
1<
0=
0>
1?
1A
0C
1D
0F
0G
1I
1L
0M
1P
1U
0W
1X
1Y
b01 ]
1_
1c
1k
1m
#4000000
b00000100 !
b00000101 "
b00000100 #
b00000101 $
b00000100 (
b00000101 +
b0100 .
b0101 1
02
b00 4
06
b01 7
08
0:
0<
1=
1>
0?
0A
1C
0D
1F
1G
0I
0J
0L
0M
0N
0P
0Q
0S
0U
0V
0W
0X
0Y
b01 Z
b01 ]
0^
0_
1`
0b
1c
1d
0f
1g
1i
0k
1l
1m
0n
0o
0s
0{
0}
#5000000
b00000101 !
b00000110 "
b00000101 #
b00000110 $
b00000101 (
b00000110 +
b0101 .
b0110 1
b01 4
b10 7
18
1:
1<
0=
0>
1?
1A
0C
1D
0F
0G
1I
1M
1U
1W
#6000000
b00000110 !
b00000111 "
b00000110 #
b00000111 $
b00000110 (
b00000111 +
b0110 .
b0111 1
02
b10 4
06
b11 7
08
0:
0<
1=
1>
0?
0A
1C
0D
1F
1G
0I
1J
0L
1M
1N
0P
1Q
1S
0U
1V
1W
0X
0Y
b01 ]
0^
0_
0b
1c
0f
0k
1m
0n
0o
0s
0{
0}
#7000000
b00000111 !
b00001000 "
b00000111 #
b00001000 $
b00000111 (
b00001000 +
b0111 .
b1000 1
12
b11 4
16
b00 7
18
1:
1<
0=
0>
1?
1A
0C
1D
0F
0G
1I
1L
0M
1P
1U
0W
1X
1Y
b10 ]
1^
1_
1b
0c
1f
1k
0m
1n
1o
1s
1{
1}
#8000000
b00001000 !
b00001001 "
b00001000 #
b00001001 $
b00001000 (
b00001001 +
0,
b1000 .
00
b1001 1
02
b00 4
06
b01 7
08
0:
0<
1=
1>
0?
0A
1C
0D
1F
1G
0I
0J
0L
0M
0N
0P
0Q
0S
0U
0V
0W
0X
0Y
b10 Z
0\
b10 ]
0^
0_
0`
0b
0c
0d
0f
0g
0i
0k
0l
0m
0n
0o
1p
0r
1s
1t
0v
1w
1y
0{
1|
1}
0!"
0""
b0000 &"
0("
b00 ,"
0."
02"
0:"
0<"
#9000000
b00001001 !
b00001010 "
b00001001 #
b00001010 $
b00001001 (
b00001010 +
b1001 .
b1010 1
b01 4
b10 7
18
1:
1<
0=
0>
1?
1A
0C
1D
0F
0G
1I
1M
1U
1W
#10000000
b00001010 !
b00001011 "
b00001010 #
b00001011 $
b00001010 (
b00001011 +
b1010 .
b1011 1
02
b10 4
06
b11 7
08
0:
0<
1=
1>
0?
0A
1C
0D
1F
1G
0I
1J
0L
1M
1N
0P
1Q
1S
0U
1V
1W
0X
0Y
b10 ]
0_
0c
0k
0m
#11000000
b00001011 !
b00001100 "
b00001011 #
b00001100 $
b00001011 (
b00001100 +
b1011 .
b1100 1
12
b11 4
16
b00 7
18
1:
1<
0=
0>
1?
1A
0C
1D
0F
0G
1I
1L
0M
1P
1U
0W
1X
1Y
b11 ]
1_
1c
1k
1m
#12000000
b00001100 !
b00001101 "
b00001100 #
b00001101 $
b00001100 (
b00001101 +
0,
b1100 .
00
b1101 1
02
b00 4
06
b01 7
08
0:
0<
1=
1>
0?
0A
1C
0D
1F
1G
0I
0J
0L
0M
0N
0P
0Q
0S
0U
0V
0W
0X
0Y
b11 Z
0\
b11 ]
0^
0_
1`
0b
1c
1d
0f
1g
1i
0k
1l
1m
0n
0o
0r
1s
0v
0{
1}
0!"
0""
b0000 &"
0("
b00 ,"
0."
02"
0:"
0<"
#13000000
b00001101 !
b00001110 "
b00001101 #
b00001110 $
b00001101 (
b00001110 +
b1101 .
b1110 1
b01 4
b10 7
18
1:
1<
0=
0>
1?
1A
0C
1D
0F
0G
1I
1M
1U
1W
#14000000
b00001110 !
b00001111 "
b00001110 #
b00001111 $
b00001110 (
b00001111 +
0,
b1110 .
00
b1111 1
02
b10 4
06
b11 7
08
0:
0<
1=
1>
0?
0A
1C
0D
1F
1G
0I
1J
0L
1M
1N
0P
1Q
1S
0U
1V
1W
0X
0Y
0\
b11 ]
0^
0_
0b
1c
0f
0k
1m
0n
0o
0r
1s
0v
0{
1}
0!"
0""
b0000 &"
0("
b00 ,"
0."
02"
0:"
0<"
#15000000
b00001111 !
b00010000 "
b00001111 #
b00010000 $
b00001111 (
b00010000 +
1,
b1111 .
10
b0000 1
12
b11 4
16
b00 7
18
1:
1<
0=
0>
1?
1A
0C
1D
0F
0G
1I
1L
0M
1P
1U
0W
1X
1Y
1\
b00 ]
1^
1_
1b
0c
1f
1k
0m
1n
1o
1r
0s
1v
1{
0}
1!"
1""
b0001 &"
1("
b01 ,"
1."
12"
1:"
1<"
#16000000
b00010000 !
b00010001 "
b00010000 #
b00010001 $
b00010000 (
b00010001 +
0,
b0000 .
00
b0001 1
02
b00 4
06
b01 7
08
0:
0<
1=
1>
0?
0A
1C
0D
1F
1G
0I
0J
0L
0M
0N
0P
0Q
0S
0U
0V
0W
0X
0Y
b00 Z
0\
b00 ]
0^
0_
0`
0b
0c
0d
0f
0g
0i
0k
0l
0m
0n
0o
0p
0r
0s
0t
0v
0w
0y
0{
0|
0}
0!"
0""
b0001 #"
b0001 &"
0("
b01 )"
b01 ,"
0-"
0."
1/"
01"
12"
13"
05"
16"
18"
0:"
1;"
1<"
0="
0>"
0B"
0J"
0L"
#17000000
b00010001 !
b00010010 "
b00010001 #
b00010010 $
b00010001 (
b00010010 +
b0001 .
b0010 1
b01 4
b10 7
18
1:
1<
0=
0>
1?
1A
0C
1D
0F
0G
1I
1M
1U
1W
#18000000
b00010010 !
b00010011 "
b00010010 #
b00010011 $
b00010010 (
b00010011 +
b0010 .
b0011 1
02
b10 4
06
b11 7
08
0:
0<
1=
1>
0?
0A
1C
0D
1F
1G
0I
1J
0L
1M
1N
0P
1Q
1S
0U
1V
1W
0X
0Y
b00 ]
0_
0c
0k
0m
#19000000
b00010011 !
b00010100 "
b00010011 #
b00010100 $
b00010011 (
b00010100 +
b0011 .
b0100 1
12
b11 4
16
b00 7
18
1:
1<
0=
0>
1?
1A
0C
1D
0F
0G
1I
1L
0M
1P
1U
0W
1X
1Y
b01 ]
1_
1c
1k
1m
#20000000
b00010100 !
b00010101 "
b00010100 #
b00010101 $
b00010100 (
b00010101 +
b0100 .
b0101 1
02
b00 4
06
b01 7
08
0:
0<
1=
1>
0?
0A
1C
0D
1F
1G
0I
0J
0L
0M
0N
0P
0Q
0S
0U
0V
0W
0X
0Y
b01 Z
b01 ]
0^
0_
1`
0b
1c
1d
0f
1g
1i
0k
1l
1m
0n
0o
0s
0{
0}
#21000000
b00010101 !
b00010110 "
b00010101 #
b00010110 $
b00010101 (
b00010110 +
b0101 .
b0110 1
b01 4
b10 7
18
1:
1<
0=
0>
1?
1A
0C
1D
0F
0G
1I
1M
1U
1W
#22000000
b00010110 !
b00010111 "
b00010110 #
b00010111 $
b00010110 (
b00010111 +
b0110 .
b0111 1
02
b10 4
06
b11 7
08
0:
0<
1=
1>
0?
0A
1C
0D
1F
1G
0I
1J
0L
1M
1N
0P
1Q
1S
0U
1V
1W
0X
0Y
b01 ]
0^
0_
0b
1c
0f
0k
1m
0n
0o
0s
0{
0}
#23000000
b00010111 !
b00011000 "
b00010111 #
b00011000 $
b00010111 (
b00011000 +
b0111 .
b1000 1
12
b11 4
16
b00 7
18
1:
1<
0=
0>
1?
1A
0C
1D
0F
0G
1I
1L
0M
1P
1U
0W
1X
1Y
b10 ]
1^
1_
1b
0c
1f
1k
0m
1n
1o
1s
1{
1}
#24000000
b00011000 !
b00011001 "
b00011000 #
b00011001 $
b00011000 (
b00011001 +
0,
b1000 .
00
b1001 1
02
b00 4
06
b01 7
08
0:
0<
1=
1>
0?
0A
1C
0D
1F
1G
0I
0J
0L
0M
0N
0P
0Q
0S
0U
0V
0W
0X
0Y
b10 Z
0\
b10 ]
0^
0_
0`
0b
0c
0d
0f
0g
0i
0k
0l
0m
0n
0o
1p
0r
1s
1t
0v
1w
1y
0{
1|
1}
0!"
0""
b0001 &"
0("
b01 ,"
0-"
0."
01"
12"
05"
0:"
1<"
0="
0>"
0B"
0J"
0L"
#25000000
b00011001 !
b00011010 "
b00011001 #
b00011010 $
b00011001 (
b00011010 +
b1001 .
b1010 1
b01 4
b10 7
18
1:
1<
0=
0>
1?
1A
0C
1D
0F
0G
1I
1M
1U
1W
#26000000
b00011010 !
b00011011 "
b00011010 #
b00011011 $
b00011010 (
b00011011 +
b1010 .
b1011 1
02
b10 4
06
b11 7
08
0:
0<
1=
1>
0?
0A
1C
0D
1F
1G
0I
1J
0L
1M
1N
0P
1Q
1S
0U
1V
1W
0X
0Y
b10 ]
0_
0c
0k
0m
#27000000
b00011011 !
b00011100 "
b00011011 #
b00011100 $
b00011011 (
b00011100 +
b1011 .
b1100 1
12
b11 4
16
b00 7
18
1:
1<
0=
0>
1?
1A
0C
1D
0F
0G
1I
1L
0M
1P
1U
0W
1X
1Y
b11 ]
1_
1c
1k
1m
#28000000
b00011100 !
b00011101 "
b00011100 #
b00011101 $
b00011100 (
b00011101 +
0,
b1100 .
00
b1101 1
02
b00 4
06
b01 7
08
0:
0<
1=
1>
0?
0A
1C
0D
1F
1G
0I
0J
0L
0M
0N
0P
0Q
0S
0U
0V
0W
0X
0Y
b11 Z
0\
b11 ]
0^
0_
1`
0b
1c
1d
0f
1g
1i
0k
1l
1m
0n
0o
0r
1s
0v
0{
1}
0!"
0""
b0001 &"
0("
b01 ,"
0-"
0."
01"
12"
05"
0:"
1<"
0="
0>"
0B"
0J"
0L"
#29000000
b00011101 !
b00011110 "
b00011101 #
b00011110 $
b00011101 (
b00011110 +
b1101 .
b1110 1
b01 4
b10 7
18
1:
1<
0=
0>
1?
1A
0C
1D
0F
0G
1I
1M
1U
1W
#30000000
b00011110 !
b00011111 "
b00011110 #
b00011111 $
b00011110 (
b00011111 +
0,
b1110 .
00
b1111 1
02
b10 4
06
b11 7
08
0:
0<
1=
1>
0?
0A
1C
0D
1F
1G
0I
1J
0L
1M
1N
0P
1Q
1S
0U
1V
1W
0X
0Y
0\
b11 ]
0^
0_
0b
1c
0f
0k
1m
0n
0o
0r
1s
0v
0{
1}
0!"
0""
b0001 &"
0("
b01 ,"
0-"
0."
01"
12"
05"
0:"
1<"
0="
0>"
0B"
0J"
0L"
#31000000
b00011111 !
b00100000 "
b00011111 #
b00100000 $
b00011111 (
b00100000 +
1,
b1111 .
10
b0000 1
12
b11 4
16
b00 7
18
1:
1<
0=
0>
1?
1A
0C
1D
0F
0G
1I
1L
0M
1P
1U
0W
1X
1Y
1\
b00 ]
1^
1_
1b
0c
1f
1k
0m
1n
1o
1r
0s
1v
1{
0}
1!"
1""
b0010 &"
1("
b10 ,"
1-"
1."
11"
02"
15"
1:"
0<"
1="
1>"
1B"
1J"
1L"
#32000000
b00100000 !
b00100001 "
b00100000 #
b00100001 $
b00100000 (
b00100001 +
0,
b0000 .
00
b0001 1
02
b00 4
06
b01 7
08
0:
0<
1=
1>
0?
0A
1C
0D
1F
1G
0I
0J
0L
0M
0N
0P
0Q
0S
0U
0V
0W
0X
0Y
b00 Z
0\
b00 ]
0^
0_
0`
0b
0c
0d
0f
0g
0i
0k
0l
0m
0n
0o
0p
0r
0s
0t
0v
0w
0y
0{
0|
0}
0!"
0""
b0010 #"
b0010 &"
0'"
0("
b10 )"
0+"
b10 ,"
0-"
0."
0/"
01"
02"
03"
05"
06"
08"
0:"
0;"
0<"
0="
0>"
1?"
0A"
1B"
1C"
0E"
1F"
1H"
0J"
1K"
1L"
0M"
0N"
b00 R"
0T"
0X"
0`"
0b"
#33000000
b00100001 !
b00100010 "
b00100001 #
b00100010 $
b00100001 (
b00100010 +
b0001 .
b0010 1
b01 4
b10 7
18
1:
1<
0=
0>
1?
1A
0C
1D
0F
0G
1I
1M
1U
1W
#34000000
b00100010 !
b00100011 "
b00100010 #
b00100011 $
b00100010 (
b00100011 +
b0010 .
b0011 1
02
b10 4
06
b11 7
08
0:
0<
1=
1>
0?
0A
1C
0D
1F
1G
0I
1J
0L
1M
1N
0P
1Q
1S
0U
1V
1W
0X
0Y
b00 ]
0_
0c
0k
0m
#35000000
b00100011 !
b00100100 "
b00100011 #
b00100100 $
b00100011 (
b00100100 +
b0011 .
b0100 1
12
b11 4
16
b00 7
18
1:
1<
0=
0>
1?
1A
0C
1D
0F
0G
1I
1L
0M
1P
1U
0W
1X
1Y
b01 ]
1_
1c
1k
1m
#36000000
b00100100 !
b00100101 "
b00100100 #
b00100101 $
b00100100 (
b00100101 +
b0100 .
b0101 1
02
b00 4
06
b01 7
08
0:
0<
1=
1>
0?
0A
1C
0D
1F
1G
0I
0J
0L
0M
0N
0P
0Q
0S
0U
0V
0W
0X
0Y
b01 Z
b01 ]
0^
0_
1`
0b
1c
1d
0f
1g
1i
0k
1l
1m
0n
0o
0s
0{
0}
#37000000
b00100101 !
b00100110 "
b00100101 #
b00100110 $
b00100101 (
b00100110 +
b0101 .
b0110 1
b01 4
b10 7
18
1:
1<
0=
0>
1?
1A
0C
1D
0F
0G
1I
1M
1U
1W
#38000000
b00100110 !
b00100111 "
b00100110 #
b00100111 $
b00100110 (
b00100111 +
b0110 .
b0111 1
02
b10 4
06
b11 7
08
0:
0<
1=
1>
0?
0A
1C
0D
1F
1G
0I
1J
0L
1M
1N
0P
1Q
1S
0U
1V
1W
0X
0Y
b01 ]
0^
0_
0b
1c
0f
0k
1m
0n
0o
0s
0{
0}
#39000000
b00100111 !
b00101000 "
b00100111 #
b00101000 $
b00100111 (
b00101000 +
b0111 .
b1000 1
12
b11 4
16
b00 7
18
1:
1<
0=
0>
1?
1A
0C
1D
0F
0G
1I
1L
0M
1P
1U
0W
1X
1Y
b10 ]
1^
1_
1b
0c
1f
1k
0m
1n
1o
1s
1{
1}
#40000000
b00101000 !
b00101001 "
b00101000 #
b00101001 $
b00101000 (
b00101001 +
0,
b1000 .
00
b1001 1
02
b00 4
06
b01 7
08
0:
0<
1=
1>
0?
0A
1C
0D
1F
1G
0I
0J
0L
0M
0N
0P
0Q
0S
0U
0V
0W
0X
0Y
b10 Z
0\
b10 ]
0^
0_
0`
0b
0c
0d
0f
0g
0i
0k
0l
0m
0n
0o
1p
0r
1s
1t
0v
1w
1y
0{
1|
1}
0!"
0""
b0010 &"
0("
b10 ,"
0."
02"
0:"
0<"
#41000000
b00101001 !
b00101010 "
b00101001 #
b00101010 $
b00101001 (
b00101010 +
b1001 .
b1010 1
b01 4
b10 7
18
1:
1<
0=
0>
1?
1A
0C
1D
0F
0G
1I
1M
1U
1W
#42000000
b00101010 !
b00101011 "
b00101010 #
b00101011 $
b00101010 (
b00101011 +
b1010 .
b1011 1
02
b10 4
06
b11 7
08
0:
0<
1=
1>
0?
0A
1C
0D
1F
1G
0I
1J
0L
1M
1N
0P
1Q
1S
0U
1V
1W
0X
0Y
b10 ]
0_
0c
0k
0m
#43000000
b00101011 !
b00101100 "
b00101011 #
b00101100 $
b00101011 (
b00101100 +
b1011 .
b1100 1
12
b11 4
16
b00 7
18
1:
1<
0=
0>
1?
1A
0C
1D
0F
0G
1I
1L
0M
1P
1U
0W
1X
1Y
b11 ]
1_
1c
1k
1m
#44000000
b00101100 !
b00101101 "
b00101100 #
b00101101 $
b00101100 (
b00101101 +
0,
b1100 .
00
b1101 1
02
b00 4
06
b01 7
08
0:
0<
1=
1>
0?
0A
1C
0D
1F
1G
0I
0J
0L
0M
0N
0P
0Q
0S
0U
0V
0W
0X
0Y
b11 Z
0\
b11 ]
0^
0_
1`
0b
1c
1d
0f
1g
1i
0k
1l
1m
0n
0o
0r
1s
0v
0{
1}
0!"
0""
b0010 &"
0("
b10 ,"
0."
02"
0:"
0<"
#45000000
b00101101 !
b00101110 "
b00101101 #
b00101110 $
b00101101 (
b00101110 +
b1101 .
b1110 1
b01 4
b10 7
18
1:
1<
0=
0>
1?
1A
0C
1D
0F
0G
1I
1M
1U
1W
#46000000
b00101110 !
b00101111 "
b00101110 #
b00101111 $
b00101110 (
b00101111 +
0,
b1110 .
00
b1111 1
02
b10 4
06
b11 7
08
0:
0<
1=
1>
0?
0A
1C
0D
1F
1G
0I
1J
0L
1M
1N
0P
1Q
1S
0U
1V
1W
0X
0Y
0\
b11 ]
0^
0_
0b
1c
0f
0k
1m
0n
0o
0r
1s
0v
0{
1}
0!"
0""
b0010 &"
0("
b10 ,"
0."
02"
0:"
0<"
#47000000
b00101111 !
b00110000 "
b00101111 #
b00110000 $
b00101111 (
b00110000 +
1,
b1111 .
10
b0000 1
12
b11 4
16
b00 7
18
1:
1<
0=
0>
1?
1A
0C
1D
0F
0G
1I
1L
0M
1P
1U
0W
1X
1Y
1\
b00 ]
1^
1_
1b
0c
1f
1k
0m
1n
1o
1r
0s
1v
1{
0}
1!"
1""
b0011 &"
1("
b11 ,"
1."
12"
1:"
1<"
#48000000
b00110000 !
b00110001 "
b00110000 #
b00110001 $
b00110000 (
b00110001 +
0,
b0000 .
00
b0001 1
02
b00 4
06
b01 7
08
0:
0<
1=
1>
0?
0A
1C
0D
1F
1G
0I
0J
0L
0M
0N
0P
0Q
0S
0U
0V
0W
0X
0Y
b00 Z
0\
b00 ]
0^
0_
0`
0b
0c
0d
0f
0g
0i
0k
0l
0m
0n
0o
0p
0r
0s
0t
0v
0w
0y
0{
0|
0}
0!"
0""
b0011 #"
b0011 &"
0'"
0("
b11 )"
0+"
b11 ,"
0-"
0."
1/"
01"
12"
13"
05"
16"
18"
0:"
1;"
1<"
0="
0>"
0A"
1B"
0E"
0J"
1L"
0M"
0N"
b00 R"
0T"
0X"
0`"
0b"
#49000000
b00110001 !
b00110010 "
b00110001 #
b00110010 $
b00110001 (
b00110010 +
b0001 .
b0010 1
b01 4
b10 7
18
1:
1<
0=
0>
1?
1A
0C
1D
0F
0G
1I
1M
1U
1W
#50000000
b00110010 !
b00110011 "
b00110010 #
b00110011 $
b00110010 (
b00110011 +
b0010 .
b0011 1
02
b10 4
06
b11 7
08
0:
0<
1=
1>
0?
0A
1C
0D
1F
1G
0I
1J
0L
1M
1N
0P
1Q
1S
0U
1V
1W
0X
0Y
b00 ]
0_
0c
0k
0m
#51000000
b00110011 !
b00110100 "
b00110011 #
b00110100 $
b00110011 (
b00110100 +
b0011 .
b0100 1
12
b11 4
16
b00 7
18
1:
1<
0=
0>
1?
1A
0C
1D
0F
0G
1I
1L
0M
1P
1U
0W
1X
1Y
b01 ]
1_
1c
1k
1m
#52000000
b00110100 !
b00110101 "
b00110100 #
b00110101 $
b00110100 (
b00110101 +
b0100 .
b0101 1
02
b00 4
06
b01 7
08
0:
0<
1=
1>
0?
0A
1C
0D
1F
1G
0I
0J
0L
0M
0N
0P
0Q
0S
0U
0V
0W
0X
0Y
b01 Z
b01 ]
0^
0_
1`
0b
1c
1d
0f
1g
1i
0k
1l
1m
0n
0o
0s
0{
0}
#53000000
b00110101 !
b00110110 "
b00110101 #
b00110110 $
b00110101 (
b00110110 +
b0101 .
b0110 1
b01 4
b10 7
18
1:
1<
0=
0>
1?
1A
0C
1D
0F
0G
1I
1M
1U
1W
#54000000
b00110110 !
b00110111 "
b00110110 #
b00110111 $
b00110110 (
b00110111 +
b0110 .
b0111 1
02
b10 4
06
b11 7
08
0:
0<
1=
1>
0?
0A
1C
0D
1F
1G
0I
1J
0L
1M
1N
0P
1Q
1S
0U
1V
1W
0X
0Y
b01 ]
0^
0_
0b
1c
0f
0k
1m
0n
0o
0s
0{
0}
#55000000
b00110111 !
b00111000 "
b00110111 #
b00111000 $
b00110111 (
b00111000 +
b0111 .
b1000 1
12
b11 4
16
b00 7
18
1:
1<
0=
0>
1?
1A
0C
1D
0F
0G
1I
1L
0M
1P
1U
0W
1X
1Y
b10 ]
1^
1_
1b
0c
1f
1k
0m
1n
1o
1s
1{
1}
#56000000
b00111000 !
b00111001 "
b00111000 #
b00111001 $
b00111000 (
b00111001 +
0,
b1000 .
00
b1001 1
02
b00 4
06
b01 7
08
0:
0<
1=
1>
0?
0A
1C
0D
1F
1G
0I
0J
0L
0M
0N
0P
0Q
0S
0U
0V
0W
0X
0Y
b10 Z
0\
b10 ]
0^
0_
0`
0b
0c
0d
0f
0g
0i
0k
0l
0m
0n
0o
1p
0r
1s
1t
0v
1w
1y
0{
1|
1}
0!"
0""
b0011 &"
0'"
0("
0+"
b11 ,"
0-"
0."
01"
12"
05"
0:"
1<"
0="
0>"
0A"
1B"
0E"
0J"
1L"
0M"
0N"
b00 R"
0T"
0X"
0`"
0b"
#57000000
b00111001 !
b00111010 "
b00111001 #
b00111010 $
b00111001 (
b00111010 +
b1001 .
b1010 1
b01 4
b10 7
18
1:
1<
0=
0>
1?
1A
0C
1D
0F
0G
1I
1M
1U
1W
