VHDL Files/src/8 Bit Adder/4 bit adder/four_bit_adder_simulation.vcd
$date
  Sat Sep 23 18:39:50 2023
$end
$version
  GHDL v0
$end
$timescale
  1 fs
$end
$var reg 9 ! test_bits_in[8:0] $end
$var reg 5 " test_bits_out[4:0] $end
$scope module dut $end
$var reg 1 # carry_in $end
$var reg 4 $ a[3:0] $end
$var reg 4 % b[3:0] $end
$var reg 1 & carry_out $end
$var reg 4 ' sum[3:0] $end
$var reg 1 ( carry_through $end
$scope module first_two_bits $end
$var reg 1 ) carry_in $end
$var reg 2 * a[1:0] $end
$var reg 2 + b[1:0] $end
$var reg 1 , carry_out $end
$var reg 2 - sum[1:0] $end
$var reg 1 . carry_through $end
$scope module lsb $end
$var reg 1 / carry_in $end
$var reg 1 0 i1 $end
$var reg 1 1 i0 $end
$var reg 1 2 carry_out $end
$var reg 1 3 sum $end
$var reg 1 4 p0 $end
$var reg 1 5 p1 $end
$var reg 1 6 p2 $end
$scope module half_adder_xin_yin $end
$var reg 1 7 i1 $end
$var reg 1 8 i0 $end
$var reg 1 9 sum $end
$var reg 1 : carry $end
$upscope $end
$scope module half_adder_cin_sout $end
$var reg 1 ; i1 $end
$var reg 1 < i0 $end
$var reg 1 = sum $end
$var reg 1 > carry $end
$upscope $end
$upscope $end
$scope module msb $end
$var reg 1 ? carry_in $end
$var reg 1 @ i1 $end
$var reg 1 A i0 $end
$var reg 1 B carry_out $end
$var reg 1 C sum $end
$var reg 1 D p0 $end
$var reg 1 E p1 $end
$var reg 1 F p2 $end
$scope module half_adder_xin_yin $end
$var reg 1 G i1 $end
$var reg 1 H i0 $end
$var reg 1 I sum $end
$var reg 1 J carry $end
$upscope $end
$scope module half_adder_cin_sout $end
$var reg 1 K i1 $end
$var reg 1 L i0 $end
$var reg 1 M sum $end
$var reg 1 N carry $end
$upscope $end
$upscope $end
$upscope $end
$scope module last_two_bits $end
$var reg 1 O carry_in $end
$var reg 2 P a[1:0] $end
$var reg 2 Q b[1:0] $end
$var reg 1 R carry_out $end
$var reg 2 S sum[1:0] $end
$var reg 1 T carry_through $end
$scope module lsb $end
$var reg 1 U carry_in $end
$var reg 1 V i1 $end
$var reg 1 W i0 $end
$var reg 1 X carry_out $end
$var reg 1 Y sum $end
$var reg 1 Z p0 $end
$var reg 1 [ p1 $end
$var reg 1 \ p2 $end
$scope module half_adder_xin_yin $end
$var reg 1 ] i1 $end
$var reg 1 ^ i0 $end
$var reg 1 _ sum $end
$var reg 1 ` carry $end
$upscope $end
$scope module half_adder_cin_sout $end
$var reg 1 a i1 $end
$var reg 1 b i0 $end
$var reg 1 c sum $end
$var reg 1 d carry $end
$upscope $end
$upscope $end
$scope module msb $end
$var reg 1 e carry_in $end
$var reg 1 f i1 $end
$var reg 1 g i0 $end
$var reg 1 h carry_out $end
$var reg 1 i sum $end
$var reg 1 j p0 $end
$var reg 1 k p1 $end
$var reg 1 l p2 $end
$scope module half_adder_xin_yin $end
$var reg 1 m i1 $end
$var reg 1 n i0 $end
$var reg 1 o sum $end
$var reg 1 p carry $end
$upscope $end
$scope module half_adder_cin_sout $end
$var reg 1 q i1 $end
$var reg 1 r i0 $end
$var reg 1 s sum $end
$var reg 1 t carry $end
$upscope $end
$upscope $end
$upscope $end
$upscope $end
$enddefinitions $end
#0
b000000000 !
b00000 "
0#
b0000 $
b0000 %
0&
b0000 '
0(
0)
b00 *
b00 +
0,
b00 -
0.
0/
00
01
02
03
04
05
06
07
08
09
0:
0;
0<
0=
0>
0?
0@
0A
0B
0C
0D
0E
0F
0G
0H
0I
0J
0K
0L
0M
0N
0O
b00 P
b00 Q
0R
b00 S
0T
0U
0V
0W
0X
0Y
0Z
0[
0\
0]
0^
0_
0`
0a
0b
0c
0d
0e
0f
0g
0h
0i
0j
0k
0l
0m
0n
0o
0p
0q
0r
0s
0t
#1000000
b000000001 !
b00001 "
b0001 %
b0001 '
b01 +
b01 -
11
13
14
18
19
1<
1=
#2000000
b000000010 !
b00010 "
b0010 %
b0010 '
b10 +
b10 -
01
03
04
08
09
0<
0=
1A
1C
1D
1H
1I
1L
1M
#3000000
b000000011 !
b00011 "
b0011 %
b0011 '
b11 +
b11 -
11
13
14
18
19
1<
1=
#4000000
b000000100 !
b00100 "
b0100 %
b0100 '
b00 +
b00 -
01
03
04
08
09
0<
0=
0A
0C
0D
0H
0I
0L
0M
b01 Q
b01 S
1W
1Y
1Z
1^
1_
1b
1c
#5000000
b000000101 !
b00101 "
b0101 %
b0101 '
b01 +
b01 -
11
13
14
18
19
1<
1=
#6000000
b000000110 !
b00110 "
b0110 %
b0110 '
b10 +
b10 -
01
03
04
08
09
0<
0=
1A
1C
1D
1H
1I
1L
1M
#7000000
b000000111 !
b00111 "
b0111 %
b0111 '
b11 +
b11 -
11
13
14
18
19
1<
1=
#8000000
b000001000 !
b01000 "
b1000 %
b1000 '
b00 +
b00 -
01
03
04
08
09
0<
0=
0A
0C
0D
0H
0I
0L
0M
b10 Q
b10 S
0W
0Y
0Z
0^
0_
0b
0c
1g
1i
1j
1n
1o
1r
1s
#9000000
b000001001 !
b01001 "
b1001 %
b1001 '
b01 +
b01 -
11
13
14
18
19
1<
1=
#10000000
b000001010 !
b01010 "
b1010 %
b1010 '
b10 +
b10 -
01
03
04
08
09
0<
0=
1A
1C
1D
1H
1I
1L
1M
#11000000
b000001011 !
b01011 "
b1011 %
b1011 '
b11 +
b11 -
11
13
14
18
19
1<
1=
#12000000
b000001100 !
b01100 "
b1100 %
b1100 '
b00 +
b00 -
01
03
04
08
09
0<
0=
0A
0C
0D
0H
0I
0L
0M
b11 Q
b11 S
1W
1Y
1Z
1^
1_
1b
1c
#13000000
b000001101 !
b01101 "
b1101 %
b1101 '
b01 +
b01 -
11
13
14
18
19
1<
1=
#14000000
b000001110 !
b01110 "
b1110 %
b1110 '
b10 +
b10 -
01
03
04
08
09
0<
0=
1A
1C
1D
1H
1I
1L
1M
#15000000
b000001111 !
b01111 "
b1111 %
b1111 '
b11 +
b11 -
11
13
14
18
19
1<
1=
#16000000
b000010000 !
b00001 "
b0001 $
b0000 %
b0001 '
b01 *
b00 +
b01 -
10
01
17
08
0A
0C
0D
0H
0I
0L
0M
b00 Q
b00 S
0W
0Y
0Z
0^
0_
0b
0c
0g
0i
0j
0n
0o
0r
0s
#17000000
b000010001 !
b00010 "
b0001 %
b0010 '
b01 +
b10 -
1.
11
12
03
04
15
18
09
1:
0<
0=
1?
1C
1K
1M
#18000000
b000010010 !
b00011 "
b0010 %
b0011 '
0(
b10 +
0,
b11 -
0.
01
02
13
14
05
08
19
0:
1<
1=
0?
1A
0B
1C
1D
0F
1H
1I
0K
1L
1M
0N
0O
b00 S
0U
0Y
0a
0c
#19000000
b000010011 !
b00100 "
b0011 %
b0100 '
1(
b11 +
1,
b00 -
1.
11
12
03
04
15
18
09
1:
0<
0=
1?
1B
0C
1F
1K
0M
1N
1O
b01 S
1U
1Y
1a
1c
#20000000
b000010100 !
b00101 "
b0100 %
b0101 '
0(
b00 +
0,
b01 -
0.
01
02
13
14
05
08
19
0:
1<
1=
0?
0A
0B
0C
0D
0F
0H
0I
0K
0L
0M
0N
0O
b01 Q
b01 S
0T
0U
1W
0X
1Y
1Z
0\
1^
1_
0a
1b
1c
0d
0e
0i
0q
0s
#21000000
b000010101 !
b00110 "
b0101 %
b0110 '
b01 +
b10 -
1.
11
12
03
04
15
18
09
1:
0<
0=
1?
1C
1K
1M
#22000000
b000010110 !
b00111 "
b0110 %
b0111 '
0(
b10 +
0,
b11 -
0.
01
02
13
14
05
08
19
0:
1<
1=
0?
1A
0B
1C
1D
0F
1H
1I
0K
1L
1M
0N
0O
b01 S
0T
0U
0X
1Y
0\
0a
1c
0d
0e
0i
0q
0s
#23000000
b000010111 !
b01000 "
b0111 %
b1000 '
1(
b11 +
1,
b00 -
1.
11
12
03
04
15
18
09
1:
0<
0=
1?
1B
0C
1F
1K
0M
1N
1O
b10 S
1T
1U
1X
0Y
1\
1a
0c
1d
1e
1i
1q
1s
#24000000
b000011000 !
b01001 "
b1000 %
0&
b1001 '
0(
b00 +
0,
b01 -
0.
01
02
13
14
05
08
19
0:
1<
1=
0?
0A
0B
0C
0D
0F
0H
0I
0K
0L
0M
0N
0O
b10 Q
0R
b10 S
0T
0U
0W
0X
0Y
0Z
0\
0^
0_
0a
0b
0c
0d
0e
1g
0h
1i
1j
0l
1n
1o
0q
1r
1s
0t
#25000000
b000011001 !
b01010 "
b1001 %
b1010 '
b01 +
b10 -
1.
11
12
03
04
15
18
09
1:
0<
0=
1?
1C
1K
1M
#26000000
b000011010 !
b01011 "
b1010 %
b1011 '
0(
b10 +
0,
b11 -
0.
01
02
13
14
05
08
19
0:
1<
1=
0?
1A
0B
1C
1D
0F
1H
1I
0K
1L
1M
0N
0O
b10 S
0U
0Y
0a
0c
#27000000
b000011011 !
b01100 "
b1011 %
b1100 '
1(
b11 +
1,
b00 -
1.
11
12
03
04
15
18
09
1:
0<
0=
1?
1B
0C
1F
1K
0M
1N
1O
b11 S
1U
1Y
1a
1c
#28000000
b000011100 !
b01101 "
b1100 %
0&
b1101 '
0(
b00 +
0,
b01 -
0.
01
02
13
14
05
08
19
0:
1<
1=
0?
0A
0B
0C
0D
0F
0H
0I
0K
0L
0M
0N
0O
b11 Q
0R
b11 S
0T
0U
1W
0X
1Y
1Z
0\
1^
1_
0a
1b
1c
0d
0e
0h
1i
0l
0q
1s
0t
#29000000
b000011101 !
b01110 "
b1101 %
b1110 '
b01 +
b10 -
1.
11
12
03
04
15
18
09
1:
0<
0=
1?
1C
1K
1M
#30000000
b000011110 !
b01111 "
b1110 %
0&
b1111 '
0(
b10 +
0,
b11 -
0.
01
02
13
14
05
08
19
0:
1<
1=
0?
1A
0B
1C
1D
0F
1H
1I
0K
1L
1M
0N
0O
0R
b11 S
0T
0U
0X
1Y
0\
0a
1c
0d
0e
0h
1i
0l
0q
1s
0t
#31000000
b000011111 !
b10000 "
b1111 %
1&
b0000 '
1(
b11 +
1,
b00 -
1.
11
12
03
04
15
18
09
1:
0<
0=
1?
1B
0C
1F
1K
0M
1N
1O
1R
b00 S
1T
1U
1X
0Y
1\
1a
0c
1d
1e
1h
0i
1l
1q
0s
1t
#32000000
b000100000 !
b00010 "
b0010 $
b0000 %
0&
b0010 '
0(
b10 *
b00 +
0,
b10 -
0.
00
01
02
05
07
08
0:
0?
1@
0A
0B
1C
0F
1G
0H
0K
1M
0N
0O
b00 Q
0R
b00 S
0T
0U
0W
0X
0Y
0Z
0\
0^
0_
0a
0b
0c
0d
0e
0g
0h
0i
0j
0l
0n
0o
0q
0r
0s
0t
#33000000
b000100001 !
b00011 "
b0001 %
b0011 '
b01 +
b11 -
11
13
14
18
19
1<
1=
#34000000
b000100010 !
b00100 "
b0010 %
b0100 '
1(
b10 +
1,
b00 -
01
03
04
08
09
0<
0=
1A
1B
0C
0D
1E
1H
0I
1J
0L
0M
1O
b01 S
1U
1Y
1a
1c
#35000000
b000100011 !
b00101 "
b0011 %
b0101 '
b11 +
b01 -
11
13
14
18
19
1<
1=
#36000000
b000100100 !
b00110 "
b0100 %
b0110 '
0(
b00 +
0,
b10 -
01
03
04
08
09
0<
0=
0A
0B
1C
1D
0E
0H
1I
0J
1L
1M
0O
b01 Q
b01 S
0T
0U
1W
0X
1Y
1Z
0\
1^
1_
0a
1b
1c
0d
0e
0i
0q
0s
#37000000
b000100101 !
b00111 "
b0101 %
b0111 '
b01 +
b11 -
11
13
14
18
19
1<
1=
#38000000
b000100110 !
b01000 "
b0110 %
b1000 '
1(
b10 +
1,
b00 -
01
03
04
08
09
0<
0=
1A
1B
0C
0D
1E
1H
0I
1J
0L
0M
1O
b10 S
1T
1U
1X
0Y
1\
1a
0c
1d
1e
1i
1q
1s
#39000000
b000100111 !
b01001 "
b0111 %
b1001 '
b11 +
b01 -
11
13
14
18
19
1<
1=
#40000000
b000101000 !
b01010 "
b1000 %
0&
b1010 '
0(
b00 +
0,
b10 -
01
03
04
08
09
0<
0=
0A
0B
1C
1D
0E
0H
1I
0J
1L
1M
0O
b10 Q
0R
b10 S
0T
0U
0W
0X
0Y
0Z
0\
0^
0_
0a
0b
0c
0d
0e
1g
0h
1i
1j
0l
1n
1o
0q
1r
1s
0t
#41000000
b000101001 !
b01011 "
b1001 %
b1011 '
b01 +
b11 -
11
13
14
18
19
1<
1=
#42000000
b000101010 !
b01100 "
b1010 %
b1100 '
1(
b10 +
1,
b00 -
01
03
04
08
09
0<
0=
1A
1B
0C
0D
1E
1H
0I
1J
0L
0M
1O
b11 S
1U
1Y
1a
1c
#43000000
b000101011 !
b01101 "
b1011 %
b1101 '
b11 +
b01 -
11
13
14
18
19
1<
1=
#44000000
b000101100 !
b01110 "
b1100 %
0&
b1110 '
0(
b00 +
0,
b10 -
01
03
04
08
09
0<
0=
0A
0B
1C
1D
0E
0H
1I
0J
1L
1M
0O
b11 Q
0R
b11 S
0T
0U
1W
0X
1Y
1Z
0\
1^
1_
0a
1b
1c
0d
0e
0h
1i
0l
0q
1s
0t
#45000000
b000101101 !
b01111 "
b1101 %
b1111 '
b01 +
b11 -
11
13
14
18
19
1<
1=
#46000000
b000101110 !
b10000 "
b1110 %
1&
b0000 '
1(
b10 +
1,
b00 -
01
03
04
08
09
0<
0=
1A
1B
0C
0D
1E
1H
0I
1J
0L
0M
1O
1R
b00 S
1T
1U
1X
0Y
1\
1a
0c
1d
1e
1h
0i
1l
1q
0s
1t
#47000000
b000101111 !
b10001 "
b1111 %
b0001 '
b11 +
b01 -
11
13
14
18
19
1<
1=
#48000000
b000110000 !
b00011 "
b0011 $
b0000 %
0&
b0011 '
0(
b11 *
b00 +
0,
b11 -
10
01
17
08
0A
0B
1C
1D
0E
0H
1I
0J
1L
1M
0O
b00 Q
0R
b00 S
0T
0U
0W
0X
0Y
0Z
0\
0^
0_
0a
0b
0c
0d
0e
0g
0h
0i
0j
0l
0n
0o
0q
0r
0s
0t
#49000000
b000110001 !
b00100 "
b0001 %
b0100 '
1(
b01 +
1,
b00 -
1.
11
12
03
04
15
18
09
1:
0<
0=
1?
1B
0C
1F
1K
0M
1N
1O
b01 S
1U
1Y
1a
1c
#50000000
b000110010 !
b00101 "
b0010 %
b0101 '
b10 +
b01 -
0.
01
02
13
14
05
08
19
0:
1<
1=
0?
1A
0C
0D
1E
0F
1H
0I
1J
0K
0L
0M
0N
#51000000
b000110011 !
b00110 "
b0011 %
b0110 '
b11 +
b10 -
1.
11
12
03
04
15
18
09
1:
0<
0=
1?
1C
1K
1M
#52000000
b000110100 !
b00111 "
b0100 %
b0111 '
0(
b00 +
0,
b11 -
0.
01
02
13
14
05
08
19
0:
1<
1=
0?
0A
0B
1C
1D
0E
0F
0H
1I
0J
0K
1L
1M
0N
0O
b01 Q
b01 S
0T
0U
1W
0X
1Y
1Z
0\
1^
1_
0a
1b
1c
0d
0e
0i
0q
0s
#53000000
b000110101 !
b01000 "
b0101 %
b1000 '
1(
b01 +
1,
b00 -
1.
11
12
03
04
15
18
09
1:
0<
0=
1?
1B
0C
1F
1K
0M
1N
1O
b10 S
1T
1U
1X
0Y
1\
1a
0c
1d
1e
1i
1q
1s
#54000000
b000110110 !
b01001 "
b0110 %
b1001 '
b10 +
b01 -
0.
01
02
13
14
05
08
19
0:
1<
1=
0?
1A
0C
0D
1E
0F
1H
0I
1J
0K
0L
0M
0N
#55000000
b000110111 !
b01010 "
b0111 %
b1010 '
b11 +
b10 -
1.
11
12
03
04
15
18
09
1:
0<
0=
1?
1C
1K
1M
#56000000
b000111000 !
b01011 "
b1000 %
0&
b1011 '
0(
b00 +
0,
b11 -
0.
01
02
13
14
05
08
19
0:
1<
1=
0?
0A
0B
1C
1D
0E
0F
0H
1I
0J
0K
1L
1M
0N
0O
b10 Q
0R
b10 S
0T
0U
0W
0X
0Y
0Z
0\
0^
0_
0a
0b
0c
0d
0e
1g
0h
1i
1j
0l
1n
1o
0q
1r
1s
0t
#57000000
b000111001 !
b01100 "
b1001 %
b1100 '
1(
b01 +
1,
b00 -
1.
11
12
03
04
15
18
09
1:
0<
0=
1?
1B
0C
1F
1K
0M
1N
1O
b11 S
1U
1Y
1a
1c
#58000000
b000111010 !
b01101 "
b1010 %
b1101 '
b10 +
b01 -
0.
01
02
13
14
05
08
19
0:
1<
1=
0?
1A
0C
0D
1E
0F
1H
0I
1J
0K
0L
0M
0N
#59000000
b000111011 !
b01110 "
b1011 %
b1110 '
b11 +
b10 -
1.
11
12
03
04
15
18
09
1:
0<
0=
1?
1C
1K
1M
#60000000
b000111100 !
b01111 "
b1100 %
0&
b1111 '
0(
b00 +
0,
b11 -
0.
01
02
13
14
05
08
19
0:
1<
1=
0?
0A
0B
1C
1D
0E
0F
0H
1I
0J
0K
1L
1M
0N
0O
b11 Q
0R
b11 S
0T
0U
1W
0X
1Y
1Z
0\
1^
1_
0a
1b
1c
0d
0e
0h
1i
0l
0q
1s
0t
#61000000
b000111101 !
b10000 "
b1101 %
1&
b0000 '
1(
b01 +
1,
b00 -
1.
11
12
03
04
15
18
09
1:
0<
0=
1?
1B
0C
1F
1K
0M
1N
1O
1R
b00 S
1T
1U
1X
0Y
1\
1a
0c
1d
1e
1h
0i
1l
1q
0s
1t
#62000000
b000111110 !
b10001 "
b1110 %
b0001 '
b10 +
b01 -
0.
01
02
13
14
05
08
19
0:
1<
1=
0?
1A
0C
0D
1E
0F
1H
0I
1J
0K
0L
0M
0N
#63000000
b000111111 !
b10010 "
b1111 %
b0010 '
b11 +
b10 -
1.
11
12
03
04
15
18
09
1:
0<
0=
1?
1C
1K
1M
#64000000
b001000000 !
b00100 "
b0100 $
b0000 %
0&
b0100 '
0(
b00 *
b00 +
0,
b00 -
0.
00
01
02
05
07
08
0:
0?
0@
0A
0B
0C
0E
0G
0H
0J
0K
0M
0O
b01 P
b00 Q
0R
b01 S
0T
0U
1V
0W
0X
1Y
0\
1]
0^
0a
1c
0d
0e
0g
0h
0i
0j
0l
0n
0o
0q
0r
0s
0t
#65000000
b001000001 !
b00101 "
b0001 %
b0101 '
b01 +
b01 -
11
13
14
18
19
1<
1=
#66000000
b001000010 !
b00110 "
b0010 %
b0110 '
b10 +
b10 -
01
03
04
08
09
0<
0=
1A
1C
1D
1H
1I
1L
1M
#67000000
b001000011 !
b00111 "
b0011 %
b0111 '
b11 +
b11 -
11
13
14
18
19
1<
1=
#68000000
b001000100 !
b01000 "
b0100 %
b1000 '
b00 +
b00 -
01
03
04
08
09
0<
0=
0A
0C
0D
0H
0I
0L
0M
b01 Q
b10 S
1T
1W
1X
0Y
0Z
1[
1^
0_
1`
0b
0c
1e
1i
1q
1s
#69000000
b001000101 !
b01001 "
b0101 %
b1001 '
b01 +
b01 -
11
13
14
18
19
1<
1=
#70000000
b001000110 !
b01010 "
b0110 %
b1010 '
b10 +
b10 -
01
03
04
08
09
0<
0=
1A
1C
1D
1H
1I
1L
1M
#71000000
b001000111 !
b01011 "
b0111 %
b1011 '
b11 +
b11 -
11
13
14
18
19
1<
1=
#72000000
b001001000 !
b01100 "
b1000 %
0&
b1100 '
b00 +
b00 -
01
03
04
08
09
0<
0=
0A
0C
0D
0H
0I
0L
0M
b10 Q
0R
b11 S
0T
0W
0X
1Y
1Z
0[
0^
1_
0`
1b
1c
0e
1g
0h
1i
1j
0l
1n
1o
0q
1r
1s
0t
#73000000
b001001001 !
b01101 "
b1001 %
b1101 '
b01 +
b01 -
11
13
14
18
19
1<
1=
#74000000
b001001010 !
b01110 "
b1010 %
b1110 '
b10 +
b10 -
01
03
04
08
09
0<
0=
1A
1C
1D
1H
1I
1L
1M
#75000000
b001001011 !
b01111 "
b1011 %
b1111 '
b11 +
b11 -
11
13
14
18
19
1<
1=
#76000000
b001001100 !
b10000 "
b1100 %
1&
b0000 '
b00 +
b00 -
01
03
04
08
09
0<
0=
0A
0C
0D
0H
0I
0L
0M
b11 Q
1R
b00 S
1T
1W
1X
0Y
0Z
1[
1^
0_
1`
0b
0c
1e
1h
0i
1l
1q
0s
1t
#77000000
b001001101 !
b10001 "
b1101 %
b0001 '
b01 +
b01 -
11
13
14
18
19
1<
1=
#78000000
b001001110 !
b10010 "
b1110 %
b0010 '
b10 +
b10 -
01
03
04
08
09
0<
0=
1A
1C
1D
1H
1I
1L
1M
#79000000
b001001111 !
b10011 "
b1111 %
b0011 '
b11 +
b11 -
11
13
14
18
19
1<
1=
#80000000
b001010000 !
b00101 "
b0101 $
b0000 %
0&
b0101 '
b01 *
b00 +
b01 -
10
01
17
08
0A
0C
0D
0H
0I
0L
0M
b00 Q
0R
b01 S
0T
0W
0X
1Y
1Z
0[
0^
1_
0`
1b
1c
0e
0g
0h
0i
0j
0l
0n
0o
0q
0r
0s
0t
#81000000
b001010001 !
b00110 "
b0001 %
b0110 '
b01 +
b10 -
1.
11
12
03
04
15
18
09
1:
0<
0=
1?
1C
1K
1M
#82000000
b001010010 !
b00111 "
b0010 %
b0111 '
0(
b10 +
0,
b11 -
0.
01
02
13
14
05
08
19
0:
1<
1=
0?
1A
0B
1C
1D
0F
1H
1I
0K
1L
1M
0N
0O
b01 S
0T
0U
0X
1Y
0\
0a
1c
0d
0e
0i
0q
0s
#83000000
b001010011 !
b01000 "
b0011 %
b1000 '
1(
b11 +
1,
b00 -
1.
11
12
03
04
15
18
09
1:
0<
0=
1?
1B
0C
1F
1K
0M
1N
1O
b10 S
1T
1U
1X
0Y
1\
1a
0c
1d
1e
1i
1q
1s
#84000000
b001010100 !
b01001 "
b0100 %
b1001 '
0(
b00 +
0,
b01 -
0.
01
02
13
14
05
08
19
0:
1<
1=
0?
0A
0B
0C
0D
0F
0H
0I
0K
0L
0M
0N
0O
b01 Q
b10 S
0U
1W
0Y
0Z
1[
0\
1^
0_
1`
0a
0b
0c
0d
#85000000
b001010101 !
b01010 "
b0101 %
b1010 '
b01 +
b10 -
1.
11
12
03
04
15
18
09
1:
0<
0=
1?
1C
1K
1M
#86000000
b001010110 !
b01011 "
b0110 %
b1011 '
0(
b10 +
0,
b11 -
0.
01
02
13
14
05
08
19
0:
1<
1=
0?
1A
0B
1C
1D
0F
1H
1I
0K
1L
1M
0N
0O
b10 S
0U
0Y
0a
0c
#87000000
b001010111 !
b01100 "
b0111 %
b1100 '
1(
b11 +
1,
b00 -
1.
11
12
03
04
15
18
09
1:
0<
0=
1?
1B
0C
1F
1K
0M
1N
1O
b11 S
1U
1Y
1a
1c
#88000000
b001011000 !
b01101 "
b1000 %
0&
b1101 '
0(
b00 +
0,
b01 -
0.
01
02
13
14
05
08
19
0:
1<
1=
0?
0A
0B
0C
0D
0F
0H
0I
0K
0L
0M
0N
0O
b10 Q
0R
b11 S
0T
0U
0W
0X
1Y
1Z
0[
0\
0^
1_
0`
0a
1b
1c
0d
0e
1g
0h
1i
1j
0l
1n
1o
0q
1r
1s
0t
#89000000
b001011001 !
b01110 "
b1001 %
b1110 '
b01 +
b10 -
1.
11
12
03
04
15
18
09
1:
0<
0=
1?
1C
1K
1M
#90000000
b001011010 !
b01111 "
b1010 %
0&
b1111 '
0(
b10 +
0,
b11 -
0.
01
02
13
14
05
08
19
0:
1<
1=
0?
1A
0B
1C
1D
0F
1H
1I
0K
1L
1M
0N
0O
0R
b11 S
0T
0U
0X
1Y
0\
0a
1c
0d
0e
0h
1i
0l
0q
1s
0t
#91000000
b001011011 !
b10000 "
b1011 %
1&
b0000 '
1(
b11 +
1,
b00 -
1.
11
12
03
04
15
18
09
1:
0<
0=
1?
1B
0C
1F
1K
0M
1N
1O
1R
b00 S
1T
1U
1X
0Y
1\
1a
0c
1d
1e
1h
0i
1l
1q
0s
1t
#92000000
b001011100 !
b10001 "
b1100 %
b0001 '
0(
b00 +
0,
b01 -
0.
01
02
13
14
05
08
19
0:
1<
1=
0?
0A
0B
0C
0D
0F
0H
0I
0K
0L
0M
0N
0O
b11 Q
b00 S
0U
1W
0Y
0Z
1[
0\
1^
0_
1`
0a
0b
0c
0d
#93000000
b001011101 !
b10010 "
b1101 %
b0010 '
b01 +
b10 -
1.
11
12
03
04
15
18
09
1:
0<
0=
1?
1C
1K
1M
#94000000
b001011110 !
b10011 "
b1110 %
b0011 '
0(
b10 +
0,
b11 -
0.
01
02
13
14
05
08
19
0:
1<
1=
0?
1A
0B
1C
1D
0F
1H
1I
0K
1L
1M
0N
0O
b00 S
0U
0Y
0a
0c
#95000000
b001011111 !
b10100 "
b1111 %
b0100 '
1(
b11 +
1,
b00 -
1.
11
12
03
04
15
18
09
1:
0<
0=
1?
1B
0C
1F
1K
0M
1N
1O
b01 S
1U
1Y
1a
1c
#96000000
b001100000 !
b00110 "
b0110 $
b0000 %
0&
b0110 '
0(
b10 *
b00 +
0,
b10 -
0.
00
01
02
05
07
08
0:
0?
1@
0A
0B
1C
0F
1G
0H
0K
1M
0N
0O
b00 Q
0R
b01 S
0T
0U
0W
0X
1Y
1Z
0[
0\
0^
1_
0`
0a
1b
1c
0d
0e
0g
0h
0i
0j
0l
0n
0o
0q
0r
0s
0t
#97000000
b001100001 !
b00111 "
b0001 %
b0111 '
b01 +
b11 -
11
13
14
18
19
1<
1=
#98000000
b001100010 !
b01000 "
b0010 %
b1000 '
1(
b10 +
1,
b00 -
01
03
04
08
09
0<
0=
1A
1B
0C
0D
1E
1H
0I
1J
0L
0M
1O
b10 S
1T
1U
1X
0Y
1\
1a
0c
1d
1e
1i
1q
1s
#99000000
b001100011 !
b01001 "
b0011 %
b1001 '
b11 +
b01 -
11
13
14
18
19
1<
1=
#100000000
b001100100 !
b01010 "
b0100 %
b1010 '
0(
b00 +
0,
b10 -
01
03
04
08
09
0<
0=
0A
0B
1C
1D
0E
0H
1I
0J
1L
1M
0O
b01 Q
b10 S
0U
1W
0Y
0Z
1[
0\
1^
0_
1`
0a
0b
0c
0d
#101000000
b001100101 !
b01011 "
b0101 %
b1011 '
b01 +
b11 -
11
13
14
18
19
1<
1=
#102000000
b001100110 !
b01100 "
b0110 %
b1100 '
1(
b10 +
1,
b00 -
01
03
04
08
09
0<
0=
1A
1B
0C
0D
1E
1H
0I
1J
0L
0M
1O
b11 S
1U
1Y
1a
1c
#103000000
b001100111 !
b01101 "
b0111 %
b1101 '
b11 +
b01 -
11
13
14
18
19
1<
1=
#104000000
b001101000 !
b01110 "
b1000 %
0&
b1110 '
0(
b00 +
0,
b10 -
01
03
04
08
09
0<
0=
0A
0B
1C
1D
0E
0H
1I
0J
1L
1M
0O
b10 Q
0R
b11 S
0T
0U
0W
0X
1Y
1Z
0[
0\
0^
1_
0`
0a
1b
1c
0d
0e
1g
0h
1i
1j
0l
1n
1o
0q
1r
1s
0t
#105000000
b001101001 !
b01111 "
b1001 %
b1111 '
b01 +
b11 -
11
13
14
18
19
1<
1=
#106000000
b001101010 !
b10000 "
b1010 %
1&
b0000 '
1(
b10 +
1,
b00 -
01
03
04
08
09
0<
0=
1A
1B
0C
0D
1E
1H
0I
1J
0L
0M
1O
1R
b00 S
1T
1U
1X
0Y
1\
1a
0c
1d
1e
1h
0i
1l
1q
0s
1t
#107000000
b001101011 !
b10001 "
b1011 %
b0001 '
b11 +
b01 -
11
13
14
18
19
1<
1=
#108000000
b001101100 !
b10010 "
b1100 %
b0010 '
0(
b00 +
0,
b10 -
01
03
04
08
09
0<
0=
0A
0B
1C
1D
0E
0H
1I
0J
1L
1M
0O
b11 Q
b00 S
0U
1W
0Y
0Z
1[
0\
1^
0_
1`
0a
0b
0c
0d
#109000000
b001101101 !
b10011 "
b1101 %
b0011 '
b01 +
b11 -
11
13
14
18
19
1<
1=
#110000000
b001101110 !
b10100 "
b1110 %
b0100 '
1(
b10 +
1,
b00 -
01
03
04
08
09
0<
0=
1A
1B
0C
0D
1E
1H
0I
1J
0L
0M
1O
b01 S
1U
1Y
1a
1c
#111000000
b001101111 !
b10101 "
b1111 %
b0101 '
b11 +
b01 -
11
13
14
18
19
1<
1=
#112000000
b001110000 !
b00111 "
b0111 $
b0000 %
0&
b0111 '
0(
b11 *
b00 +
0,
b11 -
10
01
17
08
0A
0B
1C
1D
0E
0H
1I
0J
1L
1M
0O
b00 Q
0R
b01 S
0T
0U
0W
0X
1Y
1Z
0[
0\
0^
1_
0`
0a
1b
1c
0d
0e
0g
0h
0i
0j
0l
0n
0o
0q
0r
0s
0t
#113000000
b001110001 !
b01000 "
b0001 %
b1000 '
1(
b01 +
1,
b00 -
1.
11
12
03
04
15
18
09
1:
0<
0=
1?
1B
0C
1F
1K
0M
1N
1O
b10 S
1T
1U
1X
0Y
1\
1a
0c
1d
1e
1i
1q
1s
#114000000
b001110010 !
b01001 "
b0010 %
b1001 '
b10 +
b01 -
0.
01
02
13
14
05
08
19
0:
1<
1=
0?
1A
0C
0D
1E
0F
1H
0I
1J
0K
0L
0M
0N
#115000000
b001110011 !
b01010 "
b0011 %
b1010 '
b11 +
b10 -
1.
11
12
03
04
15
18
09
1:
0<
0=
1?
1C
1K
1M
#116000000
b001110100 !
b01011 "
b0100 %
b1011 '
0(
b00 +
0,
b11 -
0.
01
02
13
14
05
08
19
0:
1<
1=
0?
0A
0B
1C
1D
0E
0F
0H
1I
0J
0K
1L
1M
0N
0O
b01 Q
b10 S
0U
1W
0Y
0Z
1[
0\
1^
0_
1`
0a
0b
0c
0d
#117000000
b001110101 !
b01100 "
b0101 %
b1100 '
1(
b01 +
1,
b00 -
1.
11
12
03
04
15
18
09
1:
0<
0=
1?
1B
0C
1F
1K
0M
1N
1O
b11 S
1U
1Y
1a
1c
#118000000
b001110110 !
b01101 "
b0110 %
b1101 '
b10 +
b01 -
0.
01
02
13
14
05
08
19
0:
1<
1=
0?
1A
0C
0D
1E
0F
1H
0I
1J
0K
0L
0M
0N
