VHDL Files/src/Routing/sim.vcd
$date
  Sun Oct 15 16:59:42 2023
$end
$version
  GHDL v0
$end
$timescale
  1 fs
$end
$var reg 4 ! r[3:0] $end
$var reg 2 " e[1:0] $end
$var reg 1 # v $end
$scope module dut_case $end
$var reg 4 $ r[3:0] $end
$var reg 2 % e[1:0] $end
$var reg 1 & v $end
$upscope $end
$enddefinitions $end
#0
b0000 !
b00 "
0#
b0000 $
b00 %
0&
#1000000
b0001 !
1#
b0001 $
1&
#2000000
b0010 !
b01 "
b0010 $
b01 %
#3000000
b0011 !
b0011 $
#4000000
b0100 !
b10 "
b0100 $
b10 %
#5000000
b0101 !
b0101 $
#6000000
b0110 !
b0110 $
#7000000
b0111 !
b0111 $
#8000000
b1000 !
b11 "
b1000 $
b11 %
#9000000
b1001 !
b1001 $
#10000000
b1010 !
b1010 $
#11000000
b1011 !
b1011 $
#12000000
b1100 !
b1100 $
#13000000
b1101 !
b1101 $
#14000000
b1110 !
b1110 $
#15000000
b1111 !
b1111 $
