VHDL Files/src/sseg display/compsim.vcd
$date
  Wed Oct 18 17:02:42 2023
$end
$version
  GHDL v0
$end
$timescale
  1 fs
$end
$var reg 4 ! num1[3:0] $end
$var reg 4 " num2[3:0] $end
$var reg 4 # small[3:0] $end
$var reg 4 $ large[3:0] $end
$scope module dut $end
$var reg 4 % num1[3:0] $end
$var reg 4 & num2[3:0] $end
$var reg 4 ' small[3:0] $end
$var reg 4 ( large[3:0] $end
$upscope $end
$enddefinitions $end
#0
b0000 !
b1111 "
b0000 #
b1111 $
b0000 %
b1111 &
b0000 '
b1111 (
#1000000
b0001 !
b1110 "
b0001 #
b1110 $
b0001 %
b1110 &
b0001 '
b1110 (
#2000000
b0010 !
b1101 "
b0010 #
b1101 $
b0010 %
b1101 &
b0010 '
b1101 (
#3000000
b0011 !
b1100 "
b0011 #
b1100 $
b0011 %
b1100 &
b0011 '
b1100 (
#4000000
b0100 !
b1011 "
b0100 #
b1011 $
b0100 %
b1011 &
b0100 '
b1011 (
#5000000
b0101 !
b1010 "
b0101 #
b1010 $
b0101 %
b1010 &
b0101 '
b1010 (
#6000000
b0110 !
b1001 "
b0110 #
b1001 $
b0110 %
b1001 &
b0110 '
b1001 (
#7000000
b0111 !
b1000 "
b0111 #
b1000 $
b0111 %
b1000 &
b0111 '
b1000 (
#8000000
b1000 !
b0111 "
b1000 %
b0111 &
#9000000
b1001 !
b0110 "
b0110 #
b1001 $
b1001 %
b0110 &
b0110 '
b1001 (
#10000000
b1010 !
b0101 "
b0101 #
b1010 $
b1010 %
b0101 &
b0101 '
b1010 (
#11000000
b1011 !
b0100 "
b0100 #
b1011 $
b1011 %
b0100 &
b0100 '
b1011 (
#12000000
b1100 !
b0011 "
b0011 #
b1100 $
b1100 %
b0011 &
b0011 '
b1100 (
#13000000
b1101 !
b0010 "
b0010 #
b1101 $
b1101 %
b0010 &
b0010 '
b1101 (
#14000000
b1110 !
b0001 "
b0001 #
b1110 $
b1110 %
b0001 &
b0001 '
b1110 (
#15000000
b1111 !
b0000 "
b0000 #
b1111 $
b1111 %
b0000 &
b0000 '
b1111 (
