VHDL Files/src/sseg display/sepsim.vcd
$date
  Wed Oct 18 17:27:10 2023
$end
$version
  GHDL v0
$end
$timescale
  1 fs
$end
$var reg 4 ! input[3:0] $end
$var reg 4 " msb[3:0] $end
$var reg 4 # lsb[3:0] $end
$scope module dut $end
$var reg 4 $ input[3:0] $end
$var reg 4 % msb[3:0] $end
$var reg 4 & lsb[3:0] $end
$upscope $end
$enddefinitions $end
#0
b0000 !
b0000 "
b0000 #
b0000 $
b0000 %
b0000 &
#1000000
b0001 !
b0001 #
b0001 $
b0001 &
#2000000
b0010 !
b0010 #
b0010 $
b0010 &
#3000000
b0011 !
b0011 #
b0011 $
b0011 &
#4000000
b0100 !
b0100 #
b0100 $
b0100 &
#5000000
b0101 !
b0101 #
b0101 $
b0101 &
#6000000
b0110 !
b0110 #
b0110 $
b0110 &
#7000000
b0111 !
b0111 #
b0111 $
b0111 &
#8000000
b1000 !
b1000 #
b1000 $
b1000 &
#9000000
b1001 !
b1001 #
b1001 $
b1001 &
#10000000
b1010 !
b0001 "
b0000 #
b1010 $
b0001 %
b0000 &
#11000000
b1011 !
b0001 #
b1011 $
b0001 &
#12000000
b1100 !
b0010 #
b1100 $
b0010 &
#13000000
b1101 !
b0011 #
b1101 $
b0011 &
#14000000
b1110 !
b0100 #
b1110 $
b0100 &
#15000000
b1111 !
b0101 #
b1111 $
b0101 &
