VHDL Files/src/8 Bit Adder/8 Bit Adder/eight_bit_adder_cl_simulation.vcd
$date
  Sun Sep 24 15:17:08 2023
$end
$version
  GHDL v0
$end
$timescale
  1 fs
$end
$var reg 17 ! test_bits_in[16:0] $end
$var reg 9 " test_bits_out[8:0] $end
$scope module dut $end
$var reg 1 # carry_in $end
$var reg 8 $ a[7:0] $end
$var reg 8 % b[7:0] $end
$var reg 1 & carry_out $end
$var reg 8 ' sum[7:0] $end
$var reg 3 ( carry_through[2:0] $end
$scope module bits_1_0 $end
$var reg 1 ) carry_in $end
$var reg 2 * a[1:0] $end
$var reg 2 + b[1:0] $end
$var reg 1 , carry_out $end
$var reg 2 - sum[1:0] $end
$var reg 2 . g[1:0] $end
$var reg 2 / p[1:0] $end
$var reg 4 0 c[3:0] $end
$upscope $end
$scope module bits_3_2 $end
$var reg 1 1 carry_in $end
$var reg 2 2 a[1:0] $end
$var reg 2 3 b[1:0] $end
$var reg 1 4 carry_out $end
$var reg 2 5 sum[1:0] $end
$var reg 2 6 g[1:0] $end
$var reg 2 7 p[1:0] $end
$var reg 4 8 c[3:0] $end
$upscope $end
$scope module bits_5_4 $end
$var reg 1 9 carry_in $end
$var reg 2 : a[1:0] $end
$var reg 2 ; b[1:0] $end
$var reg 1 < carry_out $end
$var reg 2 = sum[1:0] $end
$var reg 2 > g[1:0] $end
$var reg 2 ? p[1:0] $end
$var reg 4 @ c[3:0] $end
$upscope $end
$scope module bits_7_6 $end
$var reg 1 A carry_in $end
$var reg 2 B a[1:0] $end
$var reg 2 C b[1:0] $end
$var reg 1 D carry_out $end
$var reg 2 E sum[1:0] $end
$var reg 2 F g[1:0] $end
$var reg 2 G p[1:0] $end
$var reg 4 H c[3:0] $end
$upscope $end
$upscope $end
$enddefinitions $end
#0
b00000000000000000 !
b000000000 "
0#
b00000000 $
b00000000 %
0&
b00000000 '
b000 (
0)
b00 *
b00 +
0,
b00 -
b00 .
b00 /
b0000 0
01
b00 2
b00 3
04
b00 5
b00 6
b00 7
b0000 8
09
b00 :
b00 ;
0<
b00 =
b00 >
b00 ?
b0000 @
0A
b00 B
b00 C
0D
b00 E
b00 F
b00 G
b0000 H
#1000000
b00000000000000001 !
b000000001 "
b00000001 %
b00000001 '
b01 +
b01 -
b01 /
#2000000
b00000000000000010 !
b000000010 "
b00000010 %
b00000010 '
b10 +
b10 -
b10 /
#3000000
b00000000000000011 !
b000000011 "
b00000011 %
b00000011 '
b11 +
b11 -
b11 /
#4000000
b00000000000000100 !
b000000100 "
b00000100 %
b00000100 '
b00 +
b00 -
b00 /
b01 3
b01 5
b01 7
#5000000
b00000000000000101 !
b000000101 "
b00000101 %
b00000101 '
b01 +
b01 -
b01 /
#6000000
b00000000000000110 !
b000000110 "
b00000110 %
b00000110 '
b10 +
b10 -
b10 /
#7000000
b00000000000000111 !
b000000111 "
b00000111 %
b00000111 '
b11 +
b11 -
b11 /
#8000000
b00000000000001000 !
b000001000 "
b00001000 %
b00001000 '
b00 +
b00 -
b00 /
b10 3
b10 5
b10 7
#9000000
b00000000000001001 !
b000001001 "
b00001001 %
b00001001 '
b01 +
b01 -
b01 /
#10000000
b00000000000001010 !
b000001010 "
b00001010 %
b00001010 '
b10 +
b10 -
b10 /
#11000000
b00000000000001011 !
b000001011 "
b00001011 %
b00001011 '
b11 +
b11 -
b11 /
#12000000
b00000000000001100 !
b000001100 "
b00001100 %
b00001100 '
b00 +
b00 -
b00 /
b11 3
b11 5
b11 7
#13000000
b00000000000001101 !
b000001101 "
b00001101 %
b00001101 '
b01 +
b01 -
b01 /
#14000000
b00000000000001110 !
b000001110 "
b00001110 %
b00001110 '
b10 +
b10 -
b10 /
#15000000
b00000000000001111 !
b000001111 "
b00001111 %
b00001111 '
b11 +
b11 -
b11 /
#16000000
b00000000000010000 !
b000010000 "
b00010000 %
b00010000 '
b00 +
b00 -
b00 /
b00 3
b00 5
b00 7
b01 ;
b01 =
b01 ?
#17000000
b00000000000010001 !
b000010001 "
b00010001 %
b00010001 '
b01 +
b01 -
b01 /
#18000000
b00000000000010010 !
b000010010 "
b00010010 %
b00010010 '
b10 +
b10 -
b10 /
#19000000
b00000000000010011 !
b000010011 "
b00010011 %
b00010011 '
b11 +
b11 -
b11 /
#20000000
b00000000000010100 !
b000010100 "
b00010100 %
b00010100 '
b00 +
b00 -
b00 /
b01 3
b01 5
b01 7
#21000000
b00000000000010101 !
b000010101 "
b00010101 %
b00010101 '
b01 +
b01 -
b01 /
#22000000
b00000000000010110 !
b000010110 "
b00010110 %
b00010110 '
b10 +
b10 -
b10 /
#23000000
b00000000000010111 !
b000010111 "
b00010111 %
b00010111 '
b11 +
b11 -
b11 /
#24000000
b00000000000011000 !
b000011000 "
b00011000 %
b00011000 '
b00 +
b00 -
b00 /
b10 3
b10 5
b10 7
#25000000
b00000000000011001 !
b000011001 "
b00011001 %
b00011001 '
b01 +
b01 -
b01 /
#26000000
b00000000000011010 !
b000011010 "
b00011010 %
b00011010 '
b10 +
b10 -
b10 /
#27000000
b00000000000011011 !
b000011011 "
b00011011 %
b00011011 '
b11 +
b11 -
b11 /
#28000000
b00000000000011100 !
b000011100 "
b00011100 %
b00011100 '
b00 +
b00 -
b00 /
b11 3
b11 5
b11 7
#29000000
b00000000000011101 !
b000011101 "
b00011101 %
b00011101 '
b01 +
b01 -
b01 /
#30000000
b00000000000011110 !
b000011110 "
b00011110 %
b00011110 '
b10 +
b10 -
b10 /
#31000000
b00000000000011111 !
b000011111 "
b00011111 %
b00011111 '
b11 +
b11 -
b11 /
#32000000
b00000000000100000 !
b000100000 "
b00100000 %
b00100000 '
b00 +
b00 -
b00 /
b00 3
b00 5
b00 7
b10 ;
b10 =
b10 ?
#33000000
b00000000000100001 !
b000100001 "
b00100001 %
b00100001 '
b01 +
b01 -
b01 /
#34000000
b00000000000100010 !
b000100010 "
b00100010 %
b00100010 '
b10 +
b10 -
b10 /
#35000000
b00000000000100011 !
b000100011 "
b00100011 %
b00100011 '
b11 +
b11 -
b11 /
#36000000
b00000000000100100 !
b000100100 "
b00100100 %
b00100100 '
b00 +
b00 -
b00 /
b01 3
b01 5
b01 7
#37000000
b00000000000100101 !
b000100101 "
b00100101 %
b00100101 '
b01 +
b01 -
b01 /
#38000000
b00000000000100110 !
b000100110 "
b00100110 %
b00100110 '
b10 +
b10 -
b10 /
#39000000
b00000000000100111 !
b000100111 "
b00100111 %
b00100111 '
b11 +
b11 -
b11 /
#40000000
b00000000000101000 !
b000101000 "
b00101000 %
b00101000 '
b00 +
b00 -
b00 /
b10 3
b10 5
b10 7
#41000000
b00000000000101001 !
b000101001 "
b00101001 %
b00101001 '
b01 +
b01 -
b01 /
#42000000
b00000000000101010 !
b000101010 "
b00101010 %
b00101010 '
b10 +
b10 -
b10 /
#43000000
b00000000000101011 !
b000101011 "
b00101011 %
b00101011 '
b11 +
b11 -
b11 /
#44000000
b00000000000101100 !
b000101100 "
b00101100 %
b00101100 '
b00 +
b00 -
b00 /
b11 3
b11 5
b11 7
#45000000
b00000000000101101 !
b000101101 "
b00101101 %
b00101101 '
b01 +
b01 -
b01 /
#46000000
b00000000000101110 !
b000101110 "
b00101110 %
b00101110 '
b10 +
b10 -
b10 /
#47000000
b00000000000101111 !
b000101111 "
b00101111 %
b00101111 '
b11 +
b11 -
b11 /
#48000000
b00000000000110000 !
b000110000 "
b00110000 %
b00110000 '
b00 +
b00 -
b00 /
b00 3
b00 5
b00 7
b11 ;
b11 =
b11 ?
#49000000
b00000000000110001 !
b000110001 "
b00110001 %
b00110001 '
b01 +
b01 -
b01 /
#50000000
b00000000000110010 !
b000110010 "
b00110010 %
b00110010 '
b10 +
b10 -
b10 /
#51000000
b00000000000110011 !
b000110011 "
b00110011 %
b00110011 '
b11 +
b11 -
b11 /
#52000000
b00000000000110100 !
b000110100 "
b00110100 %
b00110100 '
b00 +
b00 -
b00 /
b01 3
b01 5
b01 7
#53000000
b00000000000110101 !
b000110101 "
b00110101 %
b00110101 '
b01 +
b01 -
b01 /
#54000000
b00000000000110110 !
b000110110 "
b00110110 %
b00110110 '
b10 +
b10 -
b10 /
#55000000
b00000000000110111 !
b000110111 "
b00110111 %
b00110111 '
b11 +
b11 -
b11 /
#56000000
b00000000000111000 !
b000111000 "
b00111000 %
b00111000 '
b00 +
b00 -
b00 /
b10 3
b10 5
b10 7
#57000000
b00000000000111001 !
b000111001 "
b00111001 %
b00111001 '
b01 +
b01 -
b01 /
#58000000
b00000000000111010 !
b000111010 "
b00111010 %
b00111010 '
b10 +
b10 -
b10 /
#59000000
b00000000000111011 !
b000111011 "
b00111011 %
b00111011 '
b11 +
b11 -
b11 /
#60000000
b00000000000111100 !
b000111100 "
b00111100 %
b00111100 '
b00 +
b00 -
b00 /
b11 3
b11 5
b11 7
#61000000
b00000000000111101 !
b000111101 "
b00111101 %
b00111101 '
b01 +
b01 -
b01 /
#62000000
b00000000000111110 !
b000111110 "
b00111110 %
b00111110 '
b10 +
b10 -
b10 /
#63000000
b00000000000111111 !
b000111111 "
b00111111 %
b00111111 '
b11 +
b11 -
b11 /
#64000000
b00000000001000000 !
b001000000 "
b01000000 %
b01000000 '
b00 +
b00 -
b00 /
b00 3
b00 5
b00 7
b00 ;
b00 =
b00 ?
b01 C
b01 E
b01 G
#65000000
b00000000001000001 !
b001000001 "
b01000001 %
b01000001 '
b01 +
b01 -
b01 /
#66000000
b00000000001000010 !
b001000010 "
b01000010 %
b01000010 '
b10 +
b10 -
b10 /
#67000000
b00000000001000011 !
b001000011 "
b01000011 %
b01000011 '
b11 +
b11 -
b11 /
#68000000
b00000000001000100 !
b001000100 "
b01000100 %
b01000100 '
b00 +
b00 -
b00 /
b01 3
b01 5
b01 7
#69000000
b00000000001000101 !
b001000101 "
b01000101 %
b01000101 '
b01 +
b01 -
b01 /
#70000000
b00000000001000110 !
b001000110 "
b01000110 %
b01000110 '
b10 +
b10 -
b10 /
#71000000
b00000000001000111 !
b001000111 "
b01000111 %
b01000111 '
b11 +
b11 -
b11 /
#72000000
b00000000001001000 !
b001001000 "
b01001000 %
b01001000 '
b00 +
b00 -
b00 /
b10 3
b10 5
b10 7
#73000000
b00000000001001001 !
b001001001 "
b01001001 %
b01001001 '
b01 +
b01 -
b01 /
#74000000
b00000000001001010 !
b001001010 "
b01001010 %
b01001010 '
b10 +
b10 -
b10 /
#75000000
b00000000001001011 !
b001001011 "
b01001011 %
b01001011 '
b11 +
b11 -
b11 /
#76000000
b00000000001001100 !
b001001100 "
b01001100 %
b01001100 '
b00 +
b00 -
b00 /
b11 3
b11 5
b11 7
#77000000
b00000000001001101 !
b001001101 "
b01001101 %
b01001101 '
b01 +
b01 -
b01 /
#78000000
b00000000001001110 !
b001001110 "
b01001110 %
b01001110 '
b10 +
b10 -
b10 /
#79000000
b00000000001001111 !
b001001111 "
b01001111 %
b01001111 '
b11 +
b11 -
b11 /
#80000000
b00000000001010000 !
b001010000 "
b01010000 %
b01010000 '
b00 +
b00 -
b00 /
b00 3
b00 5
b00 7
b01 ;
b01 =
b01 ?
#81000000
b00000000001010001 !
b001010001 "
b01010001 %
b01010001 '
b01 +
b01 -
b01 /
#82000000
b00000000001010010 !
b001010010 "
b01010010 %
b01010010 '
b10 +
b10 -
b10 /
#83000000
b00000000001010011 !
b001010011 "
b01010011 %
b01010011 '
b11 +
b11 -
b11 /
#84000000
b00000000001010100 !
b001010100 "
b01010100 %
b01010100 '
b00 +
b00 -
b00 /
b01 3
b01 5
b01 7
#85000000
b00000000001010101 !
b001010101 "
b01010101 %
b01010101 '
b01 +
b01 -
b01 /
#86000000
b00000000001010110 !
b001010110 "
b01010110 %
b01010110 '
b10 +
b10 -
b10 /
#87000000
b00000000001010111 !
b001010111 "
b01010111 %
b01010111 '
b11 +
b11 -
b11 /
#88000000
b00000000001011000 !
b001011000 "
b01011000 %
b01011000 '
b00 +
b00 -
b00 /
b10 3
b10 5
b10 7
#89000000
b00000000001011001 !
b001011001 "
b01011001 %
b01011001 '
b01 +
b01 -
b01 /
#90000000
b00000000001011010 !
b001011010 "
b01011010 %
b01011010 '
b10 +
b10 -
b10 /
#91000000
b00000000001011011 !
b001011011 "
b01011011 %
b01011011 '
b11 +
b11 -
b11 /
#92000000
b00000000001011100 !
b001011100 "
b01011100 %
b01011100 '
b00 +
b00 -
b00 /
b11 3
b11 5
b11 7
#93000000
b00000000001011101 !
b001011101 "
b01011101 %
b01011101 '
b01 +
b01 -
b01 /
#94000000
b00000000001011110 !
b001011110 "
b01011110 %
b01011110 '
b10 +
b10 -
b10 /
#95000000
b00000000001011111 !
b001011111 "
b01011111 %
b01011111 '
b11 +
b11 -
b11 /
#96000000
b00000000001100000 !
b001100000 "
b01100000 %
b01100000 '
b00 +
b00 -
b00 /
b00 3
b00 5
b00 7
b10 ;
b10 =
b10 ?
#97000000
b00000000001100001 !
b001100001 "
b01100001 %
b01100001 '
b01 +
b01 -
b01 /
#98000000
b00000000001100010 !
b001100010 "
b01100010 %
b01100010 '
b10 +
b10 -
b10 /
#99000000
b00000000001100011 !
b001100011 "
b01100011 %
b01100011 '
b11 +
b11 -
b11 /
#100000000
b00000000001100100 !
b001100100 "
b01100100 %
b01100100 '
b00 +
b00 -
b00 /
b01 3
b01 5
b01 7
#101000000
b00000000001100101 !
b001100101 "
b01100101 %
b01100101 '
b01 +
b01 -
b01 /
#102000000
b00000000001100110 !
b001100110 "
b01100110 %
b01100110 '
b10 +
b10 -
b10 /
#103000000
b00000000001100111 !
b001100111 "
b01100111 %
b01100111 '
b11 +
b11 -
b11 /
#104000000
b00000000001101000 !
b001101000 "
b01101000 %
b01101000 '
b00 +
b00 -
b00 /
b10 3
b10 5
b10 7
#105000000
b00000000001101001 !
b001101001 "
b01101001 %
b01101001 '
b01 +
b01 -
b01 /
#106000000
b00000000001101010 !
b001101010 "
b01101010 %
b01101010 '
b10 +
b10 -
b10 /
#107000000
b00000000001101011 !
b001101011 "
b01101011 %
b01101011 '
b11 +
b11 -
b11 /
#108000000
b00000000001101100 !
b001101100 "
b01101100 %
b01101100 '
b00 +
b00 -
b00 /
b11 3
b11 5
b11 7
#109000000
b00000000001101101 !
b001101101 "
b01101101 %
b01101101 '
b01 +
b01 -
b01 /
#110000000
b00000000001101110 !
b001101110 "
b01101110 %
b01101110 '
b10 +
b10 -
b10 /
#111000000
b00000000001101111 !
b001101111 "
b01101111 %
b01101111 '
b11 +
b11 -
b11 /
#112000000
b00000000001110000 !
b001110000 "
b01110000 %
b01110000 '
b00 +
b00 -
b00 /
b00 3
b00 5
b00 7
b11 ;
b11 =
b11 ?
#113000000
b00000000001110001 !
b001110001 "
b01110001 %
b01110001 '
b01 +
b01 -
b01 /
#114000000
b00000000001110010 !
b001110010 "
b01110010 %
b01110010 '
b10 +
b10 -
b10 /
#115000000
b00000000001110011 !
b001110011 "
b01110011 %
b01110011 '
b11 +
b11 -
b11 /
#116000000
b00000000001110100 !
b001110100 "
b01110100 %
b01110100 '
b00 +
b00 -
b00 /
b01 3
b01 5
b01 7
#117000000
b00000000001110101 !
b001110101 "
b01110101 %
b01110101 '
b01 +
b01 -
b01 /
#118000000
b00000000001110110 !
b001110110 "
b01110110 %
b01110110 '
b10 +
b10 -
b10 /
#119000000
b00000000001110111 !
b001110111 "
b01110111 %
b01110111 '
b11 +
b11 -
b11 /
#120000000
b00000000001111000 !
b001111000 "
b01111000 %
b01111000 '
b00 +
b00 -
b00 /
b10 3
b10 5
b10 7
#121000000
b00000000001111001 !
b001111001 "
b01111001 %
b01111001 '
b01 +
b01 -
b01 /
#122000000
b00000000001111010 !
b001111010 "
b01111010 %
b01111010 '
b10 +
b10 -
b10 /
#123000000
b00000000001111011 !
b001111011 "
b01111011 %
b01111011 '
b11 +
b11 -
b11 /
#124000000
b00000000001111100 !
b001111100 "
b01111100 %
b01111100 '
b00 +
b00 -
b00 /
b11 3
b11 5
b11 7
#125000000
b00000000001111101 !
b001111101 "
b01111101 %
b01111101 '
b01 +
b01 -
b01 /
#126000000
b00000000001111110 !
b001111110 "
b01111110 %
b01111110 '
b10 +
b10 -
b10 /
#127000000
b00000000001111111 !
b001111111 "
b01111111 %
b01111111 '
b11 +
b11 -
b11 /
#128000000
b00000000010000000 !
b010000000 "
b10000000 %
b10000000 '
b00 +
b00 -
b00 /
b00 3
b00 5
b00 7
b00 ;
b00 =
b00 ?
b10 C
b10 E
b10 G
#129000000
b00000000010000001 !
b010000001 "
b10000001 %
b10000001 '
b01 +
b01 -
b01 /
#130000000
b00000000010000010 !
b010000010 "
b10000010 %
b10000010 '
b10 +
b10 -
b10 /
#131000000
b00000000010000011 !
b010000011 "
b10000011 %
b10000011 '
b11 +
b11 -
b11 /
#132000000
b00000000010000100 !
b010000100 "
b10000100 %
b10000100 '
b00 +
b00 -
b00 /
b01 3
b01 5
b01 7
#133000000
b00000000010000101 !
b010000101 "
b10000101 %
b10000101 '
b01 +
b01 -
b01 /
#134000000
b00000000010000110 !
b010000110 "
b10000110 %
b10000110 '
b10 +
b10 -
b10 /
#135000000
b00000000010000111 !
b010000111 "
b10000111 %
b10000111 '
b11 +
b11 -
b11 /
#136000000
b00000000010001000 !
b010001000 "
b10001000 %
b10001000 '
b00 +
b00 -
b00 /
b10 3
b10 5
b10 7
#137000000
b00000000010001001 !
b010001001 "
b10001001 %
b10001001 '
b01 +
b01 -
b01 /
#138000000
b00000000010001010 !
b010001010 "
b10001010 %
b10001010 '
b10 +
b10 -
b10 /
#139000000
b00000000010001011 !
b010001011 "
b10001011 %
b10001011 '
b11 +
b11 -
b11 /
#140000000
b00000000010001100 !
b010001100 "
b10001100 %
b10001100 '
b00 +
b00 -
b00 /
b11 3
b11 5
b11 7
#141000000
b00000000010001101 !
b010001101 "
b10001101 %
b10001101 '
b01 +
b01 -
b01 /
#142000000
b00000000010001110 !
b010001110 "
b10001110 %
b10001110 '
b10 +
b10 -
b10 /
#143000000
b00000000010001111 !
b010001111 "
b10001111 %
b10001111 '
b11 +
b11 -
b11 /
#144000000
b00000000010010000 !
b010010000 "
b10010000 %
b10010000 '
b00 +
b00 -
b00 /
b00 3
b00 5
b00 7
b01 ;
b01 =
b01 ?
#145000000
b00000000010010001 !
b010010001 "
b10010001 %
b10010001 '
b01 +
b01 -
b01 /
#146000000
b00000000010010010 !
b010010010 "
b10010010 %
b10010010 '
b10 +
b10 -
b10 /
#147000000
b00000000010010011 !
b010010011 "
b10010011 %
b10010011 '
b11 +
b11 -
b11 /
#148000000
b00000000010010100 !
b010010100 "
b10010100 %
b10010100 '
b00 +
b00 -
b00 /
b01 3
b01 5
b01 7
#149000000
b00000000010010101 !
b010010101 "
b10010101 %
b10010101 '
b01 +
b01 -
b01 /
#150000000
b00000000010010110 !
b010010110 "
b10010110 %
b10010110 '
b10 +
b10 -
b10 /
#151000000
b00000000010010111 !
b010010111 "
b10010111 %
b10010111 '
b11 +
b11 -
b11 /
#152000000
b00000000010011000 !
b010011000 "
b10011000 %
b10011000 '
b00 +
b00 -
b00 /
b10 3
b10 5
b10 7
#153000000
b00000000010011001 !
b010011001 "
b10011001 %
b10011001 '
b01 +
b01 -
b01 /
#154000000
b00000000010011010 !
b010011010 "
b10011010 %
b10011010 '
b10 +
b10 -
b10 /
#155000000
b00000000010011011 !
b010011011 "
b10011011 %
b10011011 '
b11 +
b11 -
b11 /
#156000000
b00000000010011100 !
b010011100 "
b10011100 %
b10011100 '
b00 +
b00 -
b00 /
b11 3
b11 5
b11 7
#157000000
b00000000010011101 !
b010011101 "
b10011101 %
b10011101 '
b01 +
b01 -
b01 /
#158000000
b00000000010011110 !
b010011110 "
b10011110 %
b10011110 '
b10 +
b10 -
b10 /
#159000000
b00000000010011111 !
b010011111 "
b10011111 %
b10011111 '
b11 +
b11 -
b11 /
#160000000
b00000000010100000 !
b010100000 "
b10100000 %
b10100000 '
b00 +
b00 -
b00 /
b00 3
b00 5
b00 7
b10 ;
b10 =
b10 ?
#161000000
b00000000010100001 !
b010100001 "
b10100001 %
b10100001 '
b01 +
b01 -
b01 /
#162000000
b00000000010100010 !
b010100010 "
b10100010 %
b10100010 '
b10 +
b10 -
b10 /
#163000000
b00000000010100011 !
b010100011 "
b10100011 %
b10100011 '
b11 +
b11 -
b11 /
#164000000
b00000000010100100 !
b010100100 "
b10100100 %
b10100100 '
b00 +
b00 -
b00 /
b01 3
b01 5
b01 7
#165000000
b00000000010100101 !
b010100101 "
b10100101 %
b10100101 '
b01 +
b01 -
b01 /
#166000000
b00000000010100110 !
b010100110 "
b10100110 %
b10100110 '
b10 +
b10 -
b10 /
#167000000
b00000000010100111 !
b010100111 "
b10100111 %
b10100111 '
b11 +
b11 -
b11 /
#168000000
b00000000010101000 !
b010101000 "
b10101000 %
b10101000 '
b00 +
b00 -
b00 /
b10 3
b10 5
b10 7
#169000000
b00000000010101001 !
b010101001 "
b10101001 %
b10101001 '
b01 +
b01 -
b01 /
#170000000
b00000000010101010 !
b010101010 "
b10101010 %
b10101010 '
b10 +
b10 -
b10 /
#171000000
b00000000010101011 !
b010101011 "
b10101011 %
b10101011 '
b11 +
b11 -
b11 /
#172000000
b00000000010101100 !
b010101100 "
b10101100 %
b10101100 '
b00 +
b00 -
b00 /
b11 3
b11 5
b11 7
#173000000
b00000000010101101 !
b010101101 "
b10101101 %
b10101101 '
b01 +
b01 -
b01 /
#174000000
b00000000010101110 !
b010101110 "
b10101110 %
b10101110 '
b10 +
b10 -
b10 /
#175000000
b00000000010101111 !
b010101111 "
b10101111 %
b10101111 '
b11 +
b11 -
b11 /
#176000000
b00000000010110000 !
b010110000 "
b10110000 %
b10110000 '
b00 +
b00 -
b00 /
b00 3
b00 5
b00 7
b11 ;
b11 =
b11 ?
#177000000
b00000000010110001 !
b010110001 "
b10110001 %
b10110001 '
b01 +
b01 -
b01 /
#178000000
b00000000010110010 !
b010110010 "
b10110010 %
b10110010 '
b10 +
b10 -
b10 /
#179000000
b00000000010110011 !
b010110011 "
b10110011 %
b10110011 '
b11 +
b11 -
b11 /
#180000000
b00000000010110100 !
b010110100 "
b10110100 %
b10110100 '
b00 +
b00 -
b00 /
b01 3
b01 5
b01 7
#181000000
b00000000010110101 !
b010110101 "
b10110101 %
b10110101 '
b01 +
b01 -
b01 /
#182000000
b00000000010110110 !
b010110110 "
b10110110 %
b10110110 '
b10 +
b10 -
b10 /
#183000000
b00000000010110111 !
b010110111 "
b10110111 %
b10110111 '
b11 +
b11 -
b11 /
#184000000
b00000000010111000 !
b010111000 "
b10111000 %
b10111000 '
b00 +
b00 -
b00 /
b10 3
b10 5
b10 7
#185000000
b00000000010111001 !
b010111001 "
b10111001 %
b10111001 '
b01 +
b01 -
b01 /
#186000000
b00000000010111010 !
b010111010 "
b10111010 %
b10111010 '
b10 +
b10 -
b10 /
#187000000
b00000000010111011 !
b010111011 "
b10111011 %
b10111011 '
b11 +
b11 -
b11 /
#188000000
b00000000010111100 !
b010111100 "
b10111100 %
b10111100 '
b00 +
b00 -
b00 /
b11 3
b11 5
b11 7
#189000000
b00000000010111101 !
b010111101 "
b10111101 %
b10111101 '
b01 +
b01 -
b01 /
#190000000
b00000000010111110 !
b010111110 "
b10111110 %
b10111110 '
b10 +
b10 -
b10 /
#191000000
b00000000010111111 !
b010111111 "
b10111111 %
b10111111 '
b11 +
b11 -
b11 /
#192000000
b00000000011000000 !
b011000000 "
b11000000 %
b11000000 '
b00 +
b00 -
b00 /
b00 3
b00 5
b00 7
b00 ;
b00 =
b00 ?
b11 C
b11 E
b11 G
#193000000
b00000000011000001 !
b011000001 "
b11000001 %
b11000001 '
b01 +
b01 -
b01 /
#194000000
b00000000011000010 !
b011000010 "
b11000010 %
b11000010 '
b10 +
b10 -
b10 /
#195000000
b00000000011000011 !
b011000011 "
b11000011 %
b11000011 '
b11 +
b11 -
b11 /
#196000000
b00000000011000100 !
b011000100 "
b11000100 %
b11000100 '
b00 +
b00 -
b00 /
b01 3
b01 5
b01 7
#197000000
b00000000011000101 !
b011000101 "
b11000101 %
b11000101 '
b01 +
b01 -
b01 /
#198000000
b00000000011000110 !
b011000110 "
b11000110 %
b11000110 '
b10 +
b10 -
b10 /
#199000000
b00000000011000111 !
b011000111 "
b11000111 %
b11000111 '
b11 +
b11 -
b11 /
#200000000
b00000000011001000 !
b011001000 "
b11001000 %
b11001000 '
b00 +
b00 -
b00 /
b10 3
b10 5
b10 7
#201000000
b00000000011001001 !
b011001001 "
b11001001 %
b11001001 '
b01 +
b01 -
b01 /
#202000000
b00000000011001010 !
b011001010 "
b11001010 %
b11001010 '
b10 +
b10 -
b10 /
#203000000
b00000000011001011 !
b011001011 "
b11001011 %
b11001011 '
b11 +
b11 -
b11 /
#204000000
b00000000011001100 !
b011001100 "
b11001100 %
b11001100 '
b00 +
b00 -
b00 /
b11 3
b11 5
b11 7
#205000000
b00000000011001101 !
b011001101 "
b11001101 %
b11001101 '
b01 +
b01 -
b01 /
#206000000
b00000000011001110 !
b011001110 "
b11001110 %
b11001110 '
b10 +
b10 -
b10 /
#207000000
b00000000011001111 !
b011001111 "
b11001111 %
b11001111 '
b11 +
b11 -
b11 /
#208000000
b00000000011010000 !
b011010000 "
b11010000 %
b11010000 '
b00 +
b00 -
b00 /
b00 3
b00 5
b00 7
b01 ;
b01 =
b01 ?
#209000000
b00000000011010001 !
b011010001 "
b11010001 %
b11010001 '
b01 +
b01 -
b01 /
#210000000
b00000000011010010 !
b011010010 "
b11010010 %
b11010010 '
b10 +
b10 -
b10 /
#211000000
b00000000011010011 !
b011010011 "
b11010011 %
b11010011 '
b11 +
b11 -
b11 /
#212000000
b00000000011010100 !
b011010100 "
b11010100 %
b11010100 '
b00 +
b00 -
b00 /
b01 3
b01 5
b01 7
#213000000
b00000000011010101 !
b011010101 "
b11010101 %
b11010101 '
b01 +
b01 -
b01 /
#214000000
b00000000011010110 !
b011010110 "
b11010110 %
b11010110 '
b10 +
b10 -
b10 /
#215000000
b00000000011010111 !
b011010111 "
b11010111 %
b11010111 '
b11 +
b11 -
b11 /
#216000000
b00000000011011000 !
b011011000 "
b11011000 %
b11011000 '
b00 +
b00 -
b00 /
b10 3
b10 5
b10 7
#217000000
b00000000011011001 !
b011011001 "
b11011001 %
b11011001 '
b01 +
b01 -
b01 /
#218000000
b00000000011011010 !
b011011010 "
b11011010 %
b11011010 '
b10 +
b10 -
b10 /
#219000000
b00000000011011011 !
b011011011 "
b11011011 %
b11011011 '
b11 +
b11 -
b11 /
#220000000
b00000000011011100 !
b011011100 "
b11011100 %
b11011100 '
b00 +
b00 -
b00 /
b11 3
b11 5
b11 7
#221000000
b00000000011011101 !
b011011101 "
b11011101 %
b11011101 '
b01 +
b01 -
b01 /
#222000000
b00000000011011110 !
b011011110 "
b11011110 %
b11011110 '
b10 +
b10 -
b10 /
#223000000
b00000000011011111 !
b011011111 "
b11011111 %
b11011111 '
b11 +
b11 -
b11 /
#224000000
b00000000011100000 !
b011100000 "
b11100000 %
b11100000 '
b00 +
b00 -
b00 /
b00 3
b00 5
b00 7
b10 ;
b10 =
b10 ?
#225000000
b00000000011100001 !
b011100001 "
b11100001 %
b11100001 '
b01 +
b01 -
b01 /
#226000000
b00000000011100010 !
b011100010 "
b11100010 %
b11100010 '
b10 +
b10 -
b10 /
#227000000
b00000000011100011 !
b011100011 "
b11100011 %
b11100011 '
b11 +
b11 -
b11 /
#228000000
b00000000011100100 !
b011100100 "
b11100100 %
b11100100 '
b00 +
b00 -
b00 /
b01 3
b01 5
b01 7
#229000000
b00000000011100101 !
b011100101 "
b11100101 %
b11100101 '
b01 +
b01 -
b01 /
#230000000
b00000000011100110 !
b011100110 "
b11100110 %
b11100110 '
b10 +
b10 -
b10 /
#231000000
b00000000011100111 !
b011100111 "
b11100111 %
b11100111 '
b11 +
b11 -
b11 /
#232000000
b00000000011101000 !
b011101000 "
b11101000 %
b11101000 '
b00 +
b00 -
b00 /
b10 3
b10 5
b10 7
#233000000
b00000000011101001 !
b011101001 "
b11101001 %
b11101001 '
b01 +
b01 -
b01 /
#234000000
b00000000011101010 !
b011101010 "
b11101010 %
b11101010 '
b10 +
b10 -
b10 /
#235000000
b00000000011101011 !
b011101011 "
b11101011 %
b11101011 '
b11 +
b11 -
b11 /
#236000000
b00000000011101100 !
b011101100 "
b11101100 %
b11101100 '
b00 +
b00 -
b00 /
b11 3
b11 5
b11 7
#237000000
b00000000011101101 !
b011101101 "
b11101101 %
b11101101 '
b01 +
b01 -
b01 /
#238000000
b00000000011101110 !
b011101110 "
b11101110 %
b11101110 '
b10 +
b10 -
b10 /
#239000000
b00000000011101111 !
b011101111 "
b11101111 %
b11101111 '
b11 +
b11 -
b11 /
#240000000
b00000000011110000 !
b011110000 "
b11110000 %
b11110000 '
b00 +
b00 -
b00 /
b00 3
b00 5
b00 7
b11 ;
b11 =
b11 ?
#241000000
b00000000011110001 !
b011110001 "
b11110001 %
b11110001 '
b01 +
b01 -
b01 /
#242000000
b00000000011110010 !
b011110010 "
b11110010 %
b11110010 '
b10 +
b10 -
b10 /
#243000000
b00000000011110011 !
b011110011 "
b11110011 %
b11110011 '
b11 +
b11 -
b11 /
#244000000
b00000000011110100 !
b011110100 "
b11110100 %
b11110100 '
b00 +
b00 -
b00 /
b01 3
b01 5
b01 7
#245000000
b00000000011110101 !
b011110101 "
b11110101 %
b11110101 '
b01 +
b01 -
b01 /
#246000000
b00000000011110110 !
b011110110 "
b11110110 %
b11110110 '
b10 +
b10 -
b10 /
#247000000
b00000000011110111 !
b011110111 "
b11110111 %
b11110111 '
b11 +
b11 -
b11 /
#248000000
b00000000011111000 !
b011111000 "
b11111000 %
b11111000 '
b00 +
b00 -
b00 /
b10 3
b10 5
b10 7
