VHDL Files/src/8 Bit Adder/8 Bit Adder/eight_bit_adder_simulation.vcd
$date
  Sat Sep 23 19:06:34 2023
$end
$version
  GHDL v0
$end
$timescale
  1 fs
$end
$var reg 17 ! test_bits_in[16:0] $end
$var reg 9 " test_bits_out[8:0] $end
$scope module dut $end
$var reg 1 # carry_in $end
$var reg 8 $ a[7:0] $end
$var reg 8 % b[7:0] $end
$var reg 1 & carry_out $end
$var reg 8 ' sum[7:0] $end
$var reg 1 ( carry_through $end
$scope module first_four_bits $end
$var reg 1 ) carry_in $end
$var reg 4 * a[3:0] $end
$var reg 4 + b[3:0] $end
$var reg 1 , carry_out $end
$var reg 4 - sum[3:0] $end
$var reg 1 . carry_through $end
$scope module first_two_bits $end
$var reg 1 / carry_in $end
$var reg 2 0 a[1:0] $end
$var reg 2 1 b[1:0] $end
$var reg 1 2 carry_out $end
$var reg 2 3 sum[1:0] $end
$var reg 1 4 carry_through $end
$scope module lsb $end
$var reg 1 5 carry_in $end
$var reg 1 6 i1 $end
$var reg 1 7 i0 $end
$var reg 1 8 carry_out $end
$var reg 1 9 sum $end
$var reg 1 : p0 $end
$var reg 1 ; p1 $end
$var reg 1 < p2 $end
$scope module half_adder_xin_yin $end
$var reg 1 = i1 $end
$var reg 1 > i0 $end
$var reg 1 ? sum $end
$var reg 1 @ carry $end
$upscope $end
$scope module half_adder_cin_sout $end
$var reg 1 A i1 $end
$var reg 1 B i0 $end
$var reg 1 C sum $end
$var reg 1 D carry $end
$upscope $end
$upscope $end
$scope module msb $end
$var reg 1 E carry_in $end
$var reg 1 F i1 $end
$var reg 1 G i0 $end
$var reg 1 H carry_out $end
$var reg 1 I sum $end
$var reg 1 J p0 $end
$var reg 1 K p1 $end
$var reg 1 L p2 $end
$scope module half_adder_xin_yin $end
$var reg 1 M i1 $end
$var reg 1 N i0 $end
$var reg 1 O sum $end
$var reg 1 P carry $end
$upscope $end
$scope module half_adder_cin_sout $end
$var reg 1 Q i1 $end
$var reg 1 R i0 $end
$var reg 1 S sum $end
$var reg 1 T carry $end
$upscope $end
$upscope $end
$upscope $end
$scope module last_two_bits $end
$var reg 1 U carry_in $end
$var reg 2 V a[1:0] $end
$var reg 2 W b[1:0] $end
$var reg 1 X carry_out $end
$var reg 2 Y sum[1:0] $end
$var reg 1 Z carry_through $end
$scope module lsb $end
$var reg 1 [ carry_in $end
$var reg 1 \ i1 $end
$var reg 1 ] i0 $end
$var reg 1 ^ carry_out $end
$var reg 1 _ sum $end
$var reg 1 ` p0 $end
$var reg 1 a p1 $end
$var reg 1 b p2 $end
$scope module half_adder_xin_yin $end
$var reg 1 c i1 $end
$var reg 1 d i0 $end
$var reg 1 e sum $end
$var reg 1 f carry $end
$upscope $end
$scope module half_adder_cin_sout $end
$var reg 1 g i1 $end
$var reg 1 h i0 $end
$var reg 1 i sum $end
$var reg 1 j carry $end
$upscope $end
$upscope $end
$scope module msb $end
$var reg 1 k carry_in $end
$var reg 1 l i1 $end
$var reg 1 m i0 $end
$var reg 1 n carry_out $end
$var reg 1 o sum $end
$var reg 1 p p0 $end
$var reg 1 q p1 $end
$var reg 1 r p2 $end
$scope module half_adder_xin_yin $end
$var reg 1 s i1 $end
$var reg 1 t i0 $end
$var reg 1 u sum $end
$var reg 1 v carry $end
$upscope $end
$scope module half_adder_cin_sout $end
$var reg 1 w i1 $end
$var reg 1 x i0 $end
$var reg 1 y sum $end
$var reg 1 z carry $end
$upscope $end
$upscope $end
$upscope $end
$upscope $end
$scope module last_four_bits $end
$var reg 1 { carry_in $end
$var reg 4 | a[3:0] $end
$var reg 4 } b[3:0] $end
$var reg 1 !" carry_out $end
$var reg 4 "" sum[3:0] $end
$var reg 1 #" carry_through $end
$scope module first_two_bits $end
$var reg 1 $" carry_in $end
$var reg 2 %" a[1:0] $end
$var reg 2 &" b[1:0] $end
$var reg 1 '" carry_out $end
$var reg 2 (" sum[1:0] $end
$var reg 1 )" carry_through $end
$scope module lsb $end
$var reg 1 *" carry_in $end
$var reg 1 +" i1 $end
$var reg 1 ," i0 $end
$var reg 1 -" carry_out $end
$var reg 1 ." sum $end
$var reg 1 /" p0 $end
$var reg 1 0" p1 $end
$var reg 1 1" p2 $end
$scope module half_adder_xin_yin $end
$var reg 1 2" i1 $end
$var reg 1 3" i0 $end
$var reg 1 4" sum $end
$var reg 1 5" carry $end
$upscope $end
$scope module half_adder_cin_sout $end
$var reg 1 6" i1 $end
$var reg 1 7" i0 $end
$var reg 1 8" sum $end
$var reg 1 9" carry $end
$upscope $end
$upscope $end
$scope module msb $end
$var reg 1 :" carry_in $end
$var reg 1 ;" i1 $end
$var reg 1 <" i0 $end
$var reg 1 =" carry_out $end
$var reg 1 >" sum $end
$var reg 1 ?" p0 $end
$var reg 1 @" p1 $end
$var reg 1 A" p2 $end
$scope module half_adder_xin_yin $end
$var reg 1 B" i1 $end
$var reg 1 C" i0 $end
$var reg 1 D" sum $end
$var reg 1 E" carry $end
$upscope $end
$scope module half_adder_cin_sout $end
$var reg 1 F" i1 $end
$var reg 1 G" i0 $end
$var reg 1 H" sum $end
$var reg 1 I" carry $end
$upscope $end
$upscope $end
$upscope $end
$scope module last_two_bits $end
$var reg 1 J" carry_in $end
$var reg 2 K" a[1:0] $end
$var reg 2 L" b[1:0] $end
$var reg 1 M" carry_out $end
$var reg 2 N" sum[1:0] $end
$var reg 1 O" carry_through $end
$scope module lsb $end
$var reg 1 P" carry_in $end
$var reg 1 Q" i1 $end
$var reg 1 R" i0 $end
$var reg 1 S" carry_out $end
$var reg 1 T" sum $end
$var reg 1 U" p0 $end
$var reg 1 V" p1 $end
$var reg 1 W" p2 $end
$scope module half_adder_xin_yin $end
$var reg 1 X" i1 $end
$var reg 1 Y" i0 $end
$var reg 1 Z" sum $end
$var reg 1 [" carry $end
$upscope $end
$scope module half_adder_cin_sout $end
$var reg 1 \" i1 $end
$var reg 1 ]" i0 $end
$var reg 1 ^" sum $end
$var reg 1 _" carry $end
$upscope $end
$upscope $end
$scope module msb $end
$var reg 1 `" carry_in $end
$var reg 1 a" i1 $end
$var reg 1 b" i0 $end
$var reg 1 c" carry_out $end
$var reg 1 d" sum $end
$var reg 1 e" p0 $end
$var reg 1 f" p1 $end
$var reg 1 g" p2 $end
$scope module half_adder_xin_yin $end
$var reg 1 h" i1 $end
$var reg 1 i" i0 $end
$var reg 1 j" sum $end
$var reg 1 k" carry $end
$upscope $end
$scope module half_adder_cin_sout $end
$var reg 1 l" i1 $end
$var reg 1 m" i0 $end
$var reg 1 n" sum $end
$var reg 1 o" carry $end
$upscope $end
$upscope $end
$upscope $end
$upscope $end
$upscope $end
$enddefinitions $end
#0
b00000000000000000 !
b000000000 "
0#
b00000000 $
b00000000 %
0&
b00000000 '
0(
0)
b0000 *
b0000 +
0,
b0000 -
0.
0/
b00 0
b00 1
02
b00 3
04
05
06
07
08
09
0:
0;
0<
0=
0>
0?
0@
0A
0B
0C
0D
0E
0F
0G
0H
0I
0J
0K
0L
0M
0N
0O
0P
0Q
0R
0S
0T
0U
b00 V
b00 W
0X
b00 Y
0Z
0[
0\
0]
0^
0_
0`
0a
0b
0c
0d
0e
0f
0g
0h
0i
0j
0k
0l
0m
0n
0o
0p
0q
0r
0s
0t
0u
0v
0w
0x
0y
0z
0{
b0000 |
b0000 }
0!"
b0000 ""
0#"
0$"
b00 %"
b00 &"
0'"
b00 ("
0)"
0*"
0+"
0,"
0-"
0."
0/"
00"
01"
02"
03"
04"
05"
06"
07"
08"
09"
0:"
0;"
0<"
0="
0>"
0?"
0@"
0A"
0B"
0C"
0D"
0E"
0F"
0G"
0H"
0I"
0J"
b00 K"
b00 L"
0M"
b00 N"
0O"
0P"
0Q"
0R"
0S"
0T"
0U"
0V"
0W"
0X"
0Y"
0Z"
0["
0\"
0]"
0^"
0_"
0`"
0a"
0b"
0c"
0d"
0e"
0f"
0g"
0h"
0i"
0j"
0k"
0l"
0m"
0n"
0o"
#1000000
b00000000000000001 !
b000000001 "
b00000001 %
b00000001 '
b0001 +
b0001 -
b01 1
b01 3
17
19
1:
1>
1?
1B
1C
#2000000
b00000000000000010 !
b000000010 "
b00000010 %
b00000010 '
b0010 +
b0010 -
b10 1
b10 3
07
09
0:
0>
0?
0B
0C
1G
1I
1J
1N
1O
1R
1S
#3000000
b00000000000000011 !
b000000011 "
b00000011 %
b00000011 '
b0011 +
b0011 -
b11 1
b11 3
17
19
1:
1>
1?
1B
1C
#4000000
b00000000000000100 !
b000000100 "
b00000100 %
b00000100 '
b0100 +
b0100 -
b00 1
b00 3
07
09
0:
0>
0?
0B
0C
0G
0I
0J
0N
0O
0R
0S
b01 W
b01 Y
1]
1_
1`
1d
1e
1h
1i
#5000000
b00000000000000101 !
b000000101 "
b00000101 %
b00000101 '
b0101 +
b0101 -
b01 1
b01 3
17
19
1:
1>
1?
1B
1C
#6000000
b00000000000000110 !
b000000110 "
b00000110 %
b00000110 '
b0110 +
b0110 -
b10 1
b10 3
07
09
0:
0>
0?
0B
0C
1G
1I
1J
1N
1O
1R
1S
#7000000
b00000000000000111 !
b000000111 "
b00000111 %
b00000111 '
b0111 +
b0111 -
b11 1
b11 3
17
19
1:
1>
1?
1B
1C
#8000000
b00000000000001000 !
b000001000 "
b00001000 %
b00001000 '
b1000 +
b1000 -
b00 1
b00 3
07
09
0:
0>
0?
0B
0C
0G
0I
0J
0N
0O
0R
0S
b10 W
b10 Y
0]
0_
0`
0d
0e
0h
0i
1m
1o
1p
1t
1u
1x
1y
#9000000
b00000000000001001 !
b000001001 "
b00001001 %
b00001001 '
b1001 +
b1001 -
b01 1
b01 3
17
19
1:
1>
1?
1B
1C
#10000000
b00000000000001010 !
b000001010 "
b00001010 %
b00001010 '
b1010 +
b1010 -
b10 1
b10 3
07
09
0:
0>
0?
0B
0C
1G
1I
1J
1N
1O
1R
1S
#11000000
b00000000000001011 !
b000001011 "
b00001011 %
b00001011 '
b1011 +
b1011 -
b11 1
b11 3
17
19
1:
1>
1?
1B
1C
#12000000
b00000000000001100 !
b000001100 "
b00001100 %
b00001100 '
b1100 +
b1100 -
b00 1
b00 3
07
09
0:
0>
0?
0B
0C
0G
0I
0J
0N
0O
0R
0S
b11 W
b11 Y
1]
1_
1`
1d
1e
1h
1i
#13000000
b00000000000001101 !
b000001101 "
b00001101 %
b00001101 '
b1101 +
b1101 -
b01 1
b01 3
17
19
1:
1>
1?
1B
1C
#14000000
b00000000000001110 !
b000001110 "
b00001110 %
b00001110 '
b1110 +
b1110 -
b10 1
b10 3
07
09
0:
0>
0?
0B
0C
1G
1I
1J
1N
1O
1R
1S
#15000000
b00000000000001111 !
b000001111 "
b00001111 %
b00001111 '
b1111 +
b1111 -
b11 1
b11 3
17
19
1:
1>
1?
1B
1C
#16000000
b00000000000010000 !
b000010000 "
b00010000 %
b00010000 '
b0000 +
b0000 -
b00 1
b00 3
07
09
0:
0>
0?
0B
0C
0G
0I
0J
0N
0O
0R
0S
b00 W
b00 Y
0]
0_
0`
0d
0e
0h
0i
0m
0o
0p
0t
0u
0x
0y
b0001 }
b0001 ""
b01 &"
b01 ("
1,"
1."
1/"
13"
14"
17"
18"
#17000000
b00000000000010001 !
b000010001 "
b00010001 %
b00010001 '
b0001 +
b0001 -
b01 1
b01 3
17
19
1:
1>
1?
1B
1C
#18000000
b00000000000010010 !
b000010010 "
b00010010 %
b00010010 '
b0010 +
b0010 -
b10 1
b10 3
07
09
0:
0>
0?
0B
0C
1G
1I
1J
1N
1O
1R
1S
#19000000
b00000000000010011 !
b000010011 "
b00010011 %
b00010011 '
b0011 +
b0011 -
b11 1
b11 3
17
19
1:
1>
1?
1B
1C
#20000000
b00000000000010100 !
b000010100 "
b00010100 %
b00010100 '
b0100 +
b0100 -
b00 1
b00 3
07
09
0:
0>
0?
0B
0C
0G
0I
0J
0N
0O
0R
0S
b01 W
b01 Y
1]
1_
1`
1d
1e
1h
1i
#21000000
b00000000000010101 !
b000010101 "
b00010101 %
b00010101 '
b0101 +
b0101 -
b01 1
b01 3
17
19
1:
1>
1?
1B
1C
#22000000
b00000000000010110 !
b000010110 "
b00010110 %
b00010110 '
b0110 +
b0110 -
b10 1
b10 3
07
09
0:
0>
0?
0B
0C
1G
1I
1J
1N
1O
1R
1S
#23000000
b00000000000010111 !
b000010111 "
b00010111 %
b00010111 '
b0111 +
b0111 -
b11 1
b11 3
17
19
1:
1>
1?
1B
1C
#24000000
b00000000000011000 !
b000011000 "
b00011000 %
b00011000 '
b1000 +
b1000 -
b00 1
b00 3
07
09
0:
0>
0?
0B
0C
0G
0I
0J
0N
0O
0R
0S
b10 W
b10 Y
0]
0_
0`
0d
0e
0h
0i
1m
1o
1p
1t
1u
1x
1y
#25000000
b00000000000011001 !
b000011001 "
b00011001 %
b00011001 '
b1001 +
b1001 -
b01 1
b01 3
17
19
1:
1>
1?
1B
1C
#26000000
b00000000000011010 !
b000011010 "
b00011010 %
b00011010 '
b1010 +
b1010 -
b10 1
b10 3
07
09
0:
0>
0?
0B
0C
1G
1I
1J
1N
1O
1R
1S
#27000000
b00000000000011011 !
b000011011 "
b00011011 %
b00011011 '
b1011 +
b1011 -
b11 1
b11 3
17
19
1:
1>
1?
1B
1C
#28000000
b00000000000011100 !
b000011100 "
b00011100 %
b00011100 '
b1100 +
b1100 -
b00 1
b00 3
07
09
0:
0>
0?
0B
0C
0G
0I
0J
0N
0O
0R
0S
b11 W
b11 Y
1]
1_
1`
1d
1e
1h
1i
#29000000
b00000000000011101 !
b000011101 "
b00011101 %
b00011101 '
b1101 +
b1101 -
b01 1
b01 3
17
19
1:
1>
1?
1B
1C
#30000000
b00000000000011110 !
b000011110 "
b00011110 %
b00011110 '
b1110 +
b1110 -
b10 1
b10 3
07
09
0:
0>
0?
0B
0C
1G
1I
1J
1N
1O
1R
1S
#31000000
b00000000000011111 !
b000011111 "
b00011111 %
b00011111 '
b1111 +
b1111 -
b11 1
b11 3
17
19
1:
1>
1?
1B
1C
#32000000
b00000000000100000 !
b000100000 "
b00100000 %
b00100000 '
b0000 +
b0000 -
b00 1
b00 3
07
09
0:
0>
0?
0B
0C
0G
0I
0J
0N
0O
0R
0S
b00 W
b00 Y
0]
0_
0`
0d
0e
0h
0i
0m
0o
0p
0t
0u
0x
0y
b0010 }
b0010 ""
b10 &"
b10 ("
0,"
0."
0/"
03"
04"
07"
08"
1<"
1>"
1?"
1C"
1D"
1G"
1H"
#33000000
b00000000000100001 !
b000100001 "
b00100001 %
b00100001 '
b0001 +
b0001 -
b01 1
b01 3
17
19
1:
1>
1?
1B
1C
#34000000
b00000000000100010 !
b000100010 "
b00100010 %
b00100010 '
b0010 +
b0010 -
b10 1
b10 3
07
09
0:
0>
0?
0B
0C
1G
1I
1J
1N
1O
1R
1S
#35000000
b00000000000100011 !
b000100011 "
b00100011 %
b00100011 '
b0011 +
b0011 -
b11 1
b11 3
17
19
1:
1>
1?
1B
1C
#36000000
b00000000000100100 !
b000100100 "
b00100100 %
b00100100 '
b0100 +
b0100 -
b00 1
b00 3
07
09
0:
0>
0?
0B
0C
0G
0I
0J
0N
0O
0R
0S
b01 W
b01 Y
1]
1_
1`
1d
1e
1h
1i
#37000000
b00000000000100101 !
b000100101 "
b00100101 %
b00100101 '
b0101 +
b0101 -
b01 1
b01 3
17
19
1:
1>
1?
1B
1C
#38000000
b00000000000100110 !
b000100110 "
b00100110 %
b00100110 '
b0110 +
b0110 -
b10 1
b10 3
07
09
0:
0>
0?
0B
0C
1G
1I
1J
1N
1O
1R
1S
#39000000
b00000000000100111 !
b000100111 "
b00100111 %
b00100111 '
b0111 +
b0111 -
b11 1
b11 3
17
19
1:
1>
1?
1B
1C
#40000000
b00000000000101000 !
b000101000 "
b00101000 %
b00101000 '
b1000 +
b1000 -
b00 1
b00 3
07
09
0:
0>
0?
0B
0C
0G
0I
0J
0N
0O
0R
0S
b10 W
b10 Y
0]
0_
0`
0d
0e
0h
0i
1m
1o
1p
1t
1u
1x
1y
#41000000
b00000000000101001 !
b000101001 "
b00101001 %
b00101001 '
b1001 +
b1001 -
b01 1
b01 3
17
19
1:
1>
1?
1B
1C
#42000000
b00000000000101010 !
b000101010 "
b00101010 %
b00101010 '
b1010 +
b1010 -
b10 1
b10 3
07
09
0:
0>
0?
0B
0C
1G
1I
1J
1N
1O
1R
1S
#43000000
b00000000000101011 !
b000101011 "
b00101011 %
b00101011 '
b1011 +
b1011 -
b11 1
b11 3
17
19
1:
1>
1?
1B
1C
#44000000
b00000000000101100 !
b000101100 "
b00101100 %
b00101100 '
b1100 +
b1100 -
b00 1
b00 3
07
09
0:
0>
0?
0B
0C
0G
0I
0J
0N
0O
0R
0S
b11 W
b11 Y
1]
1_
1`
1d
1e
1h
1i
#45000000
b00000000000101101 !
b000101101 "
b00101101 %
b00101101 '
b1101 +
b1101 -
b01 1
b01 3
17
19
1:
1>
1?
1B
1C
#46000000
b00000000000101110 !
b000101110 "
b00101110 %
b00101110 '
b1110 +
b1110 -
b10 1
b10 3
07
09
0:
0>
0?
0B
0C
1G
1I
1J
1N
1O
1R
1S
#47000000
b00000000000101111 !
b000101111 "
b00101111 %
b00101111 '
b1111 +
b1111 -
b11 1
b11 3
17
19
1:
1>
1?
1B
1C
#48000000
b00000000000110000 !
b000110000 "
b00110000 %
b00110000 '
b0000 +
b0000 -
b00 1
b00 3
07
09
0:
0>
0?
0B
0C
0G
0I
0J
0N
0O
0R
0S
b00 W
b00 Y
0]
0_
0`
0d
0e
0h
0i
0m
0o
0p
0t
0u
0x
0y
b0011 }
b0011 ""
b11 &"
b11 ("
1,"
1."
1/"
13"
14"
17"
18"
#49000000
b00000000000110001 !
b000110001 "
b00110001 %
b00110001 '
b0001 +
b0001 -
b01 1
b01 3
17
19
1:
1>
1?
1B
1C
#50000000
b00000000000110010 !
b000110010 "
b00110010 %
b00110010 '
b0010 +
b0010 -
b10 1
b10 3
07
09
0:
0>
0?
0B
0C
1G
1I
1J
1N
1O
1R
1S
#51000000
b00000000000110011 !
b000110011 "
b00110011 %
b00110011 '
b0011 +
b0011 -
b11 1
b11 3
17
19
1:
1>
1?
1B
1C
#52000000
b00000000000110100 !
b000110100 "
b00110100 %
b00110100 '
b0100 +
b0100 -
b00 1
b00 3
07
09
0:
0>
0?
0B
0C
0G
0I
0J
0N
0O
0R
0S
b01 W
b01 Y
1]
1_
1`
1d
1e
1h
1i
#53000000
b00000000000110101 !
b000110101 "
b00110101 %
b00110101 '
b0101 +
b0101 -
b01 1
b01 3
17
19
1:
1>
1?
1B
1C
#54000000
b00000000000110110 !
b000110110 "
b00110110 %
b00110110 '
b0110 +
b0110 -
b10 1
b10 3
07
09
0:
0>
0?
0B
0C
1G
1I
1J
1N
1O
1R
1S
#55000000
b00000000000110111 !
b000110111 "
b00110111 %
b00110111 '
b0111 +
b0111 -
b11 1
b11 3
17
19
1:
1>
1?
1B
1C
#56000000
b00000000000111000 !
b000111000 "
b00111000 %
b00111000 '
b1000 +
b1000 -
b00 1
b00 3
07
09
0:
0>
0?
0B
0C
0G
0I
0J
0N
0O
0R
0S
b10 W
b10 Y
0]
0_
0`
0d
0e
0h
0i
1m
1o
1p
1t
1u
1x
1y
#57000000
b00000000000111001 !
b000111001 "
b00111001 %
b00111001 '
b1001 +
b1001 -
b01 1
b01 3
17
19
1:
1>
1?
1B
1C
#58000000
b00000000000111010 !
b000111010 "
b00111010 %
b00111010 '
b1010 +
b1010 -
b10 1
b10 3
07
09
0:
0>
0?
0B
0C
1G
1I
1J
1N
1O
1R
1S
#59000000
b00000000000111011 !
b000111011 "
b00111011 %
b00111011 '
b1011 +
b1011 -
b11 1
b11 3
17
19
1:
1>
1?
1B
1C
#60000000
b00000000000111100 !
b000111100 "
b00111100 %
b00111100 '
b1100 +
b1100 -
b00 1
b00 3
07
09
0:
0>
0?
0B
0C
0G
0I
0J
0N
0O
0R
0S
b11 W
b11 Y
1]
1_
1`
1d
1e
1h
1i
#61000000
b00000000000111101 !
b000111101 "
b00111101 %
b00111101 '
b1101 +
b1101 -
b01 1
b01 3
17
19
1:
1>
1?
1B
1C
#62000000
b00000000000111110 !
b000111110 "
b00111110 %
b00111110 '
b1110 +
b1110 -
b10 1
b10 3
07
09
0:
0>
0?
0B
0C
1G
1I
1J
1N
1O
1R
1S
#63000000
b00000000000111111 !
b000111111 "
b00111111 %
b00111111 '
b1111 +
b1111 -
b11 1
b11 3
17
19
1:
1>
1?
1B
1C
#64000000
b00000000001000000 !
b001000000 "
b01000000 %
b01000000 '
b0000 +
b0000 -
b00 1
b00 3
07
09
0:
0>
0?
0B
0C
0G
0I
0J
0N
0O
0R
0S
b00 W
b00 Y
0]
0_
0`
0d
0e
0h
0i
0m
0o
0p
0t
0u
0x
0y
b0100 }
b0100 ""
b00 &"
b00 ("
0,"
0."
0/"
03"
04"
07"
08"
0<"
0>"
0?"
0C"
0D"
0G"
0H"
b01 L"
b01 N"
1R"
1T"
1U"
1Y"
1Z"
1]"
1^"
#65000000
b00000000001000001 !
b001000001 "
b01000001 %
b01000001 '
b0001 +
b0001 -
b01 1
b01 3
17
19
1:
1>
1?
1B
1C
#66000000
b00000000001000010 !
b001000010 "
b01000010 %
b01000010 '
b0010 +
b0010 -
b10 1
b10 3
07
09
0:
0>
0?
0B
0C
1G
1I
1J
1N
1O
1R
1S
#67000000
b00000000001000011 !
b001000011 "
b01000011 %
b01000011 '
b0011 +
b0011 -
b11 1
b11 3
17
19
1:
1>
1?
1B
1C
#68000000
b00000000001000100 !
b001000100 "
b01000100 %
b01000100 '
b0100 +
b0100 -
b00 1
b00 3
07
09
0:
0>
0?
0B
0C
0G
0I
0J
0N
0O
0R
0S
b01 W
b01 Y
1]
1_
1`
1d
1e
1h
1i
#69000000
b00000000001000101 !
b001000101 "
b01000101 %
b01000101 '
b0101 +
b0101 -
b01 1
b01 3
17
19
1:
1>
1?
1B
1C
#70000000
b00000000001000110 !
b001000110 "
b01000110 %
b01000110 '
b0110 +
b0110 -
b10 1
b10 3
07
09
0:
0>
0?
0B
0C
1G
1I
1J
1N
1O
1R
1S
#71000000
b00000000001000111 !
b001000111 "
b01000111 %
b01000111 '
b0111 +
b0111 -
b11 1
b11 3
17
19
1:
1>
1?
1B
1C
#72000000
b00000000001001000 !
b001001000 "
b01001000 %
b01001000 '
b1000 +
b1000 -
b00 1
b00 3
07
09
0:
0>
0?
0B
0C
0G
0I
0J
0N
0O
0R
0S
b10 W
b10 Y
0]
0_
0`
0d
0e
0h
0i
1m
1o
1p
1t
1u
1x
1y
#73000000
b00000000001001001 !
b001001001 "
b01001001 %
b01001001 '
b1001 +
b1001 -
b01 1
b01 3
17
19
1:
1>
1?
1B
1C
#74000000
b00000000001001010 !
b001001010 "
b01001010 %
b01001010 '
b1010 +
b1010 -
b10 1
b10 3
07
09
0:
0>
0?
0B
0C
1G
1I
1J
1N
1O
1R
1S
#75000000
b00000000001001011 !
b001001011 "
b01001011 %
b01001011 '
b1011 +
b1011 -
b11 1
b11 3
17
19
1:
1>
1?
1B
1C
#76000000
b00000000001001100 !
b001001100 "
b01001100 %
b01001100 '
b1100 +
b1100 -
b00 1
b00 3
07
09
0:
0>
0?
0B
0C
0G
0I
0J
0N
0O
0R
0S
b11 W
b11 Y
1]
1_
1`
1d
1e
1h
1i
#77000000
b00000000001001101 !
b001001101 "
b01001101 %
b01001101 '
b1101 +
b1101 -
b01 1
b01 3
17
19
1:
1>
1?
1B
1C
#78000000
b00000000001001110 !
b001001110 "
b01001110 %
b01001110 '
b1110 +
b1110 -
b10 1
b10 3
07
09
0:
0>
0?
0B
0C
1G
1I
1J
1N
1O
1R
1S
#79000000
b00000000001001111 !
b001001111 "
b01001111 %
b01001111 '
b1111 +
b1111 -
b11 1
b11 3
17
19
1:
1>
1?
1B
1C
#80000000
b00000000001010000 !
b001010000 "
b01010000 %
b01010000 '
b0000 +
b0000 -
b00 1
b00 3
07
09
0:
0>
0?
0B
0C
0G
0I
0J
0N
0O
0R
0S
b00 W
b00 Y
0]
0_
0`
0d
0e
0h
0i
0m
0o
0p
0t
0u
0x
0y
b0101 }
b0101 ""
b01 &"
b01 ("
1,"
1."
1/"
13"
14"
17"
18"
#81000000
b00000000001010001 !
b001010001 "
b01010001 %
b01010001 '
b0001 +
b0001 -
b01 1
b01 3
17
19
1:
1>
1?
1B
1C
#82000000
b00000000001010010 !
b001010010 "
b01010010 %
b01010010 '
b0010 +
b0010 -
b10 1
b10 3
07
09
0:
0>
0?
0B
0C
1G
1I
1J
1N
1O
1R
1S
#83000000
b00000000001010011 !
b001010011 "
b01010011 %
b01010011 '
b0011 +
b0011 -
b11 1
b11 3
17
19
1:
1>
1?
1B
1C
#84000000
b00000000001010100 !
b001010100 "
b01010100 %
b01010100 '
b0100 +
b0100 -
b00 1
b00 3
07
09
0:
0>
0?
0B
0C
0G
0I
0J
0N
0O
0R
0S
b01 W
b01 Y
1]
1_
1`
1d
1e
1h
1i
#85000000
b00000000001010101 !
b001010101 "
b01010101 %
b01010101 '
b0101 +
b0101 -
b01 1
b01 3
17
19
1:
1>
1?
1B
1C
#86000000
b00000000001010110 !
b001010110 "
b01010110 %
b01010110 '
b0110 +
b0110 -
b10 1
b10 3
07
09
0:
0>
0?
0B
0C
1G
1I
1J
1N
1O
1R
1S
#87000000
b00000000001010111 !
b001010111 "
b01010111 %
b01010111 '
b0111 +
b0111 -
b11 1
b11 3
17
19
1:
1>
1?
1B
1C
#88000000
b00000000001011000 !
b001011000 "
b01011000 %
b01011000 '
b1000 +
b1000 -
b00 1
b00 3
07
09
0:
0>
0?
0B
0C
0G
0I
0J
0N
0O
0R
0S
b10 W
b10 Y
0]
0_
0`
0d
0e
0h
0i
1m
1o
1p
1t
1u
1x
1y
#89000000
b00000000001011001 !
b001011001 "
b01011001 %
b01011001 '
b1001 +
b1001 -
b01 1
b01 3
17
19
1:
1>
1?
1B
1C
#90000000
b00000000001011010 !
b001011010 "
b01011010 %
b01011010 '
b1010 +
b1010 -
b10 1
b10 3
07
09
0:
0>
0?
0B
0C
1G
1I
1J
1N
1O
1R
1S
#91000000
b00000000001011011 !
b001011011 "
b01011011 %
b01011011 '
b1011 +
b1011 -
b11 1
b11 3
17
19
1:
1>
1?
1B
1C
#92000000
b00000000001011100 !
b001011100 "
b01011100 %
b01011100 '
b1100 +
b1100 -
b00 1
b00 3
07
09
0:
0>
0?
0B
0C
0G
0I
0J
0N
0O
0R
0S
b11 W
b11 Y
1]
1_
1`
1d
1e
1h
1i
#93000000
b00000000001011101 !
b001011101 "
b01011101 %
b01011101 '
b1101 +
b1101 -
b01 1
b01 3
17
19
1:
1>
1?
1B
1C
#94000000
b00000000001011110 !
b001011110 "
b01011110 %
b01011110 '
b1110 +
b1110 -
b10 1
b10 3
07
09
0:
0>
0?
0B
0C
1G
1I
1J
1N
1O
1R
1S
#95000000
b00000000001011111 !
b001011111 "
b01011111 %
b01011111 '
b1111 +
b1111 -
b11 1
b11 3
17
19
1:
1>
1?
1B
1C
#96000000
b00000000001100000 !
b001100000 "
b01100000 %
b01100000 '
b0000 +
b0000 -
b00 1
b00 3
07
09
0:
0>
0?
0B
0C
0G
0I
0J
0N
0O
0R
0S
b00 W
b00 Y
0]
0_
0`
0d
0e
0h
0i
0m
0o
0p
0t
0u
0x
0y
b0110 }
b0110 ""
b10 &"
b10 ("
0,"
0."
0/"
03"
04"
07"
08"
1<"
1>"
1?"
1C"
1D"
1G"
1H"
#97000000
b00000000001100001 !
b001100001 "
b01100001 %
b01100001 '
b0001 +
b0001 -
b01 1
b01 3
17
19
1:
1>
1?
1B
1C
#98000000
b00000000001100010 !
b001100010 "
b01100010 %
b01100010 '
b0010 +
b0010 -
b10 1
b10 3
07
09
0:
0>
0?
0B
0C
1G
1I
1J
1N
1O
1R
1S
#99000000
b00000000001100011 !
b001100011 "
b01100011 %
b01100011 '
b0011 +
b0011 -
b11 1
b11 3
17
19
1:
1>
1?
1B
1C
#100000000
b00000000001100100 !
b001100100 "
b01100100 %
b01100100 '
b0100 +
b0100 -
b00 1
b00 3
07
09
0:
0>
0?
0B
0C
0G
0I
0J
0N
0O
0R
0S
b01 W
b01 Y
1]
1_
1`
1d
1e
1h
1i
#101000000
b00000000001100101 !
b001100101 "
b01100101 %
b01100101 '
b0101 +
b0101 -
b01 1
b01 3
17
19
1:
1>
1?
1B
1C
#102000000
b00000000001100110 !
b001100110 "
b01100110 %
b01100110 '
b0110 +
b0110 -
b10 1
b10 3
07
09
0:
0>
0?
0B
0C
1G
1I
1J
1N
1O
1R
1S
#103000000
b00000000001100111 !
b001100111 "
b01100111 %
b01100111 '
b0111 +
b0111 -
b11 1
b11 3
17
19
1:
1>
1?
1B
1C
#104000000
b00000000001101000 !
b001101000 "
b01101000 %
b01101000 '
b1000 +
b1000 -
b00 1
b00 3
07
09
0:
0>
0?
0B
0C
0G
0I
0J
0N
0O
0R
0S
b10 W
b10 Y
0]
0_
0`
0d
0e
0h
0i
1m
1o
1p
1t
1u
1x
1y
#105000000
b00000000001101001 !
b001101001 "
b01101001 %
b01101001 '
b1001 +
b1001 -
b01 1
b01 3
17
19
1:
1>
1?
1B
1C
#106000000
b00000000001101010 !
b001101010 "
b01101010 %
b01101010 '
b1010 +
b1010 -
b10 1
b10 3
07
09
0:
0>
0?
0B
0C
1G
1I
1J
1N
1O
1R
1S
#107000000
b00000000001101011 !
b001101011 "
b01101011 %
b01101011 '
b1011 +
b1011 -
b11 1
b11 3
17
19
1:
1>
1?
1B
1C
