VHDL Files/src/Bitwise Logic/eight_bit_bitwise_not_simulation.vcd
$date
  Sun Sep 24 20:53:04 2023
$end
$version
  GHDL v0
$end
$timescale
  1 fs
$end
$var reg 8 ! test_bits_in[7:0] $end
$var reg 8 " test_bits_out[7:0] $end
$scope module dut $end
$var reg 8 # input[7:0] $end
$var reg 8 $ output[7:0] $end
$upscope $end
$enddefinitions $end
#0
b00000000 !
b11111111 "
b00000000 #
b11111111 $
#1000000
b00000001 !
b11111110 "
b00000001 #
b11111110 $
#2000000
b00000010 !
b11111101 "
b00000010 #
b11111101 $
#3000000
b00000011 !
b11111100 "
b00000011 #
b11111100 $
#4000000
b00000100 !
b11111011 "
b00000100 #
b11111011 $
#5000000
b00000101 !
b11111010 "
b00000101 #
b11111010 $
#6000000
b00000110 !
b11111001 "
b00000110 #
b11111001 $
#7000000
b00000111 !
b11111000 "
b00000111 #
b11111000 $
#8000000
b00001000 !
b11110111 "
b00001000 #
b11110111 $
#9000000
b00001001 !
b11110110 "
b00001001 #
b11110110 $
#10000000
b00001010 !
b11110101 "
b00001010 #
b11110101 $
#11000000
b00001011 !
b11110100 "
b00001011 #
b11110100 $
#12000000
b00001100 !
b11110011 "
b00001100 #
b11110011 $
#13000000
b00001101 !
b11110010 "
b00001101 #
b11110010 $
#14000000
b00001110 !
b11110001 "
b00001110 #
b11110001 $
#15000000
b00001111 !
b11110000 "
b00001111 #
b11110000 $
#16000000
b00010000 !
b11101111 "
b00010000 #
b11101111 $
#17000000
b00010001 !
b11101110 "
b00010001 #
b11101110 $
#18000000
b00010010 !
b11101101 "
b00010010 #
b11101101 $
#19000000
b00010011 !
b11101100 "
b00010011 #
b11101100 $
#20000000
b00010100 !
b11101011 "
b00010100 #
b11101011 $
#21000000
b00010101 !
b11101010 "
b00010101 #
b11101010 $
#22000000
b00010110 !
b11101001 "
b00010110 #
b11101001 $
#23000000
b00010111 !
b11101000 "
b00010111 #
b11101000 $
#24000000
b00011000 !
b11100111 "
b00011000 #
b11100111 $
#25000000
b00011001 !
b11100110 "
b00011001 #
b11100110 $
#26000000
b00011010 !
b11100101 "
b00011010 #
b11100101 $
#27000000
b00011011 !
b11100100 "
b00011011 #
b11100100 $
#28000000
b00011100 !
b11100011 "
b00011100 #
b11100011 $
#29000000
b00011101 !
b11100010 "
b00011101 #
b11100010 $
#30000000
b00011110 !
b11100001 "
b00011110 #
b11100001 $
#31000000
b00011111 !
b11100000 "
b00011111 #
b11100000 $
#32000000
b00100000 !
b11011111 "
b00100000 #
b11011111 $
#33000000
b00100001 !
b11011110 "
b00100001 #
b11011110 $
#34000000
b00100010 !
b11011101 "
b00100010 #
b11011101 $
#35000000
b00100011 !
b11011100 "
b00100011 #
b11011100 $
#36000000
b00100100 !
b11011011 "
b00100100 #
b11011011 $
#37000000
b00100101 !
b11011010 "
b00100101 #
b11011010 $
#38000000
b00100110 !
b11011001 "
b00100110 #
b11011001 $
#39000000
b00100111 !
b11011000 "
b00100111 #
b11011000 $
#40000000
b00101000 !
b11010111 "
b00101000 #
b11010111 $
#41000000
b00101001 !
b11010110 "
b00101001 #
b11010110 $
#42000000
b00101010 !
b11010101 "
b00101010 #
b11010101 $
#43000000
b00101011 !
b11010100 "
b00101011 #
b11010100 $
#44000000
b00101100 !
b11010011 "
b00101100 #
b11010011 $
#45000000
b00101101 !
b11010010 "
b00101101 #
b11010010 $
#46000000
b00101110 !
b11010001 "
b00101110 #
b11010001 $
#47000000
b00101111 !
b11010000 "
b00101111 #
b11010000 $
#48000000
b00110000 !
b11001111 "
b00110000 #
b11001111 $
#49000000
b00110001 !
b11001110 "
b00110001 #
b11001110 $
#50000000
b00110010 !
b11001101 "
b00110010 #
b11001101 $
#51000000
b00110011 !
b11001100 "
b00110011 #
b11001100 $
#52000000
b00110100 !
b11001011 "
b00110100 #
b11001011 $
#53000000
b00110101 !
b11001010 "
b00110101 #
b11001010 $
#54000000
b00110110 !
b11001001 "
b00110110 #
b11001001 $
#55000000
b00110111 !
b11001000 "
b00110111 #
b11001000 $
#56000000
b00111000 !
b11000111 "
b00111000 #
b11000111 $
#57000000
b00111001 !
b11000110 "
b00111001 #
b11000110 $
#58000000
b00111010 !
b11000101 "
b00111010 #
b11000101 $
#59000000
b00111011 !
b11000100 "
b00111011 #
b11000100 $
#60000000
b00111100 !
b11000011 "
b00111100 #
b11000011 $
#61000000
b00111101 !
b11000010 "
b00111101 #
b11000010 $
#62000000
b00111110 !
b11000001 "
b00111110 #
b11000001 $
#63000000
b00111111 !
b11000000 "
b00111111 #
b11000000 $
#64000000
b01000000 !
b10111111 "
b01000000 #
b10111111 $
#65000000
b01000001 !
b10111110 "
b01000001 #
b10111110 $
#66000000
b01000010 !
b10111101 "
b01000010 #
b10111101 $
#67000000
b01000011 !
b10111100 "
b01000011 #
b10111100 $
#68000000
b01000100 !
b10111011 "
b01000100 #
b10111011 $
#69000000
b01000101 !
b10111010 "
b01000101 #
b10111010 $
#70000000
b01000110 !
b10111001 "
b01000110 #
b10111001 $
#71000000
b01000111 !
b10111000 "
b01000111 #
b10111000 $
#72000000
b01001000 !
b10110111 "
b01001000 #
b10110111 $
#73000000
b01001001 !
b10110110 "
b01001001 #
b10110110 $
#74000000
b01001010 !
b10110101 "
b01001010 #
b10110101 $
#75000000
b01001011 !
b10110100 "
b01001011 #
b10110100 $
#76000000
b01001100 !
b10110011 "
b01001100 #
b10110011 $
#77000000
b01001101 !
b10110010 "
b01001101 #
b10110010 $
#78000000
b01001110 !
b10110001 "
b01001110 #
b10110001 $
#79000000
b01001111 !
b10110000 "
b01001111 #
b10110000 $
#80000000
b01010000 !
b10101111 "
b01010000 #
b10101111 $
#81000000
b01010001 !
b10101110 "
b01010001 #
b10101110 $
#82000000
b01010010 !
b10101101 "
b01010010 #
b10101101 $
#83000000
b01010011 !
b10101100 "
b01010011 #
b10101100 $
#84000000
b01010100 !
b10101011 "
b01010100 #
b10101011 $
#85000000
b01010101 !
b10101010 "
b01010101 #
b10101010 $
#86000000
b01010110 !
b10101001 "
b01010110 #
b10101001 $
#87000000
b01010111 !
b10101000 "
b01010111 #
b10101000 $
#88000000
b01011000 !
b10100111 "
b01011000 #
b10100111 $
#89000000
b01011001 !
b10100110 "
b01011001 #
b10100110 $
#90000000
b01011010 !
b10100101 "
b01011010 #
b10100101 $
#91000000
b01011011 !
b10100100 "
b01011011 #
b10100100 $
#92000000
b01011100 !
b10100011 "
b01011100 #
b10100011 $
#93000000
b01011101 !
b10100010 "
b01011101 #
b10100010 $
#94000000
b01011110 !
b10100001 "
b01011110 #
b10100001 $
#95000000
b01011111 !
b10100000 "
b01011111 #
b10100000 $
#96000000
b01100000 !
b10011111 "
b01100000 #
b10011111 $
#97000000
b01100001 !
b10011110 "
b01100001 #
b10011110 $
#98000000
b01100010 !
b10011101 "
b01100010 #
b10011101 $
#99000000
b01100011 !
b10011100 "
b01100011 #
b10011100 $
#100000000
b01100100 !
b10011011 "
b01100100 #
b10011011 $
#101000000
b01100101 !
b10011010 "
b01100101 #
b10011010 $
#102000000
b01100110 !
b10011001 "
b01100110 #
b10011001 $
#103000000
b01100111 !
b10011000 "
b01100111 #
b10011000 $
#104000000
b01101000 !
b10010111 "
b01101000 #
b10010111 $
#105000000
b01101001 !
b10010110 "
b01101001 #
b10010110 $
#106000000
b01101010 !
b10010101 "
b01101010 #
b10010101 $
#107000000
b01101011 !
b10010100 "
b01101011 #
b10010100 $
#108000000
b01101100 !
b10010011 "
b01101100 #
b10010011 $
#109000000
b01101101 !
b10010010 "
b01101101 #
b10010010 $
#110000000
b01101110 !
b10010001 "
b01101110 #
b10010001 $
#111000000
b01101111 !
b10010000 "
b01101111 #
b10010000 $
#112000000
b01110000 !
b10001111 "
b01110000 #
b10001111 $
#113000000
b01110001 !
b10001110 "
b01110001 #
b10001110 $
#114000000
b01110010 !
b10001101 "
b01110010 #
b10001101 $
#115000000
b01110011 !
b10001100 "
b01110011 #
b10001100 $
#116000000
b01110100 !
b10001011 "
b01110100 #
b10001011 $
#117000000
b01110101 !
b10001010 "
b01110101 #
b10001010 $
#118000000
b01110110 !
b10001001 "
b01110110 #
b10001001 $
#119000000
b01110111 !
b10001000 "
b01110111 #
b10001000 $
#120000000
b01111000 !
b10000111 "
b01111000 #
b10000111 $
#121000000
b01111001 !
b10000110 "
b01111001 #
b10000110 $
#122000000
b01111010 !
b10000101 "
b01111010 #
b10000101 $
#123000000
b01111011 !
b10000100 "
b01111011 #
b10000100 $
#124000000
b01111100 !
b10000011 "
b01111100 #
b10000011 $
#125000000
b01111101 !
b10000010 "
b01111101 #
b10000010 $
#126000000
b01111110 !
b10000001 "
b01111110 #
b10000001 $
#127000000
b01111111 !
b10000000 "
b01111111 #
b10000000 $
#128000000
b10000000 !
b01111111 "
b10000000 #
b01111111 $
#129000000
b10000001 !
b01111110 "
b10000001 #
b01111110 $
#130000000
b10000010 !
b01111101 "
b10000010 #
b01111101 $
#131000000
b10000011 !
b01111100 "
b10000011 #
b01111100 $
#132000000
b10000100 !
b01111011 "
b10000100 #
b01111011 $
#133000000
b10000101 !
b01111010 "
b10000101 #
b01111010 $
#134000000
b10000110 !
b01111001 "
b10000110 #
b01111001 $
#135000000
b10000111 !
b01111000 "
b10000111 #
b01111000 $
#136000000
b10001000 !
b01110111 "
b10001000 #
b01110111 $
#137000000
b10001001 !
b01110110 "
b10001001 #
b01110110 $
#138000000
b10001010 !
b01110101 "
b10001010 #
b01110101 $
#139000000
b10001011 !
b01110100 "
b10001011 #
b01110100 $
#140000000
b10001100 !
b01110011 "
b10001100 #
b01110011 $
#141000000
b10001101 !
b01110010 "
b10001101 #
b01110010 $
#142000000
b10001110 !
b01110001 "
b10001110 #
b01110001 $
#143000000
b10001111 !
b01110000 "
b10001111 #
b01110000 $
#144000000
b10010000 !
b01101111 "
b10010000 #
b01101111 $
#145000000
b10010001 !
b01101110 "
b10010001 #
b01101110 $
#146000000
b10010010 !
b01101101 "
b10010010 #
b01101101 $
#147000000
b10010011 !
b01101100 "
b10010011 #
b01101100 $
#148000000
b10010100 !
b01101011 "
b10010100 #
b01101011 $
#149000000
b10010101 !
b01101010 "
b10010101 #
b01101010 $
#150000000
b10010110 !
b01101001 "
b10010110 #
b01101001 $
#151000000
b10010111 !
b01101000 "
b10010111 #
b01101000 $
#152000000
b10011000 !
b01100111 "
b10011000 #
b01100111 $
#153000000
b10011001 !
b01100110 "
b10011001 #
b01100110 $
#154000000
b10011010 !
b01100101 "
b10011010 #
b01100101 $
#155000000
b10011011 !
b01100100 "
b10011011 #
b01100100 $
#156000000
b10011100 !
b01100011 "
b10011100 #
b01100011 $
#157000000
b10011101 !
b01100010 "
b10011101 #
b01100010 $
#158000000
b10011110 !
b01100001 "
b10011110 #
b01100001 $
#159000000
b10011111 !
b01100000 "
b10011111 #
b01100000 $
#160000000
b10100000 !
b01011111 "
b10100000 #
b01011111 $
#161000000
b10100001 !
b01011110 "
b10100001 #
b01011110 $
#162000000
b10100010 !
b01011101 "
b10100010 #
b01011101 $
#163000000
b10100011 !
b01011100 "
b10100011 #
b01011100 $
#164000000
b10100100 !
b01011011 "
b10100100 #
b01011011 $
#165000000
b10100101 !
b01011010 "
b10100101 #
b01011010 $
#166000000
b10100110 !
b01011001 "
b10100110 #
b01011001 $
#167000000
b10100111 !
b01011000 "
b10100111 #
b01011000 $
#168000000
b10101000 !
b01010111 "
b10101000 #
b01010111 $
#169000000
b10101001 !
b01010110 "
b10101001 #
b01010110 $
#170000000
b10101010 !
b01010101 "
b10101010 #
b01010101 $
#171000000
b10101011 !
b01010100 "
b10101011 #
b01010100 $
#172000000
b10101100 !
b01010011 "
b10101100 #
b01010011 $
#173000000
b10101101 !
b01010010 "
b10101101 #
b01010010 $
#174000000
b10101110 !
b01010001 "
b10101110 #
b01010001 $
#175000000
b10101111 !
b01010000 "
b10101111 #
b01010000 $
#176000000
b10110000 !
b01001111 "
b10110000 #
b01001111 $
#177000000
b10110001 !
b01001110 "
b10110001 #
b01001110 $
#178000000
b10110010 !
b01001101 "
b10110010 #
b01001101 $
#179000000
b10110011 !
b01001100 "
b10110011 #
b01001100 $
#180000000
b10110100 !
b01001011 "
b10110100 #
b01001011 $
#181000000
b10110101 !
b01001010 "
b10110101 #
b01001010 $
#182000000
b10110110 !
b01001001 "
b10110110 #
b01001001 $
#183000000
b10110111 !
b01001000 "
b10110111 #
b01001000 $
#184000000
b10111000 !
b01000111 "
b10111000 #
b01000111 $
#185000000
b10111001 !
b01000110 "
b10111001 #
b01000110 $
#186000000
b10111010 !
b01000101 "
b10111010 #
b01000101 $
#187000000
b10111011 !
b01000100 "
b10111011 #
b01000100 $
#188000000
b10111100 !
b01000011 "
b10111100 #
b01000011 $
#189000000
b10111101 !
b01000010 "
b10111101 #
b01000010 $
#190000000
b10111110 !
b01000001 "
b10111110 #
b01000001 $
#191000000
b10111111 !
b01000000 "
b10111111 #
b01000000 $
#192000000
b11000000 !
b00111111 "
b11000000 #
b00111111 $
#193000000
b11000001 !
b00111110 "
b11000001 #
b00111110 $
#194000000
b11000010 !
b00111101 "
b11000010 #
b00111101 $
#195000000
b11000011 !
b00111100 "
b11000011 #
b00111100 $
#196000000
b11000100 !
b00111011 "
b11000100 #
b00111011 $
#197000000
b11000101 !
b00111010 "
b11000101 #
b00111010 $
#198000000
b11000110 !
b00111001 "
b11000110 #
b00111001 $
#199000000
b11000111 !
b00111000 "
b11000111 #
b00111000 $
#200000000
b11001000 !
b00110111 "
b11001000 #
b00110111 $
#201000000
b11001001 !
b00110110 "
b11001001 #
b00110110 $
#202000000
b11001010 !
b00110101 "
b11001010 #
b00110101 $
#203000000
b11001011 !
b00110100 "
b11001011 #
b00110100 $
#204000000
b11001100 !
b00110011 "
b11001100 #
b00110011 $
#205000000
b11001101 !
b00110010 "
b11001101 #
b00110010 $
#206000000
b11001110 !
b00110001 "
b11001110 #
b00110001 $
#207000000
b11001111 !
b00110000 "
b11001111 #
b00110000 $
#208000000
b11010000 !
b00101111 "
b11010000 #
b00101111 $
#209000000
b11010001 !
b00101110 "
b11010001 #
b00101110 $
#210000000
b11010010 !
b00101101 "
b11010010 #
b00101101 $
#211000000
b11010011 !
b00101100 "
b11010011 #
b00101100 $
#212000000
b11010100 !
b00101011 "
b11010100 #
b00101011 $
#213000000
b11010101 !
b00101010 "
b11010101 #
b00101010 $
#214000000
b11010110 !
b00101001 "
b11010110 #
b00101001 $
#215000000
b11010111 !
b00101000 "
b11010111 #
b00101000 $
#216000000
b11011000 !
b00100111 "
b11011000 #
b00100111 $
#217000000
b11011001 !
b00100110 "
b11011001 #
b00100110 $
#218000000
b11011010 !
b00100101 "
b11011010 #
b00100101 $
#219000000
b11011011 !
b00100100 "
b11011011 #
b00100100 $
#220000000
b11011100 !
b00100011 "
b11011100 #
b00100011 $
#221000000
b11011101 !
b00100010 "
b11011101 #
b00100010 $
#222000000
b11011110 !
b00100001 "
b11011110 #
b00100001 $
#223000000
b11011111 !
b00100000 "
b11011111 #
b00100000 $
#224000000
b11100000 !
b00011111 "
b11100000 #
b00011111 $
#225000000
b11100001 !
b00011110 "
b11100001 #
b00011110 $
#226000000
b11100010 !
b00011101 "
b11100010 #
b00011101 $
#227000000
b11100011 !
b00011100 "
b11100011 #
b00011100 $
#228000000
b11100100 !
b00011011 "
b11100100 #
b00011011 $
#229000000
b11100101 !
b00011010 "
b11100101 #
b00011010 $
#230000000
b11100110 !
b00011001 "
b11100110 #
b00011001 $
#231000000
b11100111 !
b00011000 "
b11100111 #
b00011000 $
#232000000
b11101000 !
b00010111 "
b11101000 #
b00010111 $
#233000000
b11101001 !
b00010110 "
b11101001 #
b00010110 $
#234000000
b11101010 !
b00010101 "
b11101010 #
b00010101 $
#235000000
b11101011 !
b00010100 "
b11101011 #
b00010100 $
#236000000
b11101100 !
b00010011 "
b11101100 #
b00010011 $
#237000000
b11101101 !
b00010010 "
b11101101 #
b00010010 $
#238000000
b11101110 !
b00010001 "
b11101110 #
b00010001 $
#239000000
b11101111 !
b00010000 "
b11101111 #
b00010000 $
#240000000
b11110000 !
b00001111 "
b11110000 #
b00001111 $
#241000000
b11110001 !
b00001110 "
b11110001 #
b00001110 $
#242000000
b11110010 !
b00001101 "
b11110010 #
b00001101 $
#243000000
b11110011 !
b00001100 "
b11110011 #
b00001100 $
#244000000
b11110100 !
b00001011 "
b11110100 #
b00001011 $
#245000000
b11110101 !
b00001010 "
b11110101 #
b00001010 $
#246000000
b11110110 !
b00001001 "
b11110110 #
b00001001 $
#247000000
b11110111 !
b00001000 "
b11110111 #
b00001000 $
#248000000
b11111000 !
b00000111 "
b11111000 #
b00000111 $
#249000000
b11111001 !
b00000110 "
b11111001 #
b00000110 $
#250000000
b11111010 !
b00000101 "
b11111010 #
b00000101 $
#251000000
b11111011 !
b00000100 "
b11111011 #
b00000100 $
#252000000
b11111100 !
b00000011 "
b11111100 #
b00000011 $
#253000000
b11111101 !
b00000010 "
b11111101 #
b00000010 $
#254000000
b11111110 !
b00000001 "
b11111110 #
b00000001 $
#255000000
b11111111 !
b00000000 "
b11111111 #
b00000000 $
#256000000
b00000000 !
b11111111 "
b00000000 #
b11111111 $
