VHDL Files/src/Bitwise Logic/eight_bit_bitwise_or_simulation.vcd
$date
  Sun Oct 01 19:26:06 2023
$end
$version
  GHDL v0
$end
$timescale
  1 fs
$end
$var reg 8 ! test_bits_in_a[7:0] $end
$var reg 8 " test_bits_in_b[7:0] $end
$var reg 8 # test_bits_out[7:0] $end
$scope module dut $end
$var reg 8 $ a[7:0] $end
$var reg 8 % b[7:0] $end
$var reg 8 & output[7:0] $end
$upscope $end
$enddefinitions $end
#0
b00000000 !
b00000000 "
b00000000 #
b00000000 $
b00000000 %
b00000000 &
#1000000
b00000001 !
b00000001 #
b00000001 $
b00000001 &
#2000000
b00000010 !
b00000010 #
b00000010 $
b00000010 &
#3000000
b00000011 !
b00000011 #
b00000011 $
b00000011 &
#4000000
b00000100 !
b00000100 #
b00000100 $
b00000100 &
#5000000
b00000101 !
b00000101 #
b00000101 $
b00000101 &
#6000000
b00000110 !
b00000110 #
b00000110 $
b00000110 &
#7000000
b00000111 !
b00000111 #
b00000111 $
b00000111 &
#8000000
b00001000 !
b00001000 #
b00001000 $
b00001000 &
#9000000
b00001001 !
b00001001 #
b00001001 $
b00001001 &
#10000000
b00001010 !
b00001010 #
b00001010 $
b00001010 &
#11000000
b00001011 !
b00001011 #
b00001011 $
b00001011 &
#12000000
b00001100 !
b00001100 #
b00001100 $
b00001100 &
#13000000
b00001101 !
b00001101 #
b00001101 $
b00001101 &
#14000000
b00001110 !
b00001110 #
b00001110 $
b00001110 &
#15000000
b00001111 !
b00001111 #
b00001111 $
b00001111 &
#16000000
b00010000 !
b00010000 #
b00010000 $
b00010000 &
#17000000
b00010001 !
b00010001 #
b00010001 $
b00010001 &
#18000000
b00010010 !
b00010010 #
b00010010 $
b00010010 &
#19000000
b00010011 !
b00010011 #
b00010011 $
b00010011 &
#20000000
b00010100 !
b00010100 #
b00010100 $
b00010100 &
#21000000
b00010101 !
b00010101 #
b00010101 $
b00010101 &
#22000000
b00010110 !
b00010110 #
b00010110 $
b00010110 &
#23000000
b00010111 !
b00010111 #
b00010111 $
b00010111 &
#24000000
b00011000 !
b00011000 #
b00011000 $
b00011000 &
#25000000
b00011001 !
b00011001 #
b00011001 $
b00011001 &
#26000000
b00011010 !
b00011010 #
b00011010 $
b00011010 &
#27000000
b00011011 !
b00011011 #
b00011011 $
b00011011 &
#28000000
b00011100 !
b00011100 #
b00011100 $
b00011100 &
#29000000
b00011101 !
b00011101 #
b00011101 $
b00011101 &
#30000000
b00011110 !
b00011110 #
b00011110 $
b00011110 &
#31000000
b00011111 !
b00011111 #
b00011111 $
b00011111 &
#32000000
b00100000 !
b00100000 #
b00100000 $
b00100000 &
#33000000
b00100001 !
b00100001 #
b00100001 $
b00100001 &
#34000000
b00100010 !
b00100010 #
b00100010 $
b00100010 &
#35000000
b00100011 !
b00100011 #
b00100011 $
b00100011 &
#36000000
b00100100 !
b00100100 #
b00100100 $
b00100100 &
#37000000
b00100101 !
b00100101 #
b00100101 $
b00100101 &
#38000000
b00100110 !
b00100110 #
b00100110 $
b00100110 &
#39000000
b00100111 !
b00100111 #
b00100111 $
b00100111 &
#40000000
b00101000 !
b00101000 #
b00101000 $
b00101000 &
#41000000
b00101001 !
b00101001 #
b00101001 $
b00101001 &
#42000000
b00101010 !
b00101010 #
b00101010 $
b00101010 &
#43000000
b00101011 !
b00101011 #
b00101011 $
b00101011 &
#44000000
b00101100 !
b00101100 #
b00101100 $
b00101100 &
#45000000
b00101101 !
b00101101 #
b00101101 $
b00101101 &
#46000000
b00101110 !
b00101110 #
b00101110 $
b00101110 &
#47000000
b00101111 !
b00101111 #
b00101111 $
b00101111 &
#48000000
b00110000 !
b00110000 #
b00110000 $
b00110000 &
#49000000
b00110001 !
b00110001 #
b00110001 $
b00110001 &
#50000000
b00110010 !
b00110010 #
b00110010 $
b00110010 &
#51000000
b00110011 !
b00110011 #
b00110011 $
b00110011 &
#52000000
b00110100 !
b00110100 #
b00110100 $
b00110100 &
#53000000
b00110101 !
b00110101 #
b00110101 $
b00110101 &
#54000000
b00110110 !
b00110110 #
b00110110 $
b00110110 &
#55000000
b00110111 !
b00110111 #
b00110111 $
b00110111 &
#56000000
b00111000 !
b00111000 #
b00111000 $
b00111000 &
#57000000
b00111001 !
b00111001 #
b00111001 $
b00111001 &
#58000000
b00111010 !
b00111010 #
b00111010 $
b00111010 &
#59000000
b00111011 !
b00111011 #
b00111011 $
b00111011 &
#60000000
b00111100 !
b00111100 #
b00111100 $
b00111100 &
#61000000
b00111101 !
b00111101 #
b00111101 $
b00111101 &
#62000000
b00111110 !
b00111110 #
b00111110 $
b00111110 &
#63000000
b00111111 !
b00111111 #
b00111111 $
b00111111 &
#64000000
b01000000 !
b01000000 #
b01000000 $
b01000000 &
#65000000
b01000001 !
b01000001 #
b01000001 $
b01000001 &
#66000000
b01000010 !
b01000010 #
b01000010 $
b01000010 &
#67000000
b01000011 !
b01000011 #
b01000011 $
b01000011 &
#68000000
b01000100 !
b01000100 #
b01000100 $
b01000100 &
#69000000
b01000101 !
b01000101 #
b01000101 $
b01000101 &
#70000000
b01000110 !
b01000110 #
b01000110 $
b01000110 &
#71000000
b01000111 !
b01000111 #
b01000111 $
b01000111 &
#72000000
b01001000 !
b01001000 #
b01001000 $
b01001000 &
#73000000
b01001001 !
b01001001 #
b01001001 $
b01001001 &
#74000000
b01001010 !
b01001010 #
b01001010 $
b01001010 &
#75000000
b01001011 !
b01001011 #
b01001011 $
b01001011 &
#76000000
b01001100 !
b01001100 #
b01001100 $
b01001100 &
#77000000
b01001101 !
b01001101 #
b01001101 $
b01001101 &
#78000000
b01001110 !
b01001110 #
b01001110 $
b01001110 &
#79000000
b01001111 !
b01001111 #
b01001111 $
b01001111 &
#80000000
b01010000 !
b01010000 #
b01010000 $
b01010000 &
#81000000
b01010001 !
b01010001 #
b01010001 $
b01010001 &
#82000000
b01010010 !
b01010010 #
b01010010 $
b01010010 &
#83000000
b01010011 !
b01010011 #
b01010011 $
b01010011 &
#84000000
b01010100 !
b01010100 #
b01010100 $
b01010100 &
#85000000
b01010101 !
b01010101 #
b01010101 $
b01010101 &
#86000000
b01010110 !
b01010110 #
b01010110 $
b01010110 &
#87000000
b01010111 !
b01010111 #
b01010111 $
b01010111 &
#88000000
b01011000 !
b01011000 #
b01011000 $
b01011000 &
#89000000
b01011001 !
b01011001 #
b01011001 $
b01011001 &
#90000000
b01011010 !
b01011010 #
b01011010 $
b01011010 &
#91000000
b01011011 !
b01011011 #
b01011011 $
b01011011 &
#92000000
b01011100 !
b01011100 #
b01011100 $
b01011100 &
#93000000
b01011101 !
b01011101 #
b01011101 $
b01011101 &
#94000000
b01011110 !
b01011110 #
b01011110 $
b01011110 &
#95000000
b01011111 !
b01011111 #
b01011111 $
b01011111 &
#96000000
b01100000 !
b01100000 #
b01100000 $
b01100000 &
#97000000
b01100001 !
b01100001 #
b01100001 $
b01100001 &
#98000000
b01100010 !
b01100010 #
b01100010 $
b01100010 &
#99000000
b01100011 !
b01100011 #
b01100011 $
b01100011 &
#100000000
b01100100 !
b01100100 #
b01100100 $
b01100100 &
#101000000
b01100101 !
b01100101 #
b01100101 $
b01100101 &
#102000000
b01100110 !
b01100110 #
b01100110 $
b01100110 &
#103000000
b01100111 !
b01100111 #
b01100111 $
b01100111 &
#104000000
b01101000 !
b01101000 #
b01101000 $
b01101000 &
#105000000
b01101001 !
b01101001 #
b01101001 $
b01101001 &
#106000000
b01101010 !
b01101010 #
b01101010 $
b01101010 &
#107000000
b01101011 !
b01101011 #
b01101011 $
b01101011 &
#108000000
b01101100 !
b01101100 #
b01101100 $
b01101100 &
#109000000
b01101101 !
b01101101 #
b01101101 $
b01101101 &
#110000000
b01101110 !
b01101110 #
b01101110 $
b01101110 &
#111000000
b01101111 !
b01101111 #
b01101111 $
b01101111 &
#112000000
b01110000 !
b01110000 #
b01110000 $
b01110000 &
#113000000
b01110001 !
b01110001 #
b01110001 $
b01110001 &
#114000000
b01110010 !
b01110010 #
b01110010 $
b01110010 &
#115000000
b01110011 !
b01110011 #
b01110011 $
b01110011 &
#116000000
b01110100 !
b01110100 #
b01110100 $
b01110100 &
#117000000
b01110101 !
b01110101 #
b01110101 $
b01110101 &
#118000000
b01110110 !
b01110110 #
b01110110 $
b01110110 &
#119000000
b01110111 !
b01110111 #
b01110111 $
b01110111 &
#120000000
b01111000 !
b01111000 #
b01111000 $
b01111000 &
#121000000
b01111001 !
b01111001 #
b01111001 $
b01111001 &
#122000000
b01111010 !
b01111010 #
b01111010 $
b01111010 &
#123000000
b01111011 !
b01111011 #
b01111011 $
b01111011 &
#124000000
b01111100 !
b01111100 #
b01111100 $
b01111100 &
#125000000
b01111101 !
b01111101 #
b01111101 $
b01111101 &
#126000000
b01111110 !
b01111110 #
b01111110 $
b01111110 &
#127000000
b01111111 !
b01111111 #
b01111111 $
b01111111 &
#128000000
b10000000 !
b10000000 #
b10000000 $
b10000000 &
#129000000
b10000001 !
b10000001 #
b10000001 $
b10000001 &
#130000000
b10000010 !
b10000010 #
b10000010 $
b10000010 &
#131000000
b10000011 !
b10000011 #
b10000011 $
b10000011 &
#132000000
b10000100 !
b10000100 #
b10000100 $
b10000100 &
#133000000
b10000101 !
b10000101 #
b10000101 $
b10000101 &
#134000000
b10000110 !
b10000110 #
b10000110 $
b10000110 &
#135000000
b10000111 !
b10000111 #
b10000111 $
b10000111 &
#136000000
b10001000 !
b10001000 #
b10001000 $
b10001000 &
#137000000
b10001001 !
b10001001 #
b10001001 $
b10001001 &
#138000000
b10001010 !
b10001010 #
b10001010 $
b10001010 &
#139000000
b10001011 !
b10001011 #
b10001011 $
b10001011 &
#140000000
b10001100 !
b10001100 #
b10001100 $
b10001100 &
#141000000
b10001101 !
b10001101 #
b10001101 $
b10001101 &
#142000000
b10001110 !
b10001110 #
b10001110 $
b10001110 &
#143000000
b10001111 !
b10001111 #
b10001111 $
b10001111 &
#144000000
b10010000 !
b10010000 #
b10010000 $
b10010000 &
#145000000
b10010001 !
b10010001 #
b10010001 $
b10010001 &
#146000000
b10010010 !
b10010010 #
b10010010 $
b10010010 &
#147000000
b10010011 !
b10010011 #
b10010011 $
b10010011 &
#148000000
b10010100 !
b10010100 #
b10010100 $
b10010100 &
#149000000
b10010101 !
b10010101 #
b10010101 $
b10010101 &
#150000000
b10010110 !
b10010110 #
b10010110 $
b10010110 &
#151000000
b10010111 !
b10010111 #
b10010111 $
b10010111 &
#152000000
b10011000 !
b10011000 #
b10011000 $
b10011000 &
#153000000
b10011001 !
b10011001 #
b10011001 $
b10011001 &
#154000000
b10011010 !
b10011010 #
b10011010 $
b10011010 &
#155000000
b10011011 !
b10011011 #
b10011011 $
b10011011 &
#156000000
b10011100 !
b10011100 #
b10011100 $
b10011100 &
#157000000
b10011101 !
b10011101 #
b10011101 $
b10011101 &
#158000000
b10011110 !
b10011110 #
b10011110 $
b10011110 &
#159000000
b10011111 !
b10011111 #
b10011111 $
b10011111 &
#160000000
b10100000 !
b10100000 #
b10100000 $
b10100000 &
#161000000
b10100001 !
b10100001 #
b10100001 $
b10100001 &
#162000000
b10100010 !
b10100010 #
b10100010 $
b10100010 &
#163000000
b10100011 !
b10100011 #
b10100011 $
b10100011 &
#164000000
b10100100 !
b10100100 #
b10100100 $
b10100100 &
#165000000
b10100101 !
b10100101 #
b10100101 $
b10100101 &
#166000000
b10100110 !
b10100110 #
b10100110 $
b10100110 &
#167000000
b10100111 !
b10100111 #
b10100111 $
b10100111 &
#168000000
b10101000 !
b10101000 #
b10101000 $
b10101000 &
#169000000
b10101001 !
b10101001 #
b10101001 $
b10101001 &
#170000000
b10101010 !
b10101010 #
b10101010 $
b10101010 &
#171000000
b10101011 !
b10101011 #
b10101011 $
b10101011 &
#172000000
b10101100 !
b10101100 #
b10101100 $
b10101100 &
#173000000
b10101101 !
b10101101 #
b10101101 $
b10101101 &
#174000000
b10101110 !
b10101110 #
b10101110 $
b10101110 &
#175000000
b10101111 !
b10101111 #
b10101111 $
b10101111 &
#176000000
b10110000 !
b10110000 #
b10110000 $
b10110000 &
#177000000
b10110001 !
b10110001 #
b10110001 $
b10110001 &
#178000000
b10110010 !
b10110010 #
b10110010 $
b10110010 &
#179000000
b10110011 !
b10110011 #
b10110011 $
b10110011 &
#180000000
b10110100 !
b10110100 #
b10110100 $
b10110100 &
#181000000
b10110101 !
b10110101 #
b10110101 $
b10110101 &
#182000000
b10110110 !
b10110110 #
b10110110 $
b10110110 &
#183000000
b10110111 !
b10110111 #
b10110111 $
b10110111 &
#184000000
b10111000 !
b10111000 #
b10111000 $
b10111000 &
#185000000
b10111001 !
b10111001 #
b10111001 $
b10111001 &
#186000000
b10111010 !
b10111010 #
b10111010 $
b10111010 &
#187000000
b10111011 !
b10111011 #
b10111011 $
b10111011 &
#188000000
b10111100 !
b10111100 #
b10111100 $
b10111100 &
#189000000
b10111101 !
b10111101 #
b10111101 $
b10111101 &
#190000000
b10111110 !
b10111110 #
b10111110 $
b10111110 &
#191000000
b10111111 !
b10111111 #
b10111111 $
b10111111 &
#192000000
b11000000 !
b11000000 #
b11000000 $
b11000000 &
#193000000
b11000001 !
b11000001 #
b11000001 $
b11000001 &
#194000000
b11000010 !
b11000010 #
b11000010 $
b11000010 &
#195000000
b11000011 !
b11000011 #
b11000011 $
b11000011 &
#196000000
b11000100 !
b11000100 #
b11000100 $
b11000100 &
#197000000
b11000101 !
b11000101 #
b11000101 $
b11000101 &
#198000000
b11000110 !
b11000110 #
b11000110 $
b11000110 &
#199000000
b11000111 !
b11000111 #
b11000111 $
b11000111 &
#200000000
b11001000 !
b11001000 #
b11001000 $
b11001000 &
#201000000
b11001001 !
b11001001 #
b11001001 $
b11001001 &
#202000000
b11001010 !
b11001010 #
b11001010 $
b11001010 &
#203000000
b11001011 !
b11001011 #
b11001011 $
b11001011 &
#204000000
b11001100 !
b11001100 #
b11001100 $
b11001100 &
#205000000
b11001101 !
b11001101 #
b11001101 $
b11001101 &
#206000000
b11001110 !
b11001110 #
b11001110 $
b11001110 &
#207000000
b11001111 !
b11001111 #
b11001111 $
b11001111 &
#208000000
b11010000 !
b11010000 #
b11010000 $
b11010000 &
#209000000
b11010001 !
b11010001 #
b11010001 $
b11010001 &
#210000000
b11010010 !
b11010010 #
b11010010 $
b11010010 &
#211000000
b11010011 !
b11010011 #
b11010011 $
b11010011 &
#212000000
b11010100 !
b11010100 #
b11010100 $
b11010100 &
#213000000
b11010101 !
b11010101 #
b11010101 $
b11010101 &
#214000000
b11010110 !
b11010110 #
b11010110 $
b11010110 &
#215000000
b11010111 !
b11010111 #
b11010111 $
b11010111 &
#216000000
b11011000 !
b11011000 #
b11011000 $
b11011000 &
#217000000
b11011001 !
b11011001 #
b11011001 $
b11011001 &
#218000000
b11011010 !
b11011010 #
b11011010 $
b11011010 &
#219000000
b11011011 !
b11011011 #
b11011011 $
b11011011 &
#220000000
b11011100 !
b11011100 #
b11011100 $
b11011100 &
#221000000
b11011101 !
b11011101 #
b11011101 $
b11011101 &
#222000000
b11011110 !
b11011110 #
b11011110 $
b11011110 &
#223000000
b11011111 !
b11011111 #
b11011111 $
b11011111 &
#224000000
b11100000 !
b11100000 #
b11100000 $
b11100000 &
#225000000
b11100001 !
b11100001 #
b11100001 $
b11100001 &
#226000000
b11100010 !
b11100010 #
b11100010 $
b11100010 &
#227000000
b11100011 !
b11100011 #
b11100011 $
b11100011 &
#228000000
b11100100 !
b11100100 #
b11100100 $
b11100100 &
#229000000
b11100101 !
b11100101 #
b11100101 $
b11100101 &
#230000000
b11100110 !
b11100110 #
b11100110 $
b11100110 &
#231000000
b11100111 !
b11100111 #
b11100111 $
b11100111 &
#232000000
b11101000 !
b11101000 #
b11101000 $
b11101000 &
#233000000
b11101001 !
b11101001 #
b11101001 $
b11101001 &
#234000000
b11101010 !
b11101010 #
b11101010 $
b11101010 &
#235000000
b11101011 !
b11101011 #
b11101011 $
b11101011 &
#236000000
b11101100 !
b11101100 #
b11101100 $
b11101100 &
#237000000
b11101101 !
b11101101 #
b11101101 $
b11101101 &
#238000000
b11101110 !
b11101110 #
b11101110 $
b11101110 &
#239000000
b11101111 !
b11101111 #
b11101111 $
b11101111 &
#240000000
b11110000 !
b11110000 #
b11110000 $
b11110000 &
#241000000
b11110001 !
b11110001 #
b11110001 $
b11110001 &
#242000000
b11110010 !
b11110010 #
b11110010 $
b11110010 &
#243000000
b11110011 !
b11110011 #
b11110011 $
b11110011 &
#244000000
b11110100 !
b11110100 #
b11110100 $
b11110100 &
#245000000
b11110101 !
b11110101 #
b11110101 $
b11110101 &
#246000000
b11110110 !
b11110110 #
b11110110 $
b11110110 &
#247000000
b11110111 !
b11110111 #
b11110111 $
b11110111 &
#248000000
b11111000 !
b11111000 #
b11111000 $
b11111000 &
#249000000
b11111001 !
b11111001 #
b11111001 $
b11111001 &
#250000000
b11111010 !
b11111010 #
b11111010 $
b11111010 &
#251000000
b11111011 !
b11111011 #
b11111011 $
b11111011 &
#252000000
b11111100 !
b11111100 #
b11111100 $
b11111100 &
#253000000
b11111101 !
b11111101 #
b11111101 $
b11111101 &
#254000000
b11111110 !
b11111110 #
b11111110 $
b11111110 &
#255000000
b11111111 !
b11111111 #
b11111111 $
b11111111 &
