VHDL Files/src/8 Bit Adder/2 Bit Adder/two_bit_adder_simulation.vcd
$date
  Fri Sep 22 20:02:07 2023
$end
$version
  GHDL v0
$end
$timescale
  1 fs
$end
$var reg 4 ! test_bits_in[3:0] $end
$var reg 3 " test_bits_out[2:0] $end
$scope module dut $end
$var reg 2 # a[1:0] $end
$var reg 2 $ b[1:0] $end
$var reg 3 % sum[2:0] $end
$var reg 2 & c[1:0] $end
$scope module lsb $end
$var reg 1 ' carry_in $end
$var reg 1 ( i1 $end
$var reg 1 ) i0 $end
$var reg 1 * carry_out $end
$var reg 1 + sum $end
$var reg 1 , p0 $end
$var reg 1 - p1 $end
$var reg 1 . p2 $end
$scope module half_adder_xin_yin $end
$var reg 1 / i1 $end
$var reg 1 0 i0 $end
$var reg 1 1 sum $end
$var reg 1 2 carry $end
$upscope $end
$scope module half_adder_cin_sout $end
$var reg 1 3 i1 $end
$var reg 1 4 i0 $end
$var reg 1 5 sum $end
$var reg 1 6 carry $end
$upscope $end
$upscope $end
$scope module msb $end
$var reg 1 7 carry_in $end
$var reg 1 8 i1 $end
$var reg 1 9 i0 $end
$var reg 1 : carry_out $end
$var reg 1 ; sum $end
$var reg 1 < p0 $end
$var reg 1 = p1 $end
$var reg 1 > p2 $end
$scope module half_adder_xin_yin $end
$var reg 1 ? i1 $end
$var reg 1 @ i0 $end
$var reg 1 A sum $end
$var reg 1 B carry $end
$upscope $end
$scope module half_adder_cin_sout $end
$var reg 1 C i1 $end
$var reg 1 D i0 $end
$var reg 1 E sum $end
$var reg 1 F carry $end
$upscope $end
$upscope $end
$upscope $end
$enddefinitions $end
#0
b0000 !
b000 "
b00 #
b00 $
b000 %
b00 &
0'
0(
0)
0*
0+
0,
0-
0.
0/
00
01
02
03
04
05
06
07
08
09
0:
0;
0<
0=
0>
0?
0@
0A
0B
0C
0D
0E
0F
#1000000
b0001 !
b001 "
b01 $
b001 %
1)
1+
1,
10
11
14
15
#2000000
b0010 !
b010 "
b10 $
b010 %
0)
0+
0,
00
01
04
05
19
1;
1<
1@
1A
1D
1E
#3000000
b0011 !
b011 "
b11 $
b011 %
1)
1+
1,
10
11
14
15
#4000000
b0100 !
b001 "
b01 #
b00 $
b001 %
1(
0)
1/
00
09
0;
0<
0@
0A
0D
0E
#5000000
b0101 !
b010 "
b01 $
b010 %
b10 &
1)
1*
0+
0,
1-
10
01
12
04
05
17
1;
1C
1E
#6000000
b0110 !
b011 "
b10 $
b011 %
b00 &
0)
0*
1+
1,
0-
00
11
02
14
15
07
19
0:
1;
1<
0>
1@
1A
0C
1D
1E
0F
#7000000
b0111 !
b100 "
b11 $
b100 %
b10 &
1)
1*
0+
0,
1-
10
01
12
04
05
17
1:
0;
1>
1C
0E
1F
#8000000
b1000 !
b010 "
b10 #
b00 $
b010 %
b00 &
0(
0)
0*
0-
0/
00
02
07
18
09
0:
1;
0>
1?
0@
0C
1E
0F
#9000000
b1001 !
b011 "
b01 $
b011 %
1)
1+
1,
10
11
14
15
#10000000
b1010 !
b100 "
b10 $
b100 %
0)
0+
0,
00
01
04
05
19
1:
0;
0<
1=
1@
0A
1B
0D
0E
#11000000
b1011 !
b101 "
b11 $
b101 %
1)
1+
1,
10
11
14
15
#12000000
b1100 !
b011 "
b11 #
b00 $
b011 %
1(
0)
1/
00
09
0:
1;
1<
0=
0@
1A
0B
1D
1E
#13000000
b1101 !
b100 "
b01 $
b100 %
b10 &
1)
1*
0+
0,
1-
10
01
12
04
05
17
1:
0;
1>
1C
0E
1F
#14000000
b1110 !
b101 "
b10 $
b101 %
b00 &
0)
0*
1+
1,
0-
00
11
02
14
15
07
19
0;
0<
1=
0>
1@
0A
1B
0C
0D
0E
0F
#15000000
b1111 !
b110 "
b11 $
b110 %
b10 &
1)
1*
0+
0,
1-
10
01
12
04
05
17
1;
1C
1E
