VHDL Files/src/8 Bit Adder/2 Bit Adder/two_bit_adder_simulation.vcd
$date
  Sat Sep 23 21:16:44 2023
$end
$version
  GHDL v0
$end
$timescale
  1 fs
$end
$var reg 5 ! test_bits_in[4:0] $end
$var reg 3 " test_bits_out[2:0] $end
$scope module dut $end
$var reg 1 # carry_in $end
$var reg 2 $ a[1:0] $end
$var reg 2 % b[1:0] $end
$var reg 1 & carry_out $end
$var reg 2 ' sum[1:0] $end
$var reg 2 ( g[1:0] $end
$var reg 2 ) p[1:0] $end
$var reg 4 * c[3:0] $end
$upscope $end
$enddefinitions $end
#0
b00000 !
b000 "
0#
b00 $
b00 %
0&
b00 '
b00 (
b00 )
b0000 *
#1000000
b00001 !
b001 "
b01 %
b01 '
b01 )
#2000000
b00010 !
b010 "
b10 %
b10 '
b10 )
#3000000
b00011 !
b011 "
b11 %
b11 '
b11 )
#4000000
b00100 !
b001 "
b01 $
b00 %
b01 '
b01 )
#5000000
b00101 !
b010 "
b01 %
b10 '
b01 (
b0010 *
#6000000
b00110 !
b011 "
b10 %
b11 '
b00 (
b11 )
b0000 *
#7000000
b00111 !
b100 "
b11 %
1&
b00 '
b01 (
b1010 *
#8000000
b01000 !
b010 "
b10 $
b00 %
0&
b10 '
b00 (
b10 )
b0000 *
#9000000
b01001 !
b011 "
b01 %
b11 '
b11 )
#10000000
b01010 !
b100 "
b10 %
1&
b00 '
b10 (
b10 )
#11000000
b01011 !
b101 "
b11 %
b01 '
b11 )
#12000000
b01100 !
b011 "
b11 $
b00 %
0&
b11 '
b00 (
#13000000
b01101 !
b100 "
b01 %
1&
b00 '
b01 (
b1010 *
#14000000
b01110 !
b101 "
b10 %
b01 '
b10 (
b0000 *
#15000000
b01111 !
b110 "
b11 %
b10 '
b11 (
b1010 *
